2889,8,245,Афганистан
2890,11,245,Afghanistan
2891,13,245,Afghanistan
2892,5,245,"Afeganistão, República Islâmica do"
2893,3,245,Αφγανιστάν
2894,4,245,Afganistan
2895,1,245,Afghanistan
2896,15,245,Afganistan
2897,6,245,Afghanistan
2898,18,245,Afganistan
2899,9,245,Afganistán
2900,17,245,Afghanistan
2901,12,245,阿富汗
2902,14,245,Afghanistan
2903,10,245,アフガニスタン
2904,16,245,Afganistan
2905,7,245,Afghanistan
2906,2,245,Afganistan
2907,8,246,Аландские острова
2908,11,246,Ålandeilanden
2909,13,246,Åland
2910,5,246,Ilhas Åland
2911,3,246,Νησιά Ώλαντ
2912,4,246,Aland Adaları
2913,1,246,Åland Inseln
2914,6,246,Îles d'Åland
2915,15,246,Wyspy Alandzkie
2916,18,246,Álandseyjar
2917,9,246,Islas Åland
2918,12,246,阿兰群岛
2919,17,246,Åland
2920,14,246,Åland
2921,10,246,アーランド諸島
2922,7,246,Åland Islands
2923,16,246,Ahvenanmaa
2924,2,246,Isole Aland
2925,8,247,Албания
2926,11,247,Albanië
2927,13,247,Albanien
2928,5,247,Albânia
2929,3,247,Αλβανία
2930,4,247,Arnavutluk
2931,1,247,Albanien
2932,6,247,Albanie
2933,15,247,Albania
2934,18,247,Albanía
2935,9,247,Albania
2936,12,247,阿尔巴尼亚
2937,17,247,Albanien
2938,14,247,Albania
2939,10,247,アルバニア
2940,7,247,Albania
2941,16,247,Albania
2942,2,247,Albania
2943,8,248,Алжир
2944,11,248,Algerije
2945,13,248,Algeriet
2946,5,248,Argélia
2947,3,248,Αλγερία
2948,4,248,Cezayir
2949,1,248,Algerien
2950,6,248,Algérie
2951,15,248,Algieria
2952,18,248,Alsír
2953,9,248,Argelia
2954,12,248,阿尔及利亚
2955,17,248,Algeriet
2956,14,248,Algerie
2957,10,248,アルジェリア
2958,7,248,Algeria
2959,16,248,Algeria
2960,2,248,Algeria
2961,8,249,Американское Самоа
2962,11,249,Amerikaans-Samoa
2963,13,249,Amerikansk Samoa
2964,5,249,Samoa Americana
2965,3,249,Αμερικανική Σαμόα
2966,4,249,Amerikan Samoa
2967,1,249,Samoa Inseln
2968,6,249,Samoa Américaines
2969,15,249,Samoa Amerykańskie
2970,18,249,Bandaríska Samóa
2971,9,249,Samoa Americana
2972,12,249,美属萨摩亚群岛
2973,17,249,Amerikanska Samoa
2974,14,249,Amerikansk Samoa
2975,10,249,アメリカ領サモア
2976,7,249,American Samoa
2977,16,249,Amerikan Samoa
2978,2,249,Samoa Americana
2979,8,250,Андорра
2980,11,250,Andorra
2981,13,250,Andorra
2982,5,250,Andorra
2983,3,250,Ανδόρα
2984,4,250,Andorra
2985,1,250,Andorra
2986,6,250,Andorre
2987,15,250,Andora
2988,18,250,Andorra
2989,9,250,Andorra
2990,12,250,安道尔
2991,17,250,Andorra
2992,14,250,Andorra
2993,10,250,アンドラ
2994,7,250,Andorra
2995,16,250,Andorra
2996,2,250,Andorra
2997,8,251,Ангола
2998,11,251,Angola
2999,13,251,Angola
3000,5,251,Angola
3001,3,251,Ανγκόλα
3002,4,251,Angola
3003,1,251,Angola
3004,6,251,Angola
3005,15,251,Angola
3006,18,251,Angóla
3007,9,251,Angola
3008,12,251,安哥拉
3009,17,251,Angola
3010,14,251,Angola
3011,10,251,アンゴラ
3012,7,251,Angola
3013,16,251,Angola
3014,2,251,Angola
3015,8,252,Ангилья
3016,11,252,Anguilla
3017,13,252,Anguilla
3018,5,252,Anguila
3019,3,252,Ανγκουίλα
3020,4,252,Anguilla
3021,1,252,Anguilla
3022,6,252,Anguilla
3023,15,252,Anguilla
3024,18,252,Angvilla
3025,9,252,Anguila
3026,12,252,安圭拉
3027,17,252,Anguilla
3028,14,252,Anguilla
3029,10,252,アンギラ
3030,7,252,Anguilla
3031,16,252,Anguilla
3032,2,252,Anguilla
3033,8,253,Антарктида
3034,11,253,Antarctica
3035,13,253,Antarktis
3036,5,253,Antárctica
3037,3,253,Ανταρκτική
3038,4,253,Antarktika
3039,1,253,Antarktis
3040,6,253,Antarctique
3041,15,253,Antarktyda
3042,18,253,Suðurskautslandið
3043,9,253,Antártida
3044,12,253,南极洲
3045,17,253,Antarktis
3046,14,253,Antarktis
3047,10,253,南極
3048,7,253,Antarctica
3049,16,253,Etelämanner
3050,2,253,Antartide (territorio compreso entro i 60° di latitudine sud)
3051,8,254,Антигуа и Барбуда
3052,11,254,Antigua en Barbuda
3053,13,254,Antigua og Barbuda
3054,5,254,Antígua e Barbuda
3055,3,254,Αντίγκουα και Μπαρμπούντα
3056,4,254,Antigua ve Barbuda
3057,1,254,Antigua und Barbuda
3058,6,254,Antigua-et-Barbuda
3059,15,254,Antigua i Barbuda
3060,18,254,Antígva og Barbúda
3061,9,254,Antigua y Barbuda
3062,12,254,安提瓜和巴布达
3063,17,254,Antigua och Barbuda
3064,14,254,Antigua og Barbuda
3065,10,254,アンティグア・バーブーダ
3066,7,254,Antigua and Barbuda
3067,16,254,Antigua ja Barbuda
3068,2,254,Antigua e Barbuda
3069,8,255,Аргентина
3070,11,255,Argentinië
3071,13,255,Argentina
3072,5,255,Argentina
3073,3,255,Αργεντινή
3074,4,255,Arjantin
3075,1,255,Argentinien
3076,6,255,Argentine
3077,15,255,Argentyna
3078,18,255,Argentína
3079,9,255,Argentina
3080,12,255,阿根廷
3081,17,255,Argentina
3082,14,255,Argentina
3083,10,255,アルゼンチン
3084,7,255,Argentina
3085,16,255,Argentiina
3086,2,255,Argentina
3087,8,256,Армения
3088,11,256,Armenië
3089,13,256,Armenien
3090,5,256,Arménia
3091,3,256,Αρμενία
3092,4,256,Ermenistan
3093,1,256,Armenien
3094,6,256,Arménie
3095,15,256,Armenia
3096,18,256,Armenía
3097,9,256,Armenia
3098,12,256,亚美尼亚
3099,17,256,Armenien
3100,14,256,Armenia
3101,10,256,アルメニア
3102,7,256,Armenia
3103,16,256,Armenia
3104,2,256,Armenia
3105,8,257,Аруба
3106,11,257,Aruba
3107,13,257,Aruba
3108,5,257,Aruba
3109,3,257,Αρούμπα
3110,4,257,Aruba
3111,1,257,ABC-Inseln
3112,6,257,Aruba
3113,15,257,Aruba
3114,18,257,Arúba
3115,9,257,Aruba
3116,12,257,阿鲁巴岛
3117,17,257,Aruba
3118,14,257,Aruba
3119,10,257,アルバ
3120,7,257,Aruba
3121,16,257,Aruba
3122,2,257,Aruba
3123,8,258,Австралия
3124,11,258,Australië
3125,13,258,Australien
3126,5,258,Austrália
3127,3,258,Αυστραλία
3128,4,258,Avustralya
3129,1,258,Australien
3130,6,258,Australie
3131,15,258,Australia
3132,18,258,Ástralía
3133,9,258,Australia
3134,12,258,澳大利亚
3135,17,258,Australien
3136,14,258,Australia
3137,10,258,オーストラリア
3138,7,258,Australia
3139,16,258,Australia
3140,2,258,Australia
3141,8,259,Австрия
3142,11,259,Oostenrijk
3143,13,259,Østrig
3144,5,259,Áustria
3145,3,259,Αυστρία
3146,4,259,Avusturya
3147,1,259,Österreich
3148,6,259,Autriche
3149,15,259,Austria
3150,18,259,Austurríki
3151,9,259,Austria
3152,12,259,奥地利
3153,17,259,Österrike
3154,14,259,Østerrike
3155,10,259,オーストリア
3156,7,259,Austria
3157,16,259,Itävalta
3158,2,259,Austria
3159,8,260,Азербайджан
3160,11,260,Azerbeidzjan
3161,13,260,Aserbajdsjan
3162,5,260,Azerbaijão
3163,3,260,Αζερμπαϊτζάν
3164,4,260,Azerbaycan
3165,1,260,Aserbeidschan
3166,6,260,Azerbaïdjan
3167,15,260,Azerbejdżan
3168,18,260,Aserbaídsjan
3169,9,260,Azerbaiyán
3170,12,260,阿塞拜疆
3171,17,260,Azerbajdzjan
3172,14,260,Aserbajdsjan
3173,10,260,アゼルバイジャン
3174,7,260,Azerbaijan
3175,16,260,Azerbaidžan
3176,2,260,Azerbaigian
3177,8,261,Багамские острова
3178,11,261,Bahama's
3179,13,261,Bahamas
3180,5,261,Baamas
3181,3,261,Μπαχάμες
3182,4,261,Bahamalar
3183,1,261,Bahamas
3184,6,261,Bahamas
3185,15,261,Bahamy
3186,18,261,Bahamaeyjar
3187,9,261,Bahamas
3188,12,261,巴哈马
3189,17,261,Bahamas
3190,14,261,Bahamas
3191,10,261,バハマ
3192,7,261,Bahamas
3193,16,261,Bahama
3194,2,261,Bahamas
3195,8,262,Бахрейн
3196,11,262,Bahrein
3197,13,262,Bahrain
3198,5,262,Barém
3199,3,262,Μπαχρέιν
3200,4,262,Bahreyn
3201,1,262,Bahrain
3202,6,262,Bahreïn
3203,15,262,Bahrajn
3204,18,262,Barein
3205,9,262,Baréin
3206,12,262,巴林
3207,17,262,Bahrain
3208,14,262,Bahrain
3209,10,262,バーレーン
3210,7,262,Bahrain
3211,16,262,Bahrain
3212,2,262,Bahrain
3213,8,263,Бангладеш
3214,11,263,Bangladesh
3215,13,263,Bangladesh
3216,5,263,Bangladeche
3217,3,263,Μπανγκλαντές
3218,4,263,Bangladeş
3219,1,263,Bangladesch
3220,6,263,Bangladesh
3221,15,263,Bangladesz
3222,18,263,Bangladess
3223,9,263,Bangladés
3224,12,263,孟加拉国
3225,17,263,Bangladesh
3226,14,263,Bangladesh
3227,10,263,バングラデシュ
3228,7,263,Bangladesh
3229,16,263,Bangladesh
3230,2,263,Bangladesh
3231,8,264,Барбадос
3232,11,264,Barbados
3233,13,264,Barbados
3234,5,264,Barbados
3235,3,264,Μπαρμπάντος
3236,4,264,Barbados
3237,1,264,Barbados
3238,6,264,Barbade
3239,15,264,Barbados
3240,18,264,Barbados
3241,9,264,Barbados
3242,12,264,巴巴多斯
3243,17,264,Barbados
3244,14,264,Barbados
3245,10,264,バルバドス
3246,7,264,Barbados
3247,16,264,Barbados
3248,2,264,Barbados
3249,8,265,Беларусь
3250,11,265,Belarus
3251,13,265,Hviderusland
3252,5,265,Bielorrússia
3253,3,265,Λευκορωσία
3254,4,265,Beyaz Rusya
3255,1,265,Belarus
3256,6,265,Bélarus
3257,15,265,Białoruś
3258,18,265,Hvíta-Rússland
3259,9,265,Bielorrusia
3260,12,265,白俄罗斯
3261,17,265,Vitryssland
3262,14,265,Hviterussland
3263,10,265,ベラルーシ
3264,7,265,Belarus
3265,16,265,Valko-Venäjä
3266,2,265,Bielorussia
3267,8,266,Бельгия
3268,11,266,België
3269,13,266,Belgien
3270,5,266,Bélgica
3271,3,266,Βέλγιο
3272,4,266,Belçika
3273,1,266,Belgien
3274,6,266,Belgique
3275,15,266,Belgia
3276,18,266,Belgía
3277,9,266,Bélgica
3278,12,266,比利时
3279,17,266,Belgien
3280,14,266,Belgia
3281,10,266,ベルギー
3282,7,266,Belgium
3283,16,266,Belgia
3284,2,266,Belgio
3285,8,267,Белиз
3286,11,267,Belize
3287,13,267,Belize
3288,5,267,Belize
3289,3,267,Μπελίζ
3290,4,267,Belize
3291,1,267,Belize
3292,6,267,Belize
3293,15,267,Belize
3294,18,267,Belís
3295,9,267,Belice
3296,12,267,伯利兹
3297,17,267,Belize
3298,14,267,Belize
3299,10,267,ベリーズ
3300,7,267,Belize
3301,16,267,Belize
3302,2,267,Belize
3303,8,268,Бенин
3304,11,268,Benin
3305,13,268,Benin
3306,5,268,Benim
3307,3,268,Μπενίν
3308,4,268,Benin
3309,1,268,Benin
3310,6,268,Bénin
3311,15,268,Benin
3312,18,268,Benín
3313,9,268,Benín
3314,12,268,贝宁
3315,17,268,Benin
3316,14,268,Benin
3317,10,268,ベナン
3318,7,268,Benin
3319,16,268,Benin
3320,2,268,Benin
3321,8,269,Бермудские острова
3322,11,269,Bermuda
3323,13,269,Bermuda
3324,5,269,Bermuda
3325,3,269,Βερμούδες
3326,4,269,Bermuda
3327,1,269,Bermuda
3328,6,269,Bermudes
3329,15,269,Bermudy
3330,18,269,Bermúdaeyjar
3331,9,269,Bermudas
3332,12,269,百慕大群岛
3333,17,269,Bermuda
3334,14,269,Bermuda
3335,10,269,バミューダ
3336,7,269,Bermuda
3337,16,269,Bermuda
3338,2,269,Bermuda
3339,8,270,Бутан
3340,11,270,Bhutan
3341,13,270,Bhutan
3342,5,270,Butão
3343,3,270,Μπουτάν
3344,4,270,Bhutan
3345,1,270,Bhutan
3346,6,270,Bhoutan
3347,15,270,Bhutan
3348,18,270,Bútan
3349,9,270,Bután
3350,12,270,不丹
3351,17,270,Bhutan
3352,14,270,Bhutan
3353,10,270,ブータン
3354,7,270,Bhutan
3355,16,270,Bhutan
3356,2,270,Bhutan
3357,8,271,Боливия
3358,11,271,Bolivia
3359,13,271,Bolivia
3360,5,271,Bolívia
3361,3,271,Βολιβία
3362,4,271,Bolivya
3363,1,271,Bolivien
3364,6,271,Bolivie
3365,15,271,Boliwia
3366,18,271,Bólivía
3367,9,271,Bolivia
3368,12,271,玻利维亚
3369,17,271,Bolivia
3370,14,271,Bolivia
3371,10,271,ボリビア
3372,7,271,Bolivia
3373,16,271,Bolivia
3374,2,271,Bolivia
3375,8,272,Босния и Герцеговина
3376,11,272,Bosnië en Herzegovina
3377,13,272,Bosnien-Hercegovina
3378,5,272,Bósnia-Herzegovina
3379,3,272,Βοσνία και Ερζεγοβίνη
3380,4,272,Bosna-Hersek
3381,1,272,Bosnien und Herzegowina
3382,6,272,Bosnie-Herzégovine
3383,15,272,Bośnia i Hercegowina
3384,18,272,Bosnía og Hersegóvína
3385,9,272,Bosnia-Herzegovina
3386,12,272,波斯尼亚和黑塞哥维那
3387,17,272,Bosnien och Hercegovina
3388,14,272,Bosnia-Hercegovina
3389,10,272,ボスニア・ヘルツェゴビナ
3390,7,272,Bosnia and Herzegovina
3391,16,272,Bosnia ja Herzegovina
3392,2,272,Bosnia ed Erzegovina
3393,8,273,Ботсвана
3394,11,273,Botswana
3395,13,273,Botswana
3396,5,273,Botsuana
3397,3,273,Μποτσουάνα
3398,4,273,Botsvana
3399,1,273,Botsuana
3400,6,273,Botswana
3401,15,273,Botswana
3402,18,273,Botsvana
3403,9,273,Botsuana
3404,12,273,博茨瓦纳
3405,17,273,Botswana
3406,14,273,Botswana
3407,10,273,ボツワナ
3408,7,273,Botswana
3409,16,273,Botswana
3410,2,273,Botswana
3411,8,274,Остров Буве
3412,11,274,Bouveteiland
3413,13,274,Bouvetøen
3414,5,274,Ilha Bouvet
3415,3,274,Νησί Μπουβέ
3416,4,274,Bouvet Adasi
3417,1,274,Bouvet Insel
3418,6,274,Île Bouvet
3419,15,274,Wyspa Bouveta
3420,18,274,Bouvet-eyja
3421,9,274,Isla Bouvet
3422,12,274,布韦岛
3423,17,274,Bouvetön
3424,14,274,Bouvetøya
3425,10,274,ブーベ島
3426,7,274,Bouvet Island
3427,16,274,Bouvet'nsaari
3428,2,274,Bouvet
3429,8,275,Бразилия
3430,11,275,Brazilië
3431,13,275,Brasilien
3432,5,275,Brasil
3433,3,275,Βραζιλία
3434,4,275,Brezilya
3435,1,275,Brasilien
3436,6,275,Brésil
3437,15,275,Brazylia
3438,18,275,Brasilía
3439,9,275,Brasil
3440,12,275,巴西
3441,17,275,Brasilien
3442,14,275,Brasil
3443,10,275,ブラジル
3444,7,275,Brazil
3445,16,275,Brasilia
3446,2,275,Brasile
3447,8,276,Британская территория в Индийском океане
3448,11,276,Brits Indische Oceaanterritorium
3449,13,276,Det Britiske Territorium i Det Indiske Ocean
3450,5,276,Arquipélago de Chagos
3451,3,276,Βρετανικό Έδαφος Ινδικού Ωκεανού
3452,4,276,Hint okyanusu Ingiliz Bölgesi
3453,1,276,Tschagos-Inseln
3454,6,276,Territoire Britannique de l'Océan Indien
3455,15,276,Brytyjskie Terytorium Oceanu Indyjskiego
3456,18,276,Bresku Indlandshafseyjar
3457,9,276,Territorio Británico del Océano Índico
3458,12,276,英属印度洋领地
3459,17,276,Brittiska territoriet i Indiska oceanen
3460,14,276,Det britiske territoriet i Indiahavet
3461,10,276,イギリス領インド洋地域
3462,7,276,British Indian Ocean Territory
3463,16,276,Brittiläinen Intian valtameren alue
3464,2,276,Territorio Britannico dell'Oceano Indiano (Arcipelago Chagos)
3465,8,277,Бруней
3466,11,277,Brunei
3467,13,277,Brunei
3468,5,277,Brunei
3469,3,277,Μπρουνέι Νταρουσαλάμ
3470,4,277,Brunei
3471,1,277,Brunei
3472,6,277,Brunei
3473,15,277,Brunei
3474,18,277,Brúnei
3475,9,277,Brunéi Darusalam
3476,12,277,文莱
3477,17,277,Brunei
3478,14,277,Brunei
3479,10,277,ブルネイ
3480,7,277,Brunei
3481,16,277,Brunei
3482,2,277,Brunei
3483,8,278,Болгария
3484,11,278,Bulgarije
3485,13,278,Bulgarien
3486,5,278,Bulgária
3487,3,278,Βουλγαρία
3488,4,278,Bulgaristan
3489,1,278,Bulgarien
3490,6,278,Bulgarie
3491,15,278,Bułgaria
3492,18,278,Búlgaría
3493,9,278,Bulgaria
3494,12,278,保加利亚
3495,17,278,Bulgarien
3496,14,278,Bulgaria
3497,10,278,ブルガリア
3498,7,278,Bulgaria
3499,16,278,Bulgaria
3500,2,278,Bulgaria
3501,8,279,Буркина-Фасо
3502,11,279,Burkina Faso
3503,13,279,Burkina Faso
3504,5,279,Burquina Faso
3505,3,279,Μπουρκίνα Φάσο
3506,4,279,Burkina Faso
3507,1,279,Burkina Faso
3508,6,279,Burkina Faso
3509,15,279,Burkina Faso
3510,18,279,Búrkína Fasó
3511,9,279,Burkina Faso
3512,12,279,布基纳法索
3513,17,279,Burkina Faso
3514,14,279,Burkina Faso
3515,10,279,ブルキナファソ
3516,7,279,Burkina Faso
3517,16,279,Burkina Faso
3518,2,279,Burkina Faso
3519,8,280,Бурунди
3520,11,280,Burundi
3521,13,280,Burundi
3522,5,280,Burundi
3523,3,280,Μπουρούντι
3524,4,280,Burundi
3525,1,280,Burundi
3526,6,280,Burundi
3527,15,280,Burundi
3528,18,280,Búrúndí
3529,9,280,Burundi
3530,12,280,布隆迪
3531,17,280,Burundi
3532,14,280,Burundi
3533,10,280,ブルンジ
3534,7,280,Burundi
3535,16,280,Burundi
3536,2,280,Burundi
3537,8,281,Канада
3538,11,281,Canada
3539,13,281,Canada
3540,5,281,Canadá
3541,3,281,Καναδάς
3542,4,281,Kanada
3543,1,281,Kanada
3544,6,281,Canada
3545,15,281,Kanada
3546,18,281,Kanada
3547,9,281,Canadá
3548,12,281,加拿大
3549,17,281,Kanada
3550,14,281,Canada
3551,10,281,カナダ
3552,7,281,Canada
3553,16,281,Kanada
3554,2,281,Canada
3555,8,282,Кабо-Верде
3556,11,282,Kaapverdië
3557,13,282,Kap Verde
3558,5,282,Cabo Verde
3559,3,282,Πράσινο Ακρωτήρι
3560,4,282,Yesil Burun Adaları
3561,1,282,Kap Verde
3562,6,282,Cap-vert
3563,15,282,Republika Zielonego Przylądka
3564,18,282,Grænhöfðaeyjar
3565,9,282,Cabo Verde
3566,12,282,佛得角共和国
3567,17,282,Kap Verde
3568,14,282,Kapp Verde
3569,10,282,カーボベルデ
3570,7,282,Cape Verde
3571,16,282,Kap Verde
3572,2,282,Capo Verde
3573,8,283,
3574,11,283,
3575,13,283,Caribisk Nederland
3576,5,283,Países Baixos Caribenhos
3577,3,283,
3578,4,283,
3579,1,283,Karibische Niederlande
3580,6,283,
3581,15,283,Holandia Karaibska
3582,18,283,BES-eyjar
3583,9,283,Sudán del Sur
3584,12,283,荷兰加勒比区
3585,17,283,Karibiska Nederländerna
3586,14,283,Nederlandske øyer i Karibia
3587,10,283,
3588,7,283,Caribbean Netherlands
3589,16,283,Karibian Alankomaat
3590,2,283,
3591,8,284,Каймановы острова
3592,11,284,Caymaneilanden
3593,13,284,Caymanøerne
3594,5,284,Ilhas Cayman
3595,3,284,Νησιά Κέιμαν
3596,4,284,Cayman Adalari
3597,1,284,Kaiman Inseln
3598,6,284,Îles Caïmanes
3599,15,284,Kajmany
3600,18,284,Cayman-eyjar
3601,9,284,Islas Caimán
3602,12,284,开曼群岛
3603,17,284,Caymanöarna
3604,14,284,Caymanøyene
3605,10,284,ケイマン諸島
3606,7,284,Cayman Islands
3607,16,284,Caymansaaret
3608,2,284,Isole Cayman
3609,8,285,Центрально-Африканская Республика
3610,11,285,Centraal-Afrikaanse Republiek
3611,13,285,Den Centralafrikanske Republik
3612,5,285,República Centro-Africana
3613,3,285,Κεντροαφρικανική Δημοκρατία
3614,4,285,Orta Afrika Cumhuriyeti
3615,1,285,Zentralafrikanische Republik
3616,6,285,République centrafricaine
3617,15,285,Republika Środkowoafrykańska
3618,18,285,Mið-Afríkulýðveldið
3619,9,285,República Centroafricana
3620,12,285,中非共和国
3621,17,285,Centralafrikanska republiken
3622,14,285,Den sentralafrikanske republikk
3623,10,285,中央アフリカ共和国
3624,7,285,Central African Republic
3625,16,285,Keski-Afrikan tasavalta
3626,2,285,Repubblica Centrafricana
3627,8,286,Чад
3628,11,286,Tsjaad
3629,13,286,Tchad
3630,5,286,Chade
3631,3,286,Τσαντ
3632,4,286,Çad
3633,1,286,Tschad
3634,6,286,Tchad
3635,15,286,Czad
3636,18,286,Tsjad
3637,9,286,Chad
3638,12,286,乍得
3639,17,286,Tchad
3640,14,286,Tsjad
3641,10,286,チャド
3642,7,286,Chad
3643,16,286,Tsad
3644,2,286,Ciad
3645,8,287,Чили
3646,11,287,Chili
3647,13,287,Chile
3648,5,287,Chile
3649,3,287,Χιλή
3650,4,287,Şili
3651,1,287,Chile
3652,6,287,Chili
3653,15,287,Chile
3654,18,287,Síle
3655,9,287,Chile
3656,12,287,智利
3657,17,287,Chile
3658,14,287,Chile
3659,10,287,チリ
3660,7,287,Chile
3661,16,287,Chile
3662,2,287,Cile
3663,8,288,Китай
3664,11,288,China
3665,13,288,Kina
3666,5,288,China
3667,3,288,Κίνα
3668,4,288,Çin
3669,1,288,China
3670,6,288,Chine
3671,15,288,Chiny
3672,18,288,Kína
3673,9,288,China
3674,12,288,中国
3675,17,288,Kina
3676,14,288,Kina
3677,10,288,中国
3678,7,288,China
3679,16,288,Kiina
3680,2,288,Cina
3681,8,289,Остров Рождества
3682,11,289,Christmaseiland
3683,13,289,Christmas Island
3684,5,289,Ilhas Natal
3685,3,289,Νήσος των Χριστουγέννων
3686,4,289,Christmas Adasi
3687,1,289,Weihnachtsinsel
3688,6,289,Île Christmas
3689,15,289,Wyspa Bożego Narodzenia
3690,18,289,Jólaey
3691,9,289,Isla de Navidad
3692,12,289,圣诞岛
3693,17,289,Julön
3694,14,289,Christmasøya
3695,10,289,クリスマス島
3696,7,289,Christmas Island
3697,16,289,Joulusaari
3698,2,289,Christmas Island
3699,8,290,Кокосовые острова
3700,11,290,Cocoseilanden
3701,13,290,Cocosøerne
3702,5,290,Ilhas Cocos
3703,3,290,Νησιά Κόκος (Κήλινγκ)
3704,4,290,Cocos Adalari
3705,1,290,Kokosinseln
3706,6,290,Îles Cocos
3707,15,290,Wyspy Kokosowe
3708,18,290,Kókoseyjar (Keeling-eyjar)
3709,9,290,Isla del Coco
3710,12,290,科科斯群岛
3711,17,290,Kokosöarna
3712,14,290,Kokosøyene
3713,10,290,ココス島
3714,7,290,Cocos Islands
3715,16,290,Kookossaaret
3716,2,290,Isole Cocos (Keeling)
3717,8,291,Колумбия
3718,11,291,Colombia
3719,13,291,Colombia
3720,5,291,Colômbia
3721,3,291,Κολομβία
3722,4,291,Kolombiya
3723,1,291,Kolumbien
3724,6,291,Colombie
3725,15,291,Kolumbia
3726,18,291,Kólumbía
3727,9,291,Colombia
3728,12,291,哥伦比亚
3729,17,291,Colombia
3730,14,291,Colombia
3731,10,291,コロンビア
3732,7,291,Colombia
3733,16,291,Kolumbia
3734,2,291,Colombia
3735,8,292,Коморские острова
3736,11,292,Comoren
3737,13,292,Comorerne
3738,5,292,Comores
3739,3,292,Κομόρες
3740,4,292,Komorlar
3741,1,292,Kolumbien
3742,6,292,Comores
3743,15,292,Komory
3744,18,292,Kómoreyjar
3745,9,292,Comoras
3746,12,292,科摩罗
3747,17,292,Komorerna
3748,14,292,Komorene
3749,10,292,コモロ
3750,7,292,Comoros
3751,16,292,Komorit
3752,2,292,Comore
3753,8,293,Конго
3754,11,293,Congo
3755,13,293,Congo
3756,5,293,República do Congo
3757,3,293,Κονγκό
3758,4,293,Kongo
3759,1,293,Republik Kongo
3760,6,293,République du Congo
3761,15,293,Kongo
3762,18,293,Kongó
3763,9,293,Congo
3764,12,293,刚果
3765,17,293,Kongo-Brazzaville
3766,14,293,Kongo
3767,10,293,コンゴ
3768,7,293,Congo
3769,16,293,Kongo
3770,2,293,Congo
3771,8,294,острова Кука
3772,11,294,Cookeilanden
3773,13,294,Cookøerne
3774,5,294,Ilhas Cook
3775,3,294,Νησιά Κουκ
3776,4,294,Cook Adalari
3777,1,294,Cook-Inseln
3778,6,294,Îles Cook
3779,15,294,Wyspy Cooka
3780,18,294,Cooks-eyjar
3781,9,294,Islas Cook
3782,12,294,库克群岛
3783,17,294,Cooköarna
3784,14,294,Cookøyene
3785,10,294,クック島
3786,7,294,Cook Islands
3787,16,294,Cookinsaaret
3788,2,294,Isole Cook
3789,8,295,Коста-Рика
3790,11,295,Costa Rica
3791,13,295,Costa Rica
3792,5,295,Costa Rica
3793,3,295,Κόστα Ρίκα
3794,4,295,Kosta Rika
3795,1,295,Costa Rica
3796,6,295,Costa Rica
3797,15,295,Kostaryka
3798,18,295,Kosta Ríka
3799,9,295,Costa Rica
3800,12,295,哥斯达黎加
3801,17,295,Costa Rica
3802,14,295,Costa Rica
3803,10,295,コスタリカ
3804,7,295,Costa Rica
3805,16,295,Costa Rica
3806,2,295,Costa Rica
3807,8,296,Кот-д’Ивуар
3808,11,296,Ivoorkust
3809,13,296,Elfenbenskysten
3810,5,296,Costa do Marfim
3811,3,296,Ακτή Ελεφαντοστού
3812,4,296,Fildişi Sahilleri
3813,1,296,Côte d'Ivoire
3814,6,296,Côte d'Ivoire
3815,15,296,Wybrzeże Kości Słoniowej
3816,18,296,Fílabeinsströndin
3817,9,296,Costa de Marfil
3818,12,296,科特迪瓦
3819,17,296,Elfenbenskusten
3820,14,296,Elfenbenskysten
3821,10,296,コートジボワール
3822,7,296,Côte d’Ivoire
3823,16,296,Norsunluurannikko
3824,2,296,Costa D'Avorio
3825,8,297,Хорватия
3826,11,297,Kroatië
3827,13,297,Kroatien
3828,5,297,Croácia
3829,3,297,Κροατία
3830,4,297,Hırvatistan
3831,1,297,Kroatien
3832,6,297,Croatie
3833,15,297,Chorwacja
3834,18,297,Króatía
3835,9,297,Croacia
3836,12,297,克罗地亚
3837,17,297,Kroatien
3838,14,297,Kroatia
3839,10,297,クロアチア
3840,7,297,Croatia
3841,16,297,Kroatia
3842,2,297,Croazia
3843,8,298,Куба
3844,11,298,Cuba
3845,13,298,Cuba
3846,5,298,Cuba
3847,3,298,Κούβα
3848,4,298,Küba
3849,1,298,Kuba
3850,6,298,Cuba
3851,15,298,Kuba
3852,18,298,Kúba
3853,9,298,Cuba
3854,12,298,古巴
3855,17,298,Kuba
3856,14,298,Cuba
3857,10,298,キューバ
3858,7,298,Cuba
3859,16,298,Kuuba
3860,2,298,Cuba
3861,8,299,Кюрасао
3862,11,299,Curaçao
3863,13,299,Curaçao
3864,5,299,Curaçao
3865,3,299,Κουρασάο
3866,4,299,Curaçao
3867,1,299,Curaçao
3868,6,299,Curaçao
3869,15,299,Curaçao
3870,18,299,Curaçao
3871,9,299,Curazao
3872,12,299,庫拉索
3873,17,299,Curaçao
3874,14,299,Curaçao
3875,10,299,キュラソー島
3876,7,299,Curaçao
3877,16,299,Curaçao
3878,2,299,Curaçao
3879,8,300,Кипр
3880,11,300,Cyprus
3881,13,300,Cypern
3882,5,300,Chipre
3883,3,300,Κύπρος
3884,4,300,Kibris
3885,1,300,Zypern
3886,6,300,Chypre
3887,15,300,Cypr
3888,18,300,Kýpur
3889,9,300,Chipre
3890,12,300,塞浦路斯
3891,17,300,Cypern
3892,14,300,Kypros
3893,10,300,キプロス
3894,7,300,Cyprus
3895,16,300,Kypros
3896,2,300,Cipro
3897,8,301,Дания
3898,11,301,Denemarken
3899,13,301,Danmark
3900,5,301,Dinamarca
3901,3,301,Δανία
3902,4,301,Danimarka
3903,1,301,Dänemark
3904,6,301,Danemark
3905,15,301,Dania
3906,18,301,Danmörk
3907,9,301,Dinamarca
3908,12,301,丹麦
3909,17,301,Danmark
3910,14,301,Danmark
3911,10,301,デンマーク
3912,7,301,Denmark
3913,16,301,Tanska
3914,2,301,Danimarca
3915,8,302,Джибути
3916,11,302,Djibouti
3917,13,302,Djibouti
3918,5,302,Jibuti
3919,3,302,Τζιμπουτί
3920,4,302,Cibuti
3921,1,302,Dschibuti
3922,6,302,Djibouti
3923,15,302,Dżibuti
3924,18,302,Djíbútí
3925,9,302,Yibuti
3926,12,302,吉布提
3927,17,302,Djibouti
3928,14,302,Djibouti
3929,10,302,ジブチ
3930,7,302,Djibouti
3931,16,302,Djibouti
3932,2,302,Gibuti
3933,8,303,Доминика
3934,11,303,Dominica
3935,13,303,Dominica
3936,5,303,Domínica
3937,3,303,Ντομίνικα
3938,4,303,Dominika
3939,1,303,Dominica
3940,6,303,Dominique
3941,15,303,Dominika
3942,18,303,Dóminíka
3943,9,303,Dominica
3944,12,303,多米尼加
3945,17,303,Dominica
3946,14,303,Dominica
3947,10,303,ドミニカ
3948,7,303,Dominica
3949,16,303,Dominica
3950,2,303,Dominica
3951,8,304,Доминиканская Республика
3952,11,304,Dominicaanse Republiek
3953,13,304,Den Dominikanske Republik
3954,5,304,República Dominicana
3955,3,304,Δομινικανή Δημοκρατία
3956,4,304,Dominik Cumhuriyeti
3957,1,304,Dominikanische Republik
3958,6,304,République dominicaine
3959,15,304,Dominikana
3960,18,304,Dóminíska lýðveldið
3961,9,304,República Dominicana
3962,12,304,多米尼加共和国
3963,17,304,Dominikanska republiken
3964,14,304,Den dominikanske republikk
3965,10,304,ドミニカ共和国
3966,7,304,Dominican Republic
3967,16,304,Dominikaaninen tasavalta
3968,2,304,Repubblica Dominicana
3969,8,305,Эквадор
3970,11,305,Ecuador
3971,13,305,Ecuador
3972,5,305,Equador
3973,3,305,Εκουαδόρ
3974,4,305,Ekvador
3975,1,305,Ecuador
3976,6,305,Équateur
3977,15,305,Ekwador
3978,18,305,Ekvador
3979,9,305,Ecuador
3980,12,305,厄瓜多尔
3981,17,305,Ecuador
3982,14,305,Ecuador
3983,10,305,エクアドル
3984,7,305,Ecuador
3985,16,305,Ecuador
3986,2,305,Ecuador
3987,8,306,Египет
3988,11,306,Egypte
3989,13,306,Egypten
3990,5,306,Egito
3991,3,306,Αίγυπτος
3992,4,306,Mısır
3993,1,306,Ägypten
3994,6,306,Égypte
3995,15,306,Egipt
3996,18,306,Egyptaland
3997,9,306,Egipto
3998,12,306,埃及
3999,17,306,Egypten
4000,14,306,Egypt
4001,10,306,エジプト
4002,7,306,Egypt
4003,16,306,Egypti
4004,2,306,Egitto
4005,8,307,Сальвадор
4006,11,307,El Salvador
4007,13,307,El Salvador
4008,5,307,El Salvador
4009,3,307,Ελ Σαλβαδόρ
4010,4,307,El Salvador
4011,1,307,El Salvador
4012,6,307,Salvador
4013,15,307,Salwador
4014,18,307,El Salvador
4015,9,307,El Salvador
4016,12,307,萨尔瓦多
4017,17,307,El Salvador
4018,14,307,El Salvador
4019,10,307,エルサルバドル
4020,7,307,El Salvador
4021,16,307,El Salvador
4022,2,307,El Salvador
4023,8,308,Экваториальная Гвинея
4024,11,308,Equatoriaal-Guinea
4025,13,308,Ækvatorialguinea
4026,5,308,Guiné Equatorial
4027,3,308,Ισημερινή Γουινέα
4028,4,308,Ekvator Ginesi
4029,1,308,Äquatorialguinea
4030,6,308,Guinée équatoriale
4031,15,308,Gwinea Równikowa
4032,18,308,Miðbaugs-Gínea
4033,9,308,Guinea Ecuatorial
4034,12,308,赤道几内亚
4035,17,308,Ekvatorialguinea
4036,14,308,Ekvatorial-Guinea
4037,10,308,赤道ギニア
4038,7,308,Equatorial Guinea
4039,16,308,Päiväntasaajan Guinea
4040,2,308,Guinea Equatoriale
4041,8,309,Эритрея
4042,11,309,Eritrea
4043,13,309,Eritrea
4044,5,309,Eritreia
4045,3,309,Ερυθραία
4046,4,309,Eritre
4047,1,309,Eritrea
4048,6,309,Érythrée
4049,15,309,Erytrea
4050,18,309,Erítrea
4051,9,309,Eritrea
4052,12,309,厄立特里亚
4053,17,309,Eritrea
4054,14,309,Eritrea
4055,10,309,エリトリア
4056,7,309,Eritrea
4057,16,309,Eritrea
4058,2,309,Eritrea
4059,8,310,Эстония
4060,11,310,Estland
4061,13,310,Estland
4062,5,310,Estónia
4063,3,310,Εσθονία
4064,4,310,Estonya
4065,1,310,Estland
4066,6,310,Estonie
4067,15,310,Estonia
4068,18,310,Eistland
4069,9,310,Estonia
4070,12,310,爱沙尼亚
4071,17,310,Estland
4072,14,310,Estland
4073,10,310,エストニア
4074,7,310,Estonia
4075,16,310,Viro
4076,2,310,Estonia
4077,8,311,Эфиопия
4078,11,311,Ethiopië
4079,13,311,Etiopien
4080,5,311,Etiópia
4081,3,311,Αιθιοπία
4082,4,311,Etiyopya
4083,1,311,Äthiopien
4084,6,311,Éthiopie
4085,15,311,Etiopia
4086,18,311,Eþíópía
4087,9,311,Etiopía
4088,12,311,埃塞俄比亚
4089,17,311,Etiopien
4090,14,311,Etiopia
4091,10,311,エチオピア
4092,7,311,Ethiopia
4093,16,311,Etiopia
4094,2,311,Etiopia
4095,8,312,Фолклендские острова
4096,11,312,Falklandeilanden
4097,13,312,Falklandsøerne
4098,5,312,Malvinas
4099,3,312,Νησιά Φώκλαντ
4100,4,312,Falkland Adalari
4101,1,312,Falklandinseln
4102,6,312,Îles Malouines
4103,15,312,Falklandy
4104,18,312,Falklandseyjar
4105,9,312,Islas Malvinas
4106,12,312,福克兰群岛
4107,17,312,Falklandsöarna
4108,14,312,Falklandsøyene
4109,10,312,フォークランド諸島
4110,7,312,Falkland Islands
4111,16,312,Falklandinsaaret
4112,2,312,Isole Falkland (Malvinas)
4113,8,313,Фарерские острова
4114,11,313,Faeröer
4115,13,313,Færøerne
4116,5,313,Ilhas Feroé
4117,3,313,Νήσοι Φερόες
4118,4,313,Faroe Adalari
4119,1,313,Färöer Inseln
4120,6,313,Îles Féroé
4121,15,313,Wyspy Owcze
4122,18,313,Færeyjar
4123,9,313,Islas Feroe
4124,12,313,法罗群岛
4125,17,313,Färöarna
4126,14,313,Færøyene
4127,10,313,フェロー諸島
4128,7,313,Faroe Islands
4129,16,313,Färsaari
4130,2,313,Isole Faroe
4131,8,314,Фиджи
4132,11,314,Fiji
4133,13,314,Fiji
4134,5,314,Fiji
4135,3,314,Φίτζι
4136,4,314,Fiji
4137,1,314,Fidschi
4138,6,314,Fidji
4139,15,314,Fidżi
4140,18,314,Fídjíeyjar
4141,9,314,Fiyi
4142,12,314,斐济
4143,17,314,Fiji
4144,14,314,Fiji
4145,10,314,フィジー
4146,7,314,Fiji
4147,16,314,Fidzi
4148,2,314,Figi
4149,8,315,Финляндия
4150,11,315,Finland
4151,13,315,Finland
4152,5,315,Finlândia
4153,3,315,Φινλανδία
4154,4,315,Finlandiya
4155,1,315,Finnland
4156,6,315,Finlande
4157,15,315,Finlandia
4158,18,315,Finnland
4159,9,315,Finlandia
4160,12,315,芬兰
4161,17,315,Finland
4162,14,315,Finland
4163,10,315,フィンランド
4164,7,315,Finland
4165,16,315,Suomi
4166,2,315,Finlandia
4167,8,316,Франция
4168,11,316,Frankrijk
4169,13,316,Frankrig
4170,5,316,França
4171,3,316,Γαλλία
4172,4,316,Fransa
4173,1,316,Frankreich
4174,6,316,France
4175,15,316,Francja
4176,18,316,Frakkland
4177,9,316,Francia
4178,12,316,法国
4179,17,316,Frankrike
4180,14,316,Frankrike
4181,10,316,フランス
4182,7,316,France
4183,16,316,Ranska
4184,2,316,Francia
4185,8,317,Французская Гвиана
4186,11,317,Frans-Guyana
4187,13,317,Fransk Guyana
4188,5,317,Guiana Francesa
4189,3,317,Γαλλική Γουιάνα
4190,4,317,Fransiz Guyanasi
4191,1,317,Französisch-Guayana
4192,6,317,Guyane Française
4193,15,317,Gujana Francuska
4194,18,317,Franska Gvæjana
4195,9,317,Guayana Francesa
4196,12,317,法属圭亚那
4197,17,317,Franska Guyana
4198,14,317,Fransk Guyana
4199,10,317,フランス領ギアナ
4200,7,317,French Guiana
4201,16,317,Ranskan Guyana
4202,2,317,Guiana Francese
4203,8,318,Французская Полинезия
4204,11,318,Frans-Polynesië
4205,13,318,Fransk Polynesien
4206,5,318,Polinésia Francesa
4207,3,318,Γαλλική Πολυνησία
4208,4,318,Fransiz Polinezyasi
4209,1,318,Französisch-Polynesien
4210,6,318,Polynésie Française
4211,15,318,Polinezja Francuska
4212,18,318,Franska Pólýnesía
4213,9,318,Polinesia Francesa
4214,12,318,法属玻里尼西亚
4215,17,318,Franska Polynesien
4216,14,318,Fransk Polynesia
4217,10,318,フランス領ポリネシア
4218,7,318,French Polynesia
4219,16,318,Ranskan Polynesia
4220,2,318,Polinesia Francese
4221,8,319,Французские Южные Территории
4222,11,319,Franse Zuidelijke Gebieden
4223,13,319,Franske Sydlige Territorier
4224,5,319,Terras Austrais e Antárticas Francesas
4225,3,319,Γαλλικές Νότιες Εδάφη
4226,4,319,Güney Fransiz Bölgeleri
4227,1,319,Französische Südterritorien
4228,6,319,Terres Australes et Antarctiques Françaises
4229,15,319,Francuskie Terytoria Południowe
4230,18,319,Frönsku suðlægu landsvæðin
4231,9,319,Tierras Australes y Antárticas Francesas
4232,12,319,法属南半球领地
4233,17,319,Franska sydterritorierna
4234,14,319,De franske sørterritorier
4235,10,319,フランス領南方地域
4236,7,319,French Southern Territories
4237,16,319,Ranskan eteläiset ja antarktiset alueet
4238,2,319,Territori Francesi Meridionali
4239,8,320,Габон
4240,11,320,Gabon
4241,13,320,Gabon
4242,5,320,Gabão
4243,3,320,Γκαμπόν
4244,4,320,Gabon
4245,1,320,Gabun
4246,6,320,Gabon
4247,15,320,Gabon
4248,18,320,Gabon
4249,9,320,Gabón
4250,12,320,加蓬
4251,17,320,Gabon
4252,14,320,Gabon
4253,10,320,ガボン
4254,7,320,Gabon
4255,16,320,Gabon
4256,2,320,Gabon
4257,8,321,Гамбия
4258,11,321,Gambia
4259,13,321,Gambia
4260,5,321,Gâmbia
4261,3,321,Γκάμπια
4262,4,321,Gambiya
4263,1,321,Gambia
4264,6,321,Gambie
4265,15,321,Gambia
4266,18,321,Gambía
4267,9,321,Gambia
4268,12,321,冈比亚
4269,17,321,Gambia
4270,14,321,Gambia
4271,10,321,ガンビア
4272,7,321,Gambia
4273,16,321,Gambia
4274,2,321,Gambia
4275,8,322,Грузия
4276,11,322,Georgië
4277,13,322,Georgien
4278,5,322,Geórgia
4279,3,322,Γεωργία
4280,4,322,Gürcistan
4281,1,322,Georgien
4282,6,322,Géorgie
4283,15,322,Gruzja
4284,18,322,Georgía
4285,9,322,Georgia
4286,12,322,格鲁吉亚
4287,17,322,Georgien
4288,14,322,Georgia
4289,10,322,グルジア
4290,7,322,Georgia
4291,16,322,Georgia
4292,2,322,Georgia
4293,8,323,Германия
4294,11,323,Duitsland
4295,13,323,Tyskland
4296,5,323,Alemanha
4297,3,323,Γερμανία
4298,4,323,Almanya
4299,1,323,Deutschland
4300,6,323,Allemagne
4301,15,323,Niemcy
4302,18,323,Þýskaland
4303,9,323,Alemania
4304,12,323,德国
4305,17,323,Tyskland
4306,14,323,Tyskland
4307,10,323,ドイツ
4308,7,323,Germany
4309,16,323,Saksa
4310,2,323,Germania
4311,8,324,Гана
4312,11,324,Ghana
4313,13,324,Ghana
4314,5,324,Gana
4315,3,324,Γκάνα
4316,4,324,Gana
4317,1,324,Ghana
4318,6,324,Ghana
4319,15,324,Ghana
4320,18,324,Gana
4321,9,324,Ghana
4322,12,324,加纳
4323,17,324,Ghana
4324,14,324,Ghana
4325,10,324,ガーナ
4326,7,324,Ghana
4327,16,324,Ghana
4328,2,324,Ghana
4329,8,325,Гибралтар
4330,11,325,Gibraltar
4331,13,325,Gibraltar
4332,5,325,Gibraltar
4333,3,325,Γιβραλτάρ
4334,4,325,Cebelitarik
4335,1,325,Gibraltar
4336,6,325,Gibraltar
4337,15,325,Gibraltar
4338,18,325,Gíbraltar
4339,9,325,Gibraltar
4340,12,325,直布罗陀
4341,17,325,Gibraltar
4342,14,325,Gibraltar
4343,10,325,ジブラルタル
4344,7,325,Gibraltar
4345,16,325,Gibraltar
4346,2,325,Gibilterra
4347,8,326,Греция
4348,11,326,Griekenland
4349,13,326,Grækenland
4350,5,326,Grécia
4351,3,326,Ελλάδα
4352,4,326,Yunanistan
4353,1,326,Griechenland
4354,6,326,Grèce
4355,15,326,Grecja
4356,18,326,Grikkland
4357,9,326,Grecia
4358,12,326,希腊
4359,17,326,Grekland
4360,14,326,Hellas
4361,10,326,ギリシャ
4362,7,326,Greece
4363,16,326,Kreikka
4364,2,326,Grecia
4365,8,327,Гренада
4366,11,327,Grenada
4367,13,327,Grenada
4368,5,327,Granada
4369,3,327,Γρενάδα
4370,4,327,Grenada
4371,1,327,Grenada
4372,6,327,Grenade
4373,15,327,Grenada
4374,18,327,Grenada
4375,9,327,Granada
4376,12,327,格林纳达
4377,17,327,Grenada
4378,14,327,Grenada
4379,10,327,グレナダ
4380,7,327,Grenada
4381,16,327,Grenada
4382,2,327,Grenada
4383,8,328,Гренландия
4384,11,328,Groenland
4385,13,328,Grønland
4386,5,328,Gronelândia
4387,3,328,Γροιλανδία
4388,4,328,Grönland
4389,1,328,Grönland
4390,6,328,Groenland
4391,15,328,Grenlandia
4392,18,328,Grænland
4393,9,328,Groenlandia
4394,12,328,格陵兰岛
4395,17,328,Grönland
4396,14,328,Grønland
4397,10,328,グリーンランド
4398,7,328,Greenland
4399,16,328,Grönlanti
4400,2,328,Groenlandia
4401,8,329,Гваделупа
4402,11,329,Guadeloupe
4403,13,329,Guadeloupe
4404,5,329,Guadalupe
4405,3,329,Γουαδελούπη
4406,4,329,Guadeloupe
4407,1,329,Guadeloupe
4408,6,329,Guadeloupe
4409,15,329,Gwadelupa
4410,18,329,Gvadelúpeyjar
4411,9,329,Guadalupe
4412,12,329,瓜德罗普岛
4413,17,329,Guadeloupe
4414,14,329,Guadeloupe
4415,10,329,グアダルペ
4416,7,329,Guadeloupe
4417,16,329,Guadeloupe
4418,2,329,Guadalupe
4419,8,330,Гуам
4420,11,330,Guam
4421,13,330,Guam
4422,5,330,Guam
4423,3,330,Γκουάμ
4424,4,330,Guam
4425,1,330,Guam
4426,6,330,Guam
4427,15,330,Guam
4428,18,330,Gvam
4429,9,330,Guam
4430,12,330,关岛
4431,17,330,Guam
4432,14,330,Guam
4433,10,330,グアム
4434,7,330,Guam
4435,16,330,Guam
4436,2,330,Guam
4437,8,331,Гватемала
4438,11,331,Guatemala
4439,13,331,Guatemala
4440,5,331,Guatemala
4441,3,331,Γουατεμάλα
4442,4,331,Guatemala
4443,1,331,Guatemala
4444,6,331,Guatemala
4445,15,331,Gwatemala
4446,18,331,Gvatemala
4447,9,331,Guatemala
4448,12,331,危地马拉
4449,17,331,Guatemala
4450,14,331,Guatemala
4451,10,331,グアテマラ
4452,7,331,Guatemala
4453,16,331,Guatemala
4454,2,331,Guatemala
4455,8,332,Гвинея
4456,11,332,Guinee
4457,13,332,Guinea
4458,5,332,Guiné
4459,3,332,Γουινέα
4460,4,332,Gine
4461,1,332,Guinea
4462,6,332,Guinée
4463,15,332,Gwinea
4464,18,332,Gínea
4465,9,332,Guinea
4466,12,332,几内亚
4467,17,332,Guinea
4468,14,332,Guinea
4469,10,332,ギニア
4470,7,332,Guinea
4471,16,332,Guinea
4472,2,332,Guinea
4473,8,333,Гвинея-Бисау
4474,11,333,Guinee-Bissau
4475,13,333,Guinea-Bissau
4476,5,333,Guiné-Bissau
4477,3,333,Γουινέα-Μπισάου
4478,4,333,Gine-Bissau
4479,1,333,Guinea-Bissau
4480,6,333,Guinée-Bissau
4481,15,333,Gwinea Bissau
4482,18,333,Gínea-Bissá
4483,9,333,Guinea-Bisáu
4484,12,333,几内亚比绍共和国
4485,17,333,Guinea-Bissau
4486,14,333,Guinea-Bissau
4487,10,333,ギニアビサウ
4488,7,333,Guinea-Bissau
4489,16,333,Guinea-Bissau
4490,2,333,Guinea-Bissau
4491,8,334,Гайана
4492,11,334,Guyana
4493,13,334,Guyana
4494,5,334,Guiana
4495,3,334,Γουιάνα
4496,4,334,Guyana
4497,1,334,Guyana
4498,6,334,Guyana
4499,15,334,Gujana
4500,18,334,Gvæjana
4501,9,334,Guyana
4502,12,334,圭亚那
4503,17,334,Guyana
4504,14,334,Guyana
4505,10,334,ガイアナ
4506,7,334,Guyana
4507,16,334,Guyana
4508,2,334,Guyana
4509,8,335,Гаити
4510,11,335,Haïti
4511,13,335,Haiti
4512,5,335,Haiti
4513,3,335,Αϊτή
4514,4,335,Haiti
4515,1,335,Haiti
4516,6,335,Haïti
4517,15,335,Haiti
4518,18,335,Haítí
4519,9,335,Haití
4520,12,335,海地
4521,17,335,Haiti
4522,14,335,Haiti
4523,10,335,ハイチ
4524,7,335,Haiti
4525,16,335,Haiti
4526,2,335,Haiti
4527,8,336,Острова Херд и Макдональд
4528,11,336,Heard en McDonaldeilanden
4529,13,336,Heard Island og McDonald Islands
4530,5,336,Ilhas Heard e McDonald
4531,3,336,Νήσοι Χερντ και Μακντόναλντ
4532,4,336,Heard Adasi ve McDonald Adalari
4533,1,336,Heard und McDonald Inseln
4534,6,336,Île Heard et Îles McDonald
4535,15,336,Wyspy Heard i McDonalda
4536,18,336,Heard- og McDonaldseyjar
4537,9,336,Islas Heard y McDonald
4538,12,336,赫德岛和麦克唐纳群岛
4539,17,336,Heard- och McDonaldöarna
4540,14,336,Heardøya og McDonaldøyene
4541,10,336,ハード島とマクドナルド諸島
4542,7,336,Heard Island and McDonald Islands
4543,16,336,Heard ja McDonaldinsaari
4544,2,336,Isole Heard e McDonald
4545,8,337,Гондурас
4546,11,337,Honduras
4547,13,337,Honduras
4548,5,337,Honduras
4549,3,337,Ονδούρα
4550,4,337,Honduras
4551,1,337,Honduras
4552,6,337,Honduras
4553,15,337,Honduras
4554,18,337,Hondúras
4555,9,337,Honduras
4556,12,337,洪都拉斯
4557,17,337,Honduras
4558,14,337,Honduras
4559,10,337,ホンジュラス
4560,7,337,Honduras
4561,16,337,Honduras
4562,2,337,Honduras
4563,8,338,Гонконг
4564,11,338,Hongkong
4565,13,338,Hongkong
4566,5,338,Hong Kong
4567,3,338,Χονγκ Κονγκ
4568,4,338,Hong Kong
4569,1,338,Hong Kong
4570,6,338,Hong-kong
4571,15,338,Hongkong
4572,18,338,Hong Kong
4573,9,338,Hong Kong
4574,12,338,香港，中国
4575,17,338,Hongkong
4576,14,338,Hongkong
4577,10,338,香港
4578,7,338,Hong Kong
4579,16,338,Hongkong
4580,2,338,Hong Kong
4581,8,339,Венгрия
4582,11,339,Hongarije
4583,13,339,Ungarn
4584,5,339,Hungria
4585,3,339,Ουγγαρία
4586,4,339,Macaristan
4587,1,339,Ungarn
4588,6,339,Hongrie
4589,15,339,Węgry
4590,18,339,Ungverjaland
4591,9,339,Hungría
4592,12,339,匈牙利
4593,17,339,Ungern
4594,14,339,Ungarn
4595,10,339,ハンガリー
4596,7,339,Hungary
4597,16,339,Unkari
4598,2,339,Ungheria
4599,8,340,Исландия
4600,11,340,IJsland
4601,13,340,Island
4602,5,340,Islândia
4603,3,340,Ισλανδία
4604,4,340,İzlanda
4605,1,340,Island
4606,6,340,Islande
4607,15,340,Islandia
4608,18,340,Ísland
4609,9,340,Islandia
4610,12,340,冰岛
4611,17,340,Island
4612,14,340,Island
4613,10,340,アイスランド
4614,7,340,Iceland
4615,16,340,Islanti
4616,2,340,Islanda
4617,8,341,Индия
4618,11,341,India
4619,13,341,Indien
4620,5,341,Índia
4621,3,341,Ινδία
4622,4,341,Hindistan
4623,1,341,Indien
4624,6,341,Inde
4625,15,341,Indie
4626,18,341,Indland
4627,9,341,India
4628,12,341,印度
4629,17,341,Indien
4630,14,341,India
4631,10,341,インド
4632,7,341,India
4633,16,341,Intia
4634,2,341,India
4635,8,342,Индонезия
4636,11,342,Indonesië
4637,13,342,Indonesien
4638,5,342,Indonésia
4639,3,342,Ινδονησία
4640,4,342,Endonezya
4641,1,342,Indonesien
4642,6,342,Indonésie
4643,15,342,Indonezja
4644,18,342,Indónesía
4645,9,342,Indonesia
4646,12,342,印度尼西亚
4647,17,342,Indonesien
4648,14,342,Indonesia
4649,10,342,インドネシア
4650,7,342,Indonesia
4651,16,342,Indonesia
4652,2,342,Indonesia
4653,8,343,Ирак
4654,11,343,Irak
4655,13,343,Irak
4656,5,343,Iraque
4657,3,343,Ιράκ
4658,4,343,Irak
4659,1,343,Irak
4660,6,343,Irak
4661,15,343,Irak
4662,18,343,Írak
4663,9,343,Irak
4664,12,343,伊拉克
4665,17,343,Irak
4666,14,343,Irak
4667,10,343,イラク
4668,7,343,Iraq
4669,16,343,Irak
4670,2,343,Iraq
4671,8,344,Иран
4672,11,344,Iran
4673,13,344,Iran
4674,5,344,Irão
4675,3,344,Ιράν
4676,4,344,İran
4677,1,344,Iran
4678,6,344,Iran
4679,15,344,Iran
4680,18,344,Íran
4681,9,344,Irán
4682,12,344,伊朗
4683,17,344,Iran
4684,14,344,Iran
4685,10,344,イラン
4686,7,344,Iran
4687,16,344,Iran
4688,2,344,Iran
4689,8,345,Ирландия
4690,11,345,Ierland
4691,13,345,Irland
4692,5,345,Irlanda
4693,3,345,Ιρλανδία
4694,4,345,İrlanda
4695,1,345,Irland
4696,6,345,Irlande
4697,15,345,Irlandia
4698,18,345,Írland
4699,9,345,Irlanda
4700,12,345,爱尔兰
4701,17,345,Irland
4702,14,345,Irland
4703,10,345,アイルランド
4704,7,345,Ireland
4705,16,345,Irlanti
4706,2,345,Irlanda
4707,8,346,Израиль
4708,11,346,Israël
4709,13,346,Israel
4710,5,346,Israel
4711,3,346,Ισραήλ
4712,4,346,İsrail
4713,1,346,Israel
4714,6,346,Israël
4715,15,346,Izrael
4716,18,346,Ísrael
4717,9,346,Israel
4718,12,346,以色列
4719,17,346,Israel
4720,14,346,Israel
4721,10,346,イスラエル
4722,7,346,Israel
4723,16,346,Israel
4724,2,346,Israele
4725,8,347,Италия
4726,11,347,Italië
4727,13,347,Italien
4728,5,347,Itália
4729,3,347,Ιταλία
4730,4,347,Italya
4731,1,347,Italien
4732,6,347,Italie
4733,15,347,Włochy
4734,18,347,Ítalía
4735,9,347,Italia
4736,12,347,意大利
4737,17,347,Italien
4738,14,347,Italia
4739,10,347,イタリア
4740,7,347,Italy
4741,16,347,Italia
4742,2,347,Italia
4743,8,348,Ямайка
4744,11,348,Jamaica
4745,13,348,Jamaica
4746,5,348,Jamaica
4747,3,348,Τζαμάικα
4748,4,348,Jamaika
4749,1,348,Jamaika
4750,6,348,Jamaïque
4751,15,348,Jamajka
4752,18,348,Jamaíka
4753,9,348,Jamaica
4754,12,348,牙买加
4755,17,348,Jamaica
4756,14,348,Jamaica
4757,10,348,ジャマイカ
4758,7,348,Jamaica
4759,16,348,Jamaika
4760,2,348,Giamaica
4761,8,349,Япония
4762,11,349,Japan
4763,13,349,Japan
4764,5,349,Japão
4765,3,349,Ιαπωνία
4766,4,349,Japonya
4767,1,349,Japan
4768,6,349,Japon
4769,15,349,Japonia
4770,18,349,Japan
4771,9,349,Japón
4772,12,349,日本
4773,17,349,Japan
4774,14,349,Japan
4775,10,349,日本
4776,7,349,Japan
4777,16,349,Japani
4778,2,349,Giappone
4779,8,350,Иордания
4780,11,350,Jordanië
4781,13,350,Jordan
4782,5,350,Jordânia
4783,3,350,Ιορδανία
4784,4,350,Ürdün
4785,1,350,Jordanien
4786,6,350,Jordanie
4787,15,350,Jordania
4788,18,350,Jórdanía
4789,9,350,Jordania
4790,12,350,约旦
4791,17,350,Jordanien
4792,14,350,Jordan
4793,10,350,ヨルダン
4794,7,350,Jordan
4795,16,350,Jordania
4796,2,350,Giordania
4797,8,351,Камбоджа
4798,11,351,Cambodja
4799,13,351,Cambodia
4800,5,351,Camboda
4801,3,351,Καμπότζη
4802,4,351,Kamboçya
4803,1,351,Kambodscha
4804,6,351,Cambodge
4805,15,351,Kambodża
4806,18,351,Kambódía
4807,9,351,Camboya
4808,12,351,柬埔寨
4809,17,351,Kambodja
4810,14,351,Kambodsja
4811,10,351,カンボジア
4812,7,351,Cambodia
4813,16,351,Kambodza
4814,2,351,Cambogia
4815,8,352,Камерун
4816,11,352,Kameroen
4817,13,352,Cameroun
4818,5,352,Camarões
4819,3,352,Καμερούν
4820,4,352,Kamerun
4821,1,352,Kamerun
4822,6,352,Cameroun
4823,15,352,Kamerun
4824,18,352,Kamerún
4825,9,352,Camerún
4826,12,352,喀麦隆
4827,17,352,Kamerun
4828,14,352,Kamerun
4829,10,352,カメルーン
4830,7,352,Cameroon
4831,16,352,Kamerun
4832,2,352,Camerun
4833,8,353,Казахстан
4834,11,353,Kazachstan
4835,13,353,Kasakhstan
4836,5,353,Cazaquistão
4837,3,353,Καζακστάν
4838,4,353,Kazakistan
4839,1,353,Kasachstan
4840,6,353,Kazakhstan
4841,15,353,Kazachstan
4842,18,353,Kasakstan
4843,9,353,Kazajistán
4844,12,353,哈萨克斯坦
4845,17,353,Kazakstan
4846,14,353,Kasakhstan
4847,10,353,カザフスタン
4848,7,353,Kazakhstan
4849,16,353,Kazakstan
4850,2,353,Kazakistan
4851,8,354,Кения
4852,11,354,Kenia; Kenya
4853,13,354,Kenya
4854,5,354,Quénia
4855,3,354,Κένυα
4856,4,354,Kenya
4857,1,354,Kenia
4858,6,354,Kenya
4859,15,354,Kenia
4860,18,354,Kenía
4861,9,354,Kenia
4862,12,354,肯尼亚
4863,17,354,Kenya
4864,14,354,Kenya
4865,10,354,ケニア
4866,7,354,Kenya
4867,16,354,Kenia
4868,2,354,Kenya
4869,8,355,Кирибати
4870,11,355,Kiribati
4871,13,355,Kiribati
4872,5,355,Quiribati
4873,3,355,Κιριμπάτι
4874,4,355,Kiribati
4875,1,355,Kiribati
4876,6,355,Kiribati
4877,15,355,Kiribati
4878,18,355,Kíribatí
4879,9,355,Kiribati
4880,12,355,基里巴斯
4881,17,355,Kiribati
4882,14,355,Kiribati
4883,10,355,キリバス
4884,7,355,Kiribati
4885,16,355,Kiribati
4886,2,355,Kiribati
4887,8,356,ДР Конго
4888,11,356,Democratische Republiek Congo
4889,13,356,Den Demokratiske Republik Congo
4890,5,356,República Democrática do Congo
4891,3,356,Λαϊκή Δημοκρατία του Κονγκό
4892,4,356,Demokratik Kongo Cumhuriyeti
4893,1,356,Demokratische Republik Kongo
4894,6,356,République démocratique du Congo
4895,15,356,Demokratyczna Republika Konga
4896,18,356,Lýðstjórnarlýðveldið Kongó
4897,9,356,República Democrática del Congo
4898,12,356,民主刚果
4899,17,356,Kongo-Kinshasa
4900,14,356,Den demokratiske republikken Kongo
4901,10,356,コンゴ民主共和国
4902,7,356,DR Congo
4903,16,356,Kongon demokraattinen tasavalta
4904,2,356,Repubblica Democratica del Congo
4905,8,357,Косово
4906,11,357,Kosovo
4907,13,357,Kosovo
4908,5,357,Kosovo
4909,3,357,Κόσοβο
4910,4,357,Kosovo
4911,1,357,Kosovo
4912,6,357,Kosovo
4913,15,357,Kosowo
4914,18,357,Kósóvó
4915,9,357,Kosovo
4916,12,357,科索沃
4917,17,357,Kosovo
4918,14,357,Kosovo
4919,10,357,コソボ
4920,7,357,Kosovo
4921,16,357,Kosovo
4922,2,357,Kosovo
4923,8,358,Кувейт
4924,11,358,Koeweit
4925,13,358,Kuwait
4926,5,358,Koweit
4927,3,358,Κουβέιτ
4928,4,358,Kuveyt
4929,1,358,Kuwait
4930,6,358,Koweït
4931,15,358,Kuwejt
4932,18,358,Kúveit
4933,9,358,Kuwait
4934,12,358,科威特
4935,17,358,Kuwait
4936,14,358,Kuwait
4937,10,358,クウェート
4938,7,358,Kuwait
4939,16,358,Kuwait
4940,2,358,Kuwait
4941,8,359,Киргизия
4942,11,359,Kirgizië
4943,13,359,Kirgisistan
4944,5,359,Quirguistão
4945,3,359,Κιργιστάν
4946,4,359,Kırgızistan
4947,1,359,Kirgisistan
4948,6,359,Kirghizistan
4949,15,359,Kirgistan
4950,18,359,Kirgistan
4951,9,359,Kirguistán
4952,12,359,吉尔吉斯斯坦
4953,17,359,Kirgizistan
4954,14,359,Kirgisistan
4955,10,359,キルギス
4956,7,359,Kyrgyzstan
4957,16,359,Kirgisia
4958,2,359,Kirghizistan
4959,8,360,Лаос
4960,11,360,Laos
4961,13,360,Laos
4962,5,360,Laos
4963,3,360,Λάος
4964,4,360,Laos
4965,1,360,Laos
4966,6,360,Laos
4967,15,360,Laos
4968,18,360,Laos
4969,9,360,Laos
4970,12,360,老挝
4971,17,360,Laos
4972,14,360,Laos
4973,10,360,ラオス
4974,7,360,Laos
4975,16,360,Laos
4976,2,360,Laos
4977,8,361,Лесото
4978,11,361,Lesotho
4979,13,361,Lesotho
4980,5,361,Lesoto
4981,3,361,Λεσότο
4982,4,361,Lesotho
4983,1,361,Lesotho
4984,6,361,Lesotho
4985,15,361,Lesotho
4986,18,361,Lesótó
4987,9,361,Lesoto
4988,12,361,莱索托
4989,17,361,Lesotho
4990,14,361,Lesotho
4991,10,361,レソト
4992,7,361,Lesotho
4993,16,361,Lesotho
4994,2,361,Lesotho
4995,8,362,Латвия
4996,11,362,Letland
4997,13,362,Letland
4998,5,362,Letónia
4999,3,362,Λετονία
5000,4,362,Letonya
5001,1,362,Lettland
5002,6,362,Lettonie
5003,15,362,Łotwa
5004,18,362,Lettland
5005,9,362,Letonia
5006,12,362,拉脱维亚
5007,17,362,Lettland
5008,14,362,Latvia
5009,10,362,ラトビア
5010,7,362,Latvia
5011,16,362,Latvia
5012,2,362,Lettonia
5013,8,363,Ливан
5014,11,363,Libanon
5015,13,363,Libanon
5016,5,363,Líbano
5017,3,363,Λίβανος
5018,4,363,Lübnan
5019,1,363,Libanon
5020,6,363,Liban
5021,15,363,Liban
5022,18,363,Líbanon
5023,9,363,Líbano
5024,12,363,黎巴嫩
5025,17,363,Libanon
5026,14,363,Libanon
5027,10,363,レバノン
5028,7,363,Lebanon
5029,16,363,Libanon
5030,2,363,Libano
5031,8,364,Либерия
5032,11,364,Liberia
5033,13,364,Liberia
5034,5,364,Libéria
5035,3,364,Λιβερία
5036,4,364,Liberya
5037,1,364,Liberia
5038,6,364,Libéria
5039,15,364,Liberia
5040,18,364,Líbería
5041,9,364,Liberia
5042,12,364,利比里亚
5043,17,364,Liberia
5044,14,364,Liberia
5045,10,364,リベリア
5046,7,364,Liberia
5047,16,364,Liberia
5048,2,364,Liberia
5049,8,365,Ливия
5050,11,365,Libië
5051,13,365,Libyen
5052,5,365,Líbia
5053,3,365,Λιβύη
5054,4,365,Libya
5055,1,365,Libyen
5056,6,365,Libye
5057,15,365,Libia
5058,18,365,Líbýa
5059,9,365,Libia
5060,12,365,利比亚
5061,17,365,Libyen
5062,14,365,Libya
5063,10,365,リビア
5064,7,365,Libya
5065,16,365,Libya
5066,2,365,Libia
5067,8,366,Лихтенштейн
5068,11,366,Liechtenstein
5069,13,366,Liechtenstein
5070,5,366,Listenstaine
5071,3,366,Λίχτενσταϊν
5072,4,366,Lihtenştayn
5073,1,366,Liechtenstein
5074,6,366,Liechtenstein
5075,15,366,Liechtenstein
5076,18,366,Liechtenstein
5077,9,366,Liechtenstein
5078,12,366,列支敦士登
5079,17,366,Liechtenstein
5080,14,366,Liechtenstein
5081,10,366,リヒテンシュタイン
5082,7,366,Liechtenstein
5083,16,366,Liechtenstein
5084,2,366,Liechtenstein
5085,8,367,Литва
5086,11,367,Litouwen
5087,13,367,Litauen
5088,5,367,Lituânia
5089,3,367,Λιθουανία
5090,4,367,Litvanya
5091,1,367,Litauen
5092,6,367,Lituanie
5093,15,367,Litwa
5094,18,367,Litháen
5095,9,367,Lituania
5096,12,367,立陶宛
5097,17,367,Litauen
5098,14,367,Litauen
5099,10,367,リトアニア
5100,7,367,Lithuania
5101,16,367,Liettua
5102,2,367,Lituania
5103,8,368,Люксембург
5104,11,368,Luxemburg
5105,13,368,Luxembourg
5106,5,368,Luxemburgo
5107,3,368,Λουξεμβούργο
5108,4,368,Lüksemburg
5109,1,368,Luxemburg
5110,6,368,Luxembourg
5111,15,368,Luksemburg
5112,18,368,Lúxemborg
5113,9,368,Luxemburgo
5114,12,368,卢森堡
5115,17,368,Luxemburg
5116,14,368,Luxemburg
5117,10,368,ルクセンブルク
5118,7,368,Luxembourg
5119,16,368,Luxemburg
5120,2,368,Lussemburgo
5121,8,369,Макао
5122,11,369,Macau
5123,13,369,Macao
5124,5,369,Macau
5125,3,369,Μακάου
5126,4,369,Macao
5127,1,369,Macau
5128,6,369,Macao
5129,15,369,Makau
5130,18,369,Makaó
5131,9,369,Macao
5132,12,369,澳门，中国
5133,17,369,Macao
5134,14,369,Macao
5135,10,369,マカオ
5136,7,369,Macao
5137,16,369,Macao
5138,2,369,Macao
5139,8,370,Македония
5140,11,370,Voormalige Joegoslavische Republiek Macedonië
5141,13,370,Makedonien
5142,5,370,Macedónia
5143,3,370,Πρώην Γιουγκοσλαβική Δημοκρατία της Μακεδονίας
5144,4,370,Makedonya
5145,1,370,Mazedonien
5146,6,370,Macédoine
5147,15,370,Macedonia
5148,18,370,Makedónía
5149,9,370,Macedonia
5150,12,370,马其顿共和国
5151,17,370,Makedonien
5152,14,370,Makedonia
5153,10,370,マケドニア
5154,7,370,Macedonia
5155,16,370,Makedonia
5156,2,370,Macedonia
5157,8,371,Мадагаскар
5158,11,371,Madagaskar
5159,13,371,Madagaskar
5160,5,371,Madagáscar
5161,3,371,Μαδαγασκάρη
5162,4,371,Madagaskar
5163,1,371,Madagaskar
5164,6,371,Madagascar
5165,15,371,Madagaskar
5166,18,371,Madagaskar
5167,9,371,Madagascar
5168,12,371,马达加斯加
5169,17,371,Madagaskar
5170,14,371,Madagaskar
5171,10,371,マダガスカル
5172,7,371,Madagascar
5173,16,371,Madagascar
5174,2,371,Madagascar
5175,8,372,Малави
5176,11,372,Malawi
5177,13,372,Malawi
5178,5,372,Maláui
5179,3,372,Μαλάουι
5180,4,372,Malavi
5181,1,372,Malawi
5182,6,372,Malawi
5183,15,372,Malawi
5184,18,372,Malaví
5185,9,372,Malaui
5186,12,372,马拉维
5187,17,372,Malawi
5188,14,372,Malawi
5189,10,372,マラウイ
5190,7,372,Malawi
5191,16,372,Malawi
5192,2,372,Malawi
5193,8,373,Малайзия
5194,11,373,Maleisië
5195,13,373,Malaysia
5196,5,373,Malásia
5197,3,373,Μαλαισία
5198,4,373,Malezya
5199,1,373,Malaysia
5200,6,373,Malaisie
5201,15,373,Malezja
5202,18,373,Malasía
5203,9,373,Malasia
5204,12,373,马来西亚
5205,17,373,Malaysia
5206,14,373,Malaysia
5207,10,373,マレーシア
5208,7,373,Malaysia
5209,16,373,Malesia
5210,2,373,Malesia
5211,8,374,Мальдивы
5212,11,374,Maldiven
5213,13,374,Maldiverne
5214,5,374,Maldivas
5215,3,374,Μαλδίβες
5216,4,374,Maldivler
5217,1,374,Malediven
5218,6,374,Maldives
5219,15,374,Malediwy
5220,18,374,Maldíveyjar
5221,9,374,Maldivas
5222,12,374,马尔代夫
5223,17,374,Maldiverna
5224,14,374,Maldivene
5225,10,374,モルディブ
5226,7,374,Maldives
5227,16,374,Malediivit
5228,2,374,Maldive
5229,8,375,Мали
5230,11,375,Mali
5231,13,375,Mali
5232,5,375,Mali
5233,3,375,Μάλι
5234,4,375,Mali
5235,1,375,Mali
5236,6,375,Mali
5237,15,375,Mali
5238,18,375,Malí
5239,9,375,Mali
5240,12,375,马里
5241,17,375,Mali
5242,14,375,Mali
5243,10,375,マリ
5244,7,375,Mali
5245,16,375,Mali
5246,2,375,Mali
5247,8,376,Мальта
5248,11,376,Malta
5249,13,376,Malta
5250,5,376,Malta
5251,3,376,Μάλτα
5252,4,376,Malta
5253,1,376,Malta
5254,6,376,Malte
5255,15,376,Malta
5256,18,376,Malta
5257,9,376,Malta
5258,12,376,马耳他
5259,17,376,Malta
5260,14,376,Malta
5261,10,376,マルタ
5262,7,376,Malta
5263,16,376,Malta
5264,2,376,Malta
5265,8,377,Маршалловы острова
5266,11,377,Marshalleilanden
5267,13,377,Marshalløerne
5268,5,377,Ilhas Marshall
5269,3,377,Νήσοι Μάρσαλ
5270,4,377,Marshall Adaları
5271,1,377,Marshallinseln
5272,6,377,Îles Marshall
5273,15,377,Wyspy Marshalla
5274,18,377,Marshall-eyjar
5275,9,377,Islas Marshall
5276,12,377,马绍尔群岛
5277,17,377,Marshallöarna
5278,14,377,Marshalløyene
5279,10,377,マーシャル諸島
5280,7,377,Marshall Islands
5281,16,377,Marshallinsaaret
5282,2,377,Isole Marshall
5283,8,378,Мартиника
5284,11,378,Martinique
5285,13,378,Martinique
5286,5,378,Martinica
5287,3,378,Μαρτινίκα
5288,4,378,Martinique
5289,1,378,Martinique
5290,6,378,Martinique
5291,15,378,Martynika
5292,18,378,Martiník
5293,9,378,Martinica
5294,12,378,马丁尼克
5295,17,378,Martinique
5296,14,378,Martinique
5297,10,378,マルティニク島
5298,7,378,Martinique
5299,16,378,Martinique
5300,2,378,Martinica
5301,8,379,Мавритания
5302,11,379,Mauritanië
5303,13,379,Mauritanien
5304,5,379,Mauritânia
5305,3,379,Μαυριτανία
5306,4,379,Moritanya
5307,1,379,Mauretanien
5308,6,379,Mauritanie
5309,15,379,Mauretania
5310,18,379,Máritanía
5311,9,379,Mauritania
5312,12,379,毛利塔尼亚
5313,17,379,Mauretanien
5314,14,379,Mauritania
5315,10,379,モーリタニア
5316,7,379,Mauritania
5317,16,379,Mauritania
5318,2,379,Mauritania
5319,8,380,Маврикий
5320,11,380,Mauritius
5321,13,380,Mauritius
5322,5,380,Maurícia
5323,3,380,Μαυρίκιος
5324,4,380,Mauritius
5325,1,380,Mauritius
5326,6,380,Île Maurice
5327,15,380,Mauritius
5328,18,380,Máritíus
5329,9,380,Mauricio
5330,12,380,毛里求斯
5331,17,380,Mauritius
5332,14,380,Mauritius
5333,10,380,モーリシャス
5334,7,380,Mauritius
5335,16,380,Mauritius
5336,2,380,Mauritius
5337,8,381,Майотта
5338,11,381,Mayotte
5339,13,381,Mayotte
5340,5,381,Mayotte
5341,3,381,Μαγιότ
5342,4,381,Mayotte
5343,1,381,Mayotte
5344,6,381,Mayotte
5345,15,381,Majotta
5346,18,381,Mayotte
5347,9,381,Mayotte
5348,12,381,马约特岛
5349,17,381,Mayotte
5350,14,381,Mayotte
5351,10,381,マヨット
5352,7,381,Mayotte
5353,16,381,Mayotte
5354,2,381,Mayotte
5355,8,382,Мексика
5356,11,382,Mexico
5357,13,382,Mexico
5358,5,382,México
5359,3,382,Μεξικό
5360,4,382,Meksika
5361,1,382,Mexiko
5362,6,382,Mexique
5363,15,382,Meksyk
5364,18,382,Mexíkó
5365,9,382,México
5366,12,382,墨西哥
5367,17,382,Mexiko
5368,14,382,Mexico
5369,10,382,メキシコ
5370,7,382,Mexico
5371,16,382,Meksiko
5372,2,382,Messico
5373,8,383,Микронезия
5374,11,383,Micronesia
5375,13,383,Mikronesien
5376,5,383,Micronésia
5377,3,383,Μικρονησία
5378,4,383,Mikronezya
5379,1,383,Mikronesien
5380,6,383,Micronésie
5381,15,383,Mikronezja
5382,18,383,Míkrónesía
5383,9,383,Micronesia
5384,12,383,密克罗尼西亚
5385,17,383,Mikronesien
5386,14,383,Mikronesia
5387,10,383,ミクロネシア連邦
5388,7,383,Micronesia
5389,16,383,Mikronesia
5390,2,383,Micronesia
5391,8,384,Молдавия
5392,11,384,Moldavië
5393,13,384,Moldova
5394,5,384,Moldávia
5395,3,384,Μολδαβία
5396,4,384,Moldova
5397,1,384,Moldavien
5398,6,384,Moldavie
5399,15,384,Mołdawia
5400,18,384,Moldóva
5401,9,384,Moldavia
5402,12,384,摩尔多瓦
5403,17,384,Moldavien
5404,14,384,Moldova
5405,10,384,モルドバ
5406,7,384,Moldova
5407,16,384,Moldova
5408,2,384,Moldavia
5409,8,385,Монако
5410,11,385,Monaco
5411,13,385,Monaco
5412,5,385,Mónaco
5413,3,385,Μονακό
5414,4,385,Monako
5415,1,385,Monaco
5416,6,385,Monaco
5417,15,385,Monako
5418,18,385,Mónakó
5419,9,385,Mónaco
5420,12,385,摩纳哥
5421,17,385,Monaco
5422,14,385,Monaco
5423,10,385,モナコ公国
5424,7,385,Monaco
5425,16,385,Monaco
5426,2,385,Principato di Monaco
5427,8,386,Монголия
5428,11,386,Mongolië
5429,13,386,Mongoliet
5430,5,386,Mongólia
5431,3,386,Μογγολία
5432,4,386,Moğolistan
5433,1,386,Mongolei
5434,6,386,Mongolie
5435,15,386,Mongolia
5436,18,386,Mongólía
5437,9,386,Mongolia
5438,12,386,蒙古国
5439,17,386,Mongoliet
5440,14,386,Mongolia
5441,10,386,モンゴル
5442,7,386,Mongolia
5443,16,386,Mongolia
5444,2,386,Mongolia
5445,8,387,Черногория
5446,11,387,Montenegro
5447,13,387,Montenegro
5448,5,387,Montenegro
5449,3,387,Μαυροβούνιο
5450,4,387,Karadağ
5451,1,387,Montenegro
5452,6,387,Monténégro
5453,15,387,Czarnogóra
5454,18,387,Svartfjallaland
5455,9,387,Montenegro
5456,12,387,黑山共和国
5457,17,387,Montenegro
5458,14,387,Montenegro
5459,10,387,モンテネグロ
5460,7,387,Montenegro
5461,16,387,Montenegro
5462,2,387,Montenegro
5463,8,388,Монтсеррат
5464,11,388,Montserrat
5465,13,388,Montserrat
5466,5,388,Montserrat
5467,3,388,Μοντσεράτ
5468,4,388,Montserrat
5469,1,388,Montserrat
5470,6,388,Montserrat
5471,15,388,Montserrat
5472,18,388,Montserrat
5473,9,388,Montserrat
5474,12,388,蒙特塞拉特
5475,17,388,Montserrat
5476,14,388,Montserrat
5477,10,388,モントセラト
5478,7,388,Montserrat
5479,16,388,Montserrat
5480,2,388,Montserrat
5481,8,389,Марокко
5482,11,389,Marokko
5483,13,389,Marokko
5484,5,389,Marrocos
5485,3,389,Μαρόκο
5486,4,389,Fas
5487,1,389,Marokko
5488,6,389,Maroc
5489,15,389,Maroko
5490,18,389,Marokkó
5491,9,389,Marruecos
5492,12,389,摩洛哥
5493,17,389,Marocko
5494,14,389,Marokko
5495,10,389,モロッコ
5496,7,389,Morocco
5497,16,389,Marokko
5498,2,389,Marocco
5499,8,390,Мозамбик
5500,11,390,Mozambique
5501,13,390,Mozambique
5502,5,390,Moçambique
5503,3,390,Μοζαμβίκη
5504,4,390,Mozambik
5505,1,390,Mosambik
5506,6,390,Mozambique
5507,15,390,Mozambik
5508,18,390,Mósambík
5509,9,390,Mozambique
5510,12,390,莫桑比克
5511,17,390,Moçambique
5512,14,390,Mosambik
5513,10,390,モザンビーク
5514,7,390,Mozambique
5515,16,390,Mosambik
5516,2,390,Mozambico
5517,8,391,Мьянма
5518,11,391,Myanmar
5519,13,391,Myanmar
5520,5,391,Mianmar/Birmânia
5521,3,391,Μιανμάρ
5522,4,391,Myanmar
5523,1,391,Myanmar
5524,6,391,Myanmar
5525,15,391,Mjanma
5526,18,391,Mjanmar
5527,9,391,Birmania
5528,12,391,缅甸
5529,17,391,Burma
5530,14,391,Myanmar
5531,10,391,ミャンマー
5532,7,391,Myanmar
5533,16,391,Myanmar
5534,2,391,Myanmar
5535,8,392,Намибия
5536,11,392,Namibië
5537,13,392,Namibia
5538,5,392,Namíbia
5539,3,392,Ναμίμπια
5540,4,392,Namibya
5541,1,392,Namibia
5542,6,392,Namibie
5543,15,392,Namibia
5544,18,392,Namibía
5545,9,392,Namibia
5546,12,392,纳米比亚
5547,17,392,Namibia
5548,14,392,Namibia
5549,10,392,ナミビア
5550,7,392,Namibia
5551,16,392,Namibia
5552,2,392,Namibia
5553,8,393,Науру
5554,11,393,Nauru
5555,13,393,Nauru
5556,5,393,Nauru
5557,3,393,Ναουρού
5558,4,393,Nauru
5559,1,393,Nauru
5560,6,393,Nauru
5561,15,393,Nauru
5562,18,393,Nárú
5563,9,393,Nauru
5564,12,393,瑙鲁
5565,17,393,Nauru
5566,14,393,Nauru
5567,10,393,ナウル
5568,7,393,Nauru
5569,16,393,Nauru
5570,2,393,Nauru
5571,8,394,Непал
5572,11,394,Nepal
5573,13,394,Nepal
5574,5,394,Nepal
5575,3,394,Νεπάλ
5576,4,394,Nepal
5577,1,394,Nepal
5578,6,394,Népal
5579,15,394,Nepal
5580,18,394,Nepal
5581,9,394,Nepal
5582,12,394,尼泊尔
5583,17,394,Nepal
5584,14,394,Nepal
5585,10,394,ネパール
5586,7,394,Nepal
5587,16,394,Nepal
5588,2,394,Nepal
5589,8,395,Нидерланды
5590,11,395,Nederland
5591,13,395,Holland
5592,5,395,Países Baixos
5593,3,395,Ολλανδία 
5594,4,395,Hollanda
5595,1,395,Niederlande
5596,6,395,Pays-Bas
5597,15,395,Holandia
5598,18,395,Holland
5599,9,395,Países Bajos
5600,12,395,荷兰
5601,17,395,Nederländerna
5602,14,395,Nederland
5603,10,395,オランダ
5604,7,395,Netherlands
5605,16,395,Alankomaat
5606,2,395,Paesi Bassi
5607,8,396,Нидерландские Антильские острова
5608,11,396,Nederlandse Antillen
5609,13,396,Nederlandske Antiller
5610,5,396,Antilhas Neerlandesas
5611,3,396,Ολλανδικές Αντίλλες
5612,4,396,Hollanda Antilleri
5613,1,396,Niederländische Antillen
5614,6,396,Antilles Néerlandaises
5615,15,396,Antyle Holenderskie
5616,18,396,Hollensku Antillur
5617,9,396,Antillas Neerlandesas
5618,12,396,荷属安的列斯群岛
5619,17,396,Nederländska Antillerna
5620,14,396,De nederlandske Antillene
5621,10,396,オランダ領アンティル
5622,7,396,Netherlands Antilles
5623,16,396,Alankomaiden Antillit
5624,2,396,Antille Olandesi
5625,8,397,Новая Каледония
5626,11,397,Nieuw-Caledonië
5627,13,397,Ny Kaledonien
5628,5,397,Nova Caledónia
5629,3,397,Νέα Καληδονία
5630,4,397,Yeni Kaledonya
5631,1,397,Neukaledonien
5632,6,397,Nouvelle-Calédonie
5633,15,397,Nowa Kaledonia
5634,18,397,Nýja-Kaledónía
5635,9,397,Nueva Caledonia
5636,12,397,新喀里多尼亚
5637,17,397,Nya Kaledonien
5638,14,397,Ny-Caledonia
5639,10,397,ニューカレドニア
5640,7,397,New Caledonia
5641,16,397,Uusi-Kaledonia
5642,2,397,Nuova Caledonia
5643,8,398,Новая Зеландия
5644,11,398,Nieuw-Zeeland
5645,13,398,New Zealand
5646,5,398,Nova Zelândia
5647,3,398,Νέα Ζηλανδία
5648,4,398,Yeni Zelanda
5649,1,398,Neuseeland
5650,6,398,Nouvelle-Zélande
5651,15,398,Nowa Zelandia
5652,18,398,Nýja-Sjáland
5653,9,398,Nueva Zelanda
5654,12,398,新西兰
5655,17,398,Nya Zeeland
5656,14,398,New Zealand
5657,10,398,ニュージーランド
5658,7,398,New Zealand
5659,16,398,Uusi-Seelanti
5660,2,398,Nuova Zelanda
5661,8,399,Никарагуа
5662,11,399,Nicaragua
5663,13,399,Nicaragua
5664,5,399,Nicarágua
5665,3,399,Νικαράγουα
5666,4,399,Nikaragua
5667,1,399,Nicaragua
5668,6,399,Nicaragua
5669,15,399,Nikaragua
5670,18,399,Níkaragva
5671,9,399,Nicaragua
5672,12,399,尼加拉瓜
5673,17,399,Nicaragua
5674,14,399,Nicaragua
5675,10,399,ニカラグア
5676,7,399,Nicaragua
5677,16,399,Nicaragua
5678,2,399,Nicaragua
5679,8,400,Нигер
5680,11,400,Niger
5681,13,400,Niger
5682,5,400,Níger
5683,3,400,Νίγηρας
5684,4,400,Nijer
5685,1,400,Niger
5686,6,400,Niger
5687,15,400,Niger
5688,18,400,Níger
5689,9,400,Níger
5690,12,400,尼日尔
5691,17,400,Niger
5692,14,400,Niger
5693,10,400,ニジェール
5694,7,400,Niger
5695,16,400,Niger
5696,2,400,Niger
5697,8,401,Нигерия
5698,11,401,Nigeria
5699,13,401,Nigeria
5700,5,401,Nigéria
5701,3,401,Νιγηρία
5702,4,401,Nijerya
5703,1,401,Nigeria
5704,6,401,Nigéria
5705,15,401,Nigeria
5706,18,401,Nígería
5707,9,401,Nigeria
5708,12,401,尼日利亚
5709,17,401,Nigeria
5710,14,401,Nigeria
5711,10,401,ナイジェリア
5712,7,401,Nigeria
5713,16,401,Nigeria
5714,2,401,Nigeria
5715,8,402,Ниуэ
5716,11,402,Niue
5717,13,402,Niue
5718,5,402,Niue
5719,3,402,Νιούε
5720,4,402,Niue
5721,1,402,Niue
5722,6,402,Niué
5723,15,402,Niue
5724,18,402,Niue
5725,9,402,Niue
5726,12,402,纽埃
5727,17,402,Niue
5728,14,402,Niue
5729,10,402,ニウエ
5730,7,402,Niue
5731,16,402,Niue
5732,2,402,Niue
5733,8,403,Остров Норфолк
5734,11,403,Norfolkeiland
5735,13,403,Norfolk Island
5736,5,403,Ilha Norfolk
5737,3,403,Νησί Νόρφολκ
5738,4,403,Norfolk Adasi
5739,1,403,Norfolk Insel
5740,6,403,Île Norfolk
5741,15,403,Norfolk
5742,18,403,Norfolkeyja
5743,9,403,Isla Norfolk
5744,12,403,诺福克岛
5745,17,403,Norfolkön
5746,14,403,Norfolkøya
5747,10,403,ノーフォーク島
5748,7,403,Norfolk Island
5749,16,403,Norfolkinsaari
5750,2,403,Isola Norfolk
5751,8,404,Северные Марианские острова
5752,11,404,Noordelijke Marianen
5753,13,404,Nordmarianerne
5754,5,404,Ilhas Marianas do Norte
5755,3,404,Βόρειες Μαριάνες
5756,4,404,Kuzey Mariana Adalari
5757,1,404,Marianen-Inseln
5758,6,404,Îles Mariannes du Nord
5759,15,404,Mariany Północne
5760,18,404,Norður-Maríanaeyjar
5761,9,404,Islas Marianas del Norte
5762,12,404,北马里亚纳群岛
5763,17,404,Nordmarianerna
5764,14,404,Nord-Marianene
5765,10,404,北マリアナ諸島
5766,7,404,Northern Mariana Islands
5767,16,404,Pohjois-Mariaanit
5768,2,404,Marianne Settentrionali
5769,8,405,Северная Корея
5770,11,405,Noord-Korea
5771,13,405,Nordkorea
5772,5,405,Coreia do Norte
5773,3,405,Βόρεια Κορέα
5774,4,405,Kuzey Kore
5775,1,405,Nordkorea
5776,6,405,Corée du Nord
5777,15,405,Korea Północna
5778,18,405,Norður-Kórea
5779,9,405,Corea del Norte
5780,12,405,北朝鲜
5781,17,405,Nordkorea
5782,14,405,Nord-Korea
5783,10,405,北朝鮮
5784,7,405,North Korea
5785,16,405,Pohjois-Korea
5786,2,405,Corea del Nord
5787,8,406,Норвегия
5788,11,406,Noorwegen
5789,13,406,Norge
5790,5,406,Noruega
5791,3,406,Νορβηγία
5792,4,406,Norveç
5793,1,406,Norwegen
5794,6,406,Norvège
5795,15,406,Norwegia
5796,18,406,Noregur
5797,9,406,Noruega
5798,12,406,挪威
5799,17,406,Norge
5800,14,406,Norge
5801,10,406,ノルウェー
5802,7,406,Norway
5803,16,406,Norja
5804,2,406,Norvegia
5805,8,407,Оман
5806,11,407,Oman
5807,13,407,Oman
5808,5,407,Omã
5809,3,407,Ομάν
5810,4,407,Umman
5811,1,407,Oman
5812,6,407,Oman
5813,15,407,Oman
5814,18,407,Óman
5815,9,407,Omán
5816,12,407,阿曼
5817,17,407,Oman
5818,14,407,Oman
5819,10,407,オマーン
5820,7,407,Oman
5821,16,407,Oman
5822,2,407,Oman
5823,8,408,Пакистан
5824,11,408,Pakistan
5825,13,408,Pakistan
5826,5,408,Paquistão
5827,3,408,Πακιστάν
5828,4,408,Pakistan
5829,1,408,Pakistan
5830,6,408,Pakistan
5831,15,408,Pakistan
5832,18,408,Pakistan
5833,9,408,Pakistán
5834,12,408,巴基斯坦
5835,17,408,Pakistan
5836,14,408,Pakistan
5837,10,408,パキスタン
5838,7,408,Pakistan
5839,16,408,Pakistan
5840,2,408,Pakistan
5841,8,409,Палау
5842,11,409,Palau
5843,13,409,Palau
5844,5,409,Palau
5845,3,409,Παλάου
5846,4,409,Palau
5847,1,409,Palauinseln
5848,6,409,Palaos
5849,15,409,Palau
5850,18,409,Palá
5851,9,409,Palaos
5852,12,409,帕劳
5853,17,409,Palau
5854,14,409,Palau
5855,10,409,パラオ
5856,7,409,Palau
5857,16,409,Palau
5858,2,409,Palau
5859,8,410,Палестинские территории
5860,11,410,Palestijnse Autoriteit
5861,13,410,Palæstinensiske Territorier
5862,5,410,Palestina
5863,3,410,Παλαιστινιακά Εδάφη
5864,4,410,Filistin Topraklari
5865,1,410,Palästinensische Gebiete
5866,6,410,Palestine
5867,15,410,Palestyna
5868,18,410,Palestínsku sjálfstjórnarsvæðin
5869,9,410,Territorios Palestinos
5870,12,410,巴勒斯坦领土
5871,17,410,Palestinska områden
5872,14,410,Palestinske territorier
5873,10,410,パレスチナ自治区
5874,7,410,Palestinian Territories
5875,16,410,Palestiina
5876,2,410,Territori Palestinesi Occupati
5877,8,411,Панама
5878,11,411,Panama
5879,13,411,Panama
5880,5,411,Panamá
5881,3,411,Παναμάς
5882,4,411,Panama
5883,1,411,Panama
5884,6,411,Panama
5885,15,411,Panama
5886,18,411,Panama
5887,9,411,Panamá
5888,12,411,巴拿马
5889,17,411,Panama
5890,14,411,Panama
5891,10,411,パナマ
5892,7,411,Panama
5893,16,411,Panama
5894,2,411,Panama
5895,8,412,Папуа — Новая Гвинея
5896,11,412,Papoea-Nieuw-Guinea
5897,13,412,Papua Ny Guinea
5898,5,412,Papua-Nova Guiné
5899,3,412,Παπούα Νέα Γουινέα
5900,4,412,Papua Yeni Gine
5901,1,412,Papua-Neuguinea
5902,6,412,Papouasie-Nouvelle-Guinée
5903,15,412,Papua-Nowa Gwinea
5904,18,412,Papúa Nýja-Gínea
5905,9,412,Papúa Nueva Guinea
5906,12,412,巴布亚新几内亚
5907,17,412,Papua Nya Guinea
5908,14,412,Papua Ny-Guinea
5909,10,412,パプアニューギニア
5910,7,412,Papua New Guinea
5911,16,412,Papua-Uusi-Guinea
5912,2,412,Papua Nuova Guinea
5913,8,413,Парагвай
5914,11,413,Paraguay
5915,13,413,Paraguay
5916,5,413,Paraguai
5917,3,413,Παραγουάη
5918,4,413,Paraguay
5919,1,413,Paraguay
5920,6,413,Paraguay
5921,15,413,Paragwaj
5922,18,413,Paragvæ
5923,9,413,Paraguay
5924,12,413,巴拉圭
5925,17,413,Paraguay
5926,14,413,Paraguay
5927,10,413,パラグアイ
5928,7,413,Paraguay
5929,16,413,Paraguay
5930,2,413,Paraguay
5931,8,414,Перу
5932,11,414,Peru
5933,13,414,Peru
5934,5,414,Peru
5935,3,414,Περού
5936,4,414,Peru
5937,1,414,Peru
5938,6,414,Pérou
5939,15,414,Peru
5940,18,414,Perú
5941,9,414,Perú
5942,12,414,秘鲁
5943,17,414,Peru
5944,14,414,Peru
5945,10,414,ペルー
5946,7,414,Peru
5947,16,414,Peru
5948,2,414,Perù
5949,8,415,Филиппины
5950,11,415,Filipijnen
5951,13,415,Filippinerne
5952,5,415,Filipinas
5953,3,415,Φιλιππίνες
5954,4,415,Filipinler
5955,1,415,Philippinen
5956,6,415,Philippines
5957,15,415,Filipiny
5958,18,415,Filippseyjar
5959,9,415,Filipinas
5960,12,415,菲律宾
5961,17,415,Filippinerna
5962,14,415,Filippinene
5963,10,415,フィリピン
5964,7,415,Philippines
5965,16,415,Filippiinit
5966,2,415,Filippine
5967,8,416,Питкэрн
5968,11,416,Pitcairn
5969,13,416,Pitcairn
5970,5,416,Ilhas Pitcairn
5971,3,416,Νήσοι Πίτκαιρν
5972,4,416,Pitcairn
5973,1,416,Pitcairn Island
5974,6,416,Pitcairn
5975,15,416,Pitcairn
5976,18,416,Pitcairn
5977,9,416,Islas Pitcairn
5978,12,416,皮特克恩群岛
5979,17,416,Pitcairnöarna
5980,14,416,Pitcairn
5981,10,416,ピトケアン諸島
5982,7,416,Pitcairn
5983,16,416,Pitcairn
5984,2,416,Isola Pitcairn
5985,8,417,Польша
5986,11,417,Polen
5987,13,417,Polen
5988,5,417,Polónia
5989,3,417,Πολωνία
5990,4,417,Polonya
5991,1,417,Polen
5992,6,417,Pologne
5993,15,417,Polska
5994,18,417,Pólland
5995,9,417,Polonia
5996,12,417,波兰
5997,17,417,Polen
5998,14,417,Polen
5999,10,417,ポーランド
6000,7,417,Poland
6001,16,417,Puola
6002,2,417,Polonia
6003,8,418,Португалия
6004,11,418,Portugal
6005,13,418,Portugal
6006,5,418,Portugal
6007,3,418,Πορτογαλία
6008,4,418,Portekiz
6009,1,418,Portugal
6010,6,418,Portugal
6011,15,418,Portugalia
6012,18,418,Portúgal
6013,9,418,Portugal
6014,12,418,葡萄牙
6015,17,418,Portugal
6016,14,418,Portugal
6017,10,418,ポルトガル
6018,7,418,Portugal
6019,16,418,Portugali
6020,2,418,Portogallo
6021,8,419,Пуэрто-Рико
6022,11,419,Puerto Rico; Porto Rico
6023,13,419,Puerto Rico
6024,5,419,Porto Rico
6025,3,419,Πουέρτο Ρίκο
6026,4,419,Porto Riko
6027,1,419,Puerto Rico
6028,6,419,Porto Rico
6029,15,419,Portoryko
6030,18,419,Púertó Ríkó
6031,9,419,Puerto Rico
6032,12,419,波多黎各
6033,17,419,Puerto Rico
6034,14,419,Puerto Rico
6035,10,419,プエルトリコ
6036,7,419,Puerto Rico
6037,16,419,Puerto Rico
6038,2,419,Porto Rico
6039,8,420,Катар
6040,11,420,Qatar
6041,13,420,Qatar
6042,5,420,Catar
6043,3,420,Κατάρ
6044,4,420,Katar
6045,1,420,Katar
6046,6,420,Qatar
6047,15,420,Katar
6048,18,420,Katar
6049,9,420,Qatar
6050,12,420,卡塔尔
6051,17,420,Qatar
6052,14,420,Qatar
6053,10,420,カタール
6054,7,420,Qatar
6055,16,420,Qatar
6056,2,420,Qatar
6057,8,421,Реюньон
6058,11,421,Réunion
6059,13,421,Réunion
6060,5,421,Reunião
6061,3,421,Ρεϊνιόν
6062,4,421,Birlesme
6063,1,421,Reunion
6064,6,421,Réunion
6065,15,421,Reunion
6066,18,421,Réunion
6067,9,421,Reunión
6068,12,421,留尼汪岛
6069,17,421,Réunion
6070,14,421,Reunion
6071,10,421,レユニオン
6072,7,421,Reunion
6073,16,421,Reunion
6074,2,421,Reunion
6075,8,422,Румыния
6076,11,422,Roemenië
6077,13,422,Rumænien
6078,5,422,Roménia
6079,3,422,Ρουμανία
6080,4,422,Romanya
6081,1,422,Rumänien
6082,6,422,Roumanie
6083,15,422,Rumunia
6084,18,422,Rúmenía
6085,9,422,Rumanía
6086,12,422,罗马尼亚
6087,17,422,Rumänien
6088,14,422,Romania
6089,10,422,ルーマニア
6090,7,422,Romania
6091,16,422,Romania
6092,2,422,Romania
6093,8,423,Россия
6094,11,423,Rusland
6095,13,423,Rusland
6096,5,423,Rússia
6097,3,423,Ρωσία
6098,4,423,Rusya
6099,1,423,Russland
6100,6,423,Russie
6101,15,423,Rosja
6102,18,423,Rússland
6103,9,423,Rusia
6104,12,423,俄罗斯
6105,17,423,Ryssland
6106,14,423,Russland
6107,10,423,ロシア
6108,7,423,Russia
6109,16,423,Venäjä
6110,2,423,Russia
6111,8,424,Руанда
6112,11,424,Rwanda
6113,13,424,Rwanda
6114,5,424,Ruanda
6115,3,424,Ρουάντα
6116,4,424,Ruanda
6117,1,424,Ruanda
6118,6,424,Rwanda
6119,15,424,Rwanda
6120,18,424,Rúanda
6121,9,424,Ruanda
6122,12,424,卢旺达
6123,17,424,Rwanda
6124,14,424,Rwanda
6125,10,424,ルワンダ
6126,7,424,Rwanda
6127,16,424,Ruanda
6128,2,424,Ruanda
6129,8,425,Остров Святой Елены
6130,11,425,Sint-Helena
6131,13,425,Sankt Helena
6132,5,425,Santa Helena
6133,3,425,Αγία Ελένη
6134,4,425,Saint Helena
6135,1,425,Sankt Helena
6136,6,425,Sainte-Hélène
6137,15,425,Wyspa Świętej Heleny
6138,18,425,Sankti Helena
6139,9,425,Santa Elena
6140,12,425,圣赫勒拿岛
6141,17,425,Sankta Helena
6142,14,425,St. Helena
6143,10,425,セントヘレナ
6144,7,425,Saint Helena
6145,16,425,Saint Helena
6146,2,425,Sant Elena
6147,8,426,Сент-Китс и Невис
6148,11,426,Saint Kitts en Nevis
6149,13,426,Saint Kitts og Nevis
6150,5,426,St. Kitts e Nevis
6151,3,426,Άγιος Χριστόφορος και Νέβις
6152,4,426,Saint Kitts ve Nevis
6153,1,426,St. Kitts und Nevis
6154,6,426,Saint-Christophe-et-Niévès
6155,15,426,Saint Kitts i Nevis
6156,18,426,Sankti Kitts og Nevis
6157,9,426,San Cristóbal y Nieves
6158,12,426,圣克里斯托弗和尼维斯岛
6159,17,426,Saint Kitts och Nevis
6160,14,426,Saint Kitts og Nevis
6161,10,426,セントクリストファー・ネーヴィス
6162,7,426,Saint Kitts and Nevis
6163,16,426,Saint Kitts ja Nevis
6164,2,426,St. Kitts e Nevis
6165,8,427,Сент-Люсия
6166,11,427,Saint Lucia
6167,13,427,Saint Lucia
6168,5,427,Santa Lúcia
6169,3,427,Αγία Λουκία
6170,4,427,Saint Lucia
6171,1,427,St. Lucia
6172,6,427,Sainte-Lucie
6173,15,427,Saint Lucia
6174,18,427,Sankti Lúsía
6175,9,427,Santa Lucía
6176,12,427,圣卢西亚
6177,17,427,Saint Lucia
6178,14,427,Saint Lucia
6179,10,427,セントルシア
6180,7,427,Saint Lucia
6181,16,427,Saint Lucia
6182,2,427,Santa Lucia
6183,8,428,Сен-Пьер и Микелон
6184,11,428,Saint-Pierre en Miquelon
6185,13,428,Saint-Pierre og Miquelon
6186,5,428,São Pedro e Miquelon
6187,3,428,Σαιν Πιερ και Μικελόν
6188,4,428,Saint Pierre ve Miquelon
6189,1,428,St. Pierre and Miquelon
6190,6,428,Saint-Pierre-et-Miquelon
6191,15,428,Saint-Pierre i Miquelon
6192,18,428,Sankti Pierre og Miquelon
6193,9,428,San Pedro y Miquelón
6194,12,428,圣皮埃尔和密克隆
6195,17,428,Saint-Pierre och Miquelon
6196,14,428,Saint Pierre og Miquelon
6197,10,428,サンピエール島・ミクロン島
6198,7,428,Saint Pierre and Miquelon
6199,16,428,Saint Pierre ja Miquelon
6200,2,428,St. Pierre e Miquelon
6201,8,429,Сент-Винсент и Гренадины
6202,11,429,Saint Vincent en de Grenadines
6203,13,429,Saint Vincent og Grenadinerne
6204,5,429,São Vicente e Granadinas
6205,3,429,Άγιος Βικέντιος και Γρεναδίνες
6206,4,429,Saint Vincent ve Grenadinler
6207,1,429,Saint Vincent und die Grenadinen
6208,6,429,Saint-Vincent-et-les Grenadines
6209,15,429,Saint Vincent i Grenadyny
6210,18,429,Sankti Vinsent og Grenadíneyjar
6211,9,429,San Vicente y las Granadinas
6212,12,429,圣文森特和格林纳丁斯
6213,17,429,Saint Vincent och Grenadinerna
6214,14,429,Saint Vincent og Grenadinene
6215,10,429,セントビンセント・グレナディーン
6216,7,429,Saint Vincent and the Grenadines
6217,16,429,Saint Vincent ja Grenadiinit
6218,2,429,St. Vincent e Grenadine
6219,8,430,Самоа
6220,11,430,Samoa
6221,13,430,Samoa
6222,5,430,Samoa
6223,3,430,Σαμόα
6224,4,430,Samoa
6225,1,430,Samoa
6226,6,430,Samoa
6227,15,430,Samoa
6228,18,430,Samóa
6229,9,430,Samoa
6230,12,430,萨摩亚群岛
6231,17,430,Samoa
6232,14,430,Samoa
6233,10,430,サモア
6234,7,430,Samoa
6235,16,430,Samoa
6236,2,430,Samoa
6237,8,431,Сан-Марино
6238,11,431,San Marino
6239,13,431,San Marino
6240,5,431,São Marinho
6241,3,431,Άγιος Μαρίνος
6242,4,431,San Marino
6243,1,431,San Marino
6244,6,431,Saint-Marin
6245,15,431,San Marino
6246,18,431,San Marínó
6247,9,431,San Marino
6248,12,431,圣马力诺
6249,17,431,San Marino
6250,14,431,San Marino
6251,10,431,サンマリノ
6252,7,431,San Marino
6253,16,431,San Marino
6254,2,431,Repubblica di San Marino
6255,8,432,Сан-Томе и Принсипи
6256,11,432,Sao Tomé en Principe
6257,13,432,São Tomé og Príncipe
6258,5,432,São Tomé e Príncipe
6259,3,432,Σάο Τομέ και Πρίνσιπε
6260,4,432,Sao Tome ve Principe
6261,1,432,São Tomé und Príncipe
6262,6,432,Sao Tomé-et-Principe
6263,15,432,Wyspy Świętego Tomasza i Książęca
6264,18,432,Saó Tóme og Prinsípe
6265,9,432,Santo Tomé y Príncipe
6266,12,432,圣多美和普林西比
6267,17,432,São Tomé och Príncipe
6268,14,432,Sao Tome og Principe
6269,10,432,サントメ・プリンシペ
6270,7,432,São Tomé and Príncipe
6271,16,432,Sao Tome ja Principe
6272,2,432,Sao Tome e Principe
6273,8,433,Саудовская Аравия
6274,11,433,Saudi-Arabië; Saoedi-Arabië
6275,13,433,Saudi Arabien
6276,5,433,Arábia Saudita
6277,3,433,Σαουδική Αραβία
6278,4,433,Suudi Arabistan
6279,1,433,Saudi-Arabien
6280,6,433,Arabie saoudite
6281,15,433,Arabia Saudyjska
6282,18,433,Sádi-Arabía
6283,9,433,Arabia Saudí
6284,12,433,沙特阿拉伯
6285,17,433,Saudiarabien
6286,14,433,Saudi-Arabia
6287,10,433,サウジアラビア
6288,7,433,Saudi Arabia
6289,16,433,Saudi-Arabia
6290,2,433,Arabia Saudita
6291,8,434,Сенегал
6292,11,434,Senegal
6293,13,434,Senegal
6294,5,434,Senegal
6295,3,434,Σενεγάλη
6296,4,434,Senegal
6297,1,434,Saudi-Arabien
6298,6,434,Sénégal
6299,15,434,Senegal
6300,18,434,Senegal
6301,9,434,Senegal
6302,12,434,塞内加尔
6303,17,434,Senegal
6304,14,434,Senegal
6305,10,434,セネガル
6306,7,434,Senegal
6307,16,434,Senegal
6308,2,434,Senegal
6309,8,435,Сербия
6310,11,435,Servië
6311,13,435,Serbien
6312,5,435,Sérvia
6313,3,435,Σερβία
6314,4,435,Sırbistan
6315,1,435,Serbien
6316,6,435,Serbie
6317,15,435,Serbia
6318,18,435,Serbía
6319,9,435,Serbia
6320,12,435,塞尔维亚
6321,17,435,Serbien
6322,14,435,Serbia
6323,10,435,セルビア
6324,7,435,Serbia
6325,16,435,Serbia
6326,2,435,Serbia
6327,8,436,Сейшельские острова
6328,11,436,Seychellen
6329,13,436,Seychellerne
6330,5,436,Seicheles
6331,3,436,Σεϋχέλλες
6332,4,436,Seyşeller
6333,1,436,Seychellen
6334,6,436,Seychelles
6335,15,436,Seszele
6336,18,436,Seychelles-eyjar
6337,9,436,Seychelles
6338,12,436,塞舌尔
6339,17,436,Seychellerna
6340,14,436,Seychellene
6341,10,436,セーシェル
6342,7,436,Seychelles
6343,16,436,Seychellit
6344,2,436,Seychelles
6345,8,437,Сьерра-Леоне
6346,11,437,Sierra Leone
6347,13,437,Sierra Leone
6348,5,437,Serra Leoa
6349,3,437,Σιέρα Λεόνε
6350,4,437,Sierra Leone
6351,1,437,Sierra Leone
6352,6,437,Sierra Leone
6353,15,437,Sierra Leone
6354,18,437,Síerra Leóne
6355,9,437,Sierra Leona
6356,12,437,塞拉利昂
6357,17,437,Sierra Leone
6358,14,437,Sierra Leone
6359,10,437,シエラレオネ
6360,7,437,Sierra Leone
6361,16,437,Sierra Leone
6362,2,437,Sierra Leone
6363,8,438,Сингапур
6364,11,438,Singapore
6365,13,438,Singapore
6366,5,438,Singapura
6367,3,438,Σινγκαπούρη
6368,4,438,Singapur
6369,1,438,Singapur
6370,6,438,Singapour
6371,15,438,Singapur
6372,18,438,Singapúr
6373,9,438,Singapur
6374,12,438,新加坡
6375,17,438,Singapore
6376,14,438,Singapore
6377,10,438,シンガポール
6378,7,438,Singapore
6379,16,438,Singapore
6380,2,438,Singapore
6381,8,439,Άγιος Μαρτίνος (Ολλανδία)
6382,11,439,Sint Maarten
6383,13,439,Sint-Maarten
6384,5,439,São Martinho
6385,3,439,Синт-Мартен
6386,4,439,Sint Maarten
6387,1,439,St. Maarten
6388,6,439,Sint Maarten
6389,15,439,Sint Maarten
6390,18,439,Sankti Martin
6391,9,439,Sint Maarten
6392,12,439,荷屬聖馬丁
6393,17,439,Sint Maarten
6394,14,439,Sint Maarten
6395,10,439,シント・マールテン
6396,7,439,Sint Maarten
6397,16,439,Sint Maarten
6398,2,439,Sint Maarten
6399,8,440,Словакия
6400,11,440,Slowakije; Slovakije
6401,13,440,Slovakiet
6402,5,440,Eslováquia
6403,3,440,Σλοβακία
6404,4,440,Slovakya
6405,1,440,Slowakei
6406,6,440,Slovaquie
6407,15,440,Słowacja
6408,18,440,Slóvakía
6409,9,440,Eslovaquia
6410,12,440,斯洛伐克
6411,17,440,Slovakien
6412,14,440,Slovakia
6413,10,440,スロバキア
6414,7,440,Slovakia
6415,16,440,Slovakia
6416,2,440,Slovacchia
6417,8,441,Словения
6418,11,441,Slovenië
6419,13,441,Slovenien
6420,5,441,Eslovénia
6421,3,441,Σλοβενία
6422,4,441,Slovenya
6423,1,441,Slowenien
6424,6,441,Slovénie
6425,15,441,Słowenia
6426,18,441,Slóvenía
6427,9,441,Eslovenia
6428,12,441,斯洛文尼亚
6429,17,441,Slovenien
6430,14,441,Slovenia
6431,10,441,スロベニア
6432,7,441,Slovenia
6433,16,441,Slovenia
6434,2,441,Slovenia
6435,8,442,Соломоновы острова
6436,11,442,Salomonseilanden
6437,13,442,Solomonøerne
6438,5,442,Ilhas Salomão
6439,3,442,Νήσοι Σολομώντα
6440,4,442,Solomon Adaları
6441,1,442,Salomonen
6442,6,442,Îles Salomon
6443,15,442,Wyspy Salomona
6444,18,442,Salómonseyjar
6445,9,442,Islas Salomón
6446,12,442,所罗门群岛
6447,17,442,Salomonöarna
6448,14,442,Solomonøyene
6449,10,442,ソロモン諸島
6450,7,442,Solomon Islands
6451,16,442,Salomonsaaret
6452,2,442,Isole Salomone
6453,8,443,Сомали
6454,11,443,Somalië
6455,13,443,Somalia
6456,5,443,Somália
6457,3,443,Σομαλία
6458,4,443,Somali
6459,1,443,Somalia
6460,6,443,Somalie
6461,15,443,Somalia
6462,18,443,Sómalía
6463,9,443,Somalia
6464,12,443,索马里
6465,17,443,Somalia
6466,14,443,Somalia
6467,10,443,ソマリア
6468,7,443,Somalia
6469,16,443,Somalia
6470,2,443,Somalia
6471,8,444,ЮАР
6472,11,444,Zuid-Afrika
6473,13,444,Sydafrika
6474,5,444,África do Sul
6475,3,444,Νότια Αφρική
6476,4,444,Güney Afrika
6477,1,444,Südafrika
6478,6,444,Afrique du Sud
6479,15,444,Południowa Afryka
6480,18,444,Suður-Afríka
6481,9,444,Sudáfrica
6482,12,444,南非
6483,17,444,Sydafrika
6484,14,444,Sør-Afrika
6485,10,444,南アフリカ
6486,7,444,South Africa
6487,16,444,Etelä-Afrikka
6488,2,444,Sudafrica
6489,8,445,Южная Георгия и Южные Сандвичевы острова
6490,11,445,Zuid-Georgia en de Zuidelijke Sandwicheilanden
6491,13,445,South Georgia og South Sandwich Islands
6492,5,445,Geórgia do Sul e Sandwich do Sul
6493,3,445,Νήσοι Νότια Γεωργία και Νότιες Σάντουιτς
6494,4,445,Güney Georgia ve Güney Sandwich Adalari
6495,1,445,Südgeorgien und Südliche Sandwichinseln
6496,6,445,Géorgie du Sud et les Îles Sandwich du Sud
6497,15,445,Georgia Południowa i Sandwich Południowy
6498,18,445,Suður-Georgía og Suður-Sandvíkureyjar
6499,9,445,Islas Georgias del Sur y Sándwich del Sur
6500,12,445,南乔治亚岛和南桑威奇群岛
6501,17,445,Sydgeorgien och Sydsandwichöarna
6502,14,445,Sør-Georgia og Sør-Sandwichøyene
6503,10,445,サウスジョージア＆サウスサンドイッチ諸島
6504,7,445,South Georgia and the South Sandwich Islands
6505,16,445,Etelä-Georgia ja Eteläiset Sandwichsaaret
6506,2,445,Georgia del Sud e Isole Sandwich
6507,8,446,Южная Корея
6508,11,446,Zuid-Korea
6509,13,446,Sydkorea
6510,5,446,Coreia do Sul
6511,3,446,Νότια Κορέα
6512,4,446,Güney Kore
6513,1,446,Süd-Korea
6514,6,446,Corée du Sud
6515,15,446,Korea Południowa
6516,18,446,Suður-Kórea
6517,9,446,Corea del Sur
6518,12,446,韩国
6519,17,446,Sydkorea
6520,14,446,Sør-Korea
6521,10,446,韓国
6522,7,446,South Korea
6523,16,446,Etelä-Korea
6524,2,446,Corea del Sud
6525,8,447,южный Судан
6526,11,447,Zuid-Soedan
6527,13,447,Sydsudan
6528,5,447,Sudão do Sul
6529,3,447,Νότιο Σουδάν
6530,4,447,Güney Sudan
6531,1,447,Südsudan
6532,6,447,Soudan du Sud
6533,15,447,Sudan Południowy
6534,18,447,Suður-Súdan
6535,9,447,Sudán del Sur
6536,12,447,南苏丹
6537,17,447,Sydsudan
6538,14,447,Sør-Sudan
6539,10,447,南スーダン
6540,7,447,South Sudan
6541,16,447,Etelä-Sudan
6542,2,447,Sudan del Sud
6543,8,448,Испания
6544,11,448,Spanje
6545,13,448,Spanien
6546,5,448,Espanha
6547,3,448,Ισπανία
6548,4,448,İspanya
6549,1,448,Spanien
6550,6,448,Espagne
6551,15,448,Hiszpania
6552,18,448,Spánn
6553,9,448,España
6554,12,448,西班牙
6555,17,448,Spanien
6556,14,448,Spania
6557,10,448,スペイン
6558,7,448,Spain
6559,16,448,Espanja
6560,2,448,Spagna
6561,8,449,Шри-Ланка
6562,11,449,Sri Lanka
6563,13,449,Sri Lanka
6564,5,449,Sri Lanca
6565,3,449,Σρι Λάνκα
6566,4,449,Sri Lanka
6567,1,449,Sri Lanka
6568,6,449,Sri Lanka
6569,15,449,Sri Lanka
6570,18,449,Srí Lanka
6571,9,449,Sri Lanka
6572,12,449,斯里兰卡
6573,17,449,Sri Lanka
6574,14,449,Sri Lanka
6575,10,449,スリランカ
6576,7,449,Sri Lanka
6577,16,449,Sri Lanka
6578,2,449,Sri Lanka
6579,8,450,Судан
6580,11,450,Sudan; Soedan
6581,13,450,Sudan
6582,5,450,Sudão
6583,3,450,Σουδάν
6584,4,450,Sudan
6585,1,450,Sudan
6586,6,450,Soudan
6587,15,450,Sudan
6588,18,450,Súdan
6589,9,450,Sudán
6590,12,450,苏丹
6591,17,450,Sudan
6592,14,450,Sudan
6593,10,450,スーダン
6594,7,450,Sudan
6595,16,450,Sudan
6596,2,450,Sudan
6597,8,451,Суринам
6598,11,451,Suriname
6599,13,451,Surinam
6600,5,451,Suriname
6601,3,451,Σουρινάμ
6602,4,451,Surinam
6603,1,451,Suriname
6604,6,451,Suriname
6605,15,451,Surinam
6606,18,451,Súrínam
6607,9,451,Surinam
6608,12,451,苏里南
6609,17,451,Surinam
6610,14,451,Surinam
6611,10,451,スリナム
6612,7,451,Suriname
6613,16,451,Surinam
6614,2,451,Suriname
6615,8,452,Шпицберген и Ян-Майен
6616,11,452,Svalbard en Jan Mayen
6617,13,452,Svalbard og Jan Mayen
6618,5,452,Svalbard e Jan Mayen
6619,3,452,Σβάλμπαρντ και Γιαν Μαγιέν
6620,4,452,Svalbard ve Jan Mayen
6621,1,452,Svalbard
6622,6,452,Svalbard Et Jan Mayen
6623,15,452,Svalbard i Jan Mayen
6624,18,452,Svalbarði og Jan Mayen
6625,9,452,Svalbard y Jan Mayen
6626,12,452,斯瓦尔巴和扬马延
6627,17,452,Svalbard och Jan Mayen
6628,14,452,Svalbard og Jan Mayen
6629,10,452,スヴァールバル諸島およびヤンマイエン島
6630,7,452,Svalbard and Jan Mayen
6631,16,452,Huippuvuoret ja Jan Mayen
6632,2,452,Isole Svalbard e Jan Mayen
6633,8,453,Свазиленд
6634,11,453,Swaziland
6635,13,453,Swaziland
6636,5,453,Suazilândia
6637,3,453,Σουαζιλάνδη
6638,4,453,Svaziland
6639,1,453,Swasiland
6640,6,453,Swaziland
6641,15,453,Suazi
6642,18,453,Svasíland
6643,9,453,Suazilandia
6644,12,453,斯威士兰
6645,17,453,Swaziland
6646,14,453,Swaziland
6647,10,453,スワジランド
6648,7,453,Swaziland
6649,16,453,Swazimaa
6650,2,453,Swaziland
6651,8,454,Швеция
6652,11,454,Zweden
6653,13,454,Sverige
6654,5,454,Suécia
6655,3,454,Σουηδία
6656,4,454,İsveç
6657,1,454,Schweden
6658,6,454,Suède
6659,15,454,Szwecja
6660,18,454,Svíþjóð
6661,9,454,Suecia
6662,12,454,瑞典
6663,17,454,Sverige
6664,14,454,Sverige
6665,10,454,スウェーデン
6666,7,454,Sweden
6667,16,454,Ruotsi
6668,2,454,Svezia
6669,8,455,Швейцария
6670,11,455,Zwitserland
6671,13,455,Schweiz
6672,5,455,Suíça
6673,3,455,Ελβετία
6674,4,455,İsviçre
6675,1,455,Schweiz
6676,6,455,Suisse
6677,15,455,Szwajcaria
6678,18,455,Sviss
6679,9,455,Suiza
6680,12,455,瑞士
6681,17,455,Schweiz
6682,14,455,Sveits
6683,10,455,スイス
6684,7,455,Switzerland
6685,16,455,Sveitsi
6686,2,455,Svizzera
6687,8,456,Сирия
6688,11,456,Syrië
6689,13,456,Syrien
6690,5,456,Síria
6691,3,456,Συρία
6692,4,456,Suriye
6693,1,456,Syrien
6694,6,456,Syrie
6695,15,456,Syria
6696,18,456,Sýrland
6697,9,456,Siria
6698,12,456,叙利亚
6699,17,456,Syrien
6700,14,456,Syria
6701,10,456,シリア
6702,7,456,Syria
6703,16,456,Syyria
6704,2,456,Siria
6705,8,457,Тайвань
6706,11,457,Taiwan
6707,13,457,Taiwan
6708,5,457,Taiwan
6709,3,457,Ταιβάν
6710,4,457,Tayvan
6711,1,457,Taiwan
6712,6,457,Taiwan
6713,15,457,Tajwan
6714,18,457,Taívan
6715,9,457,Taiwán
6716,12,457,台湾，中国
6717,17,457,Taiwan
6718,14,457,Taiwan
6719,10,457,台湾
6720,7,457,Taiwan
6721,16,457,Taiwan
6722,2,457,Taiwan
6723,8,458,Таджикистан
6724,11,458,Tadzjikistan
6725,13,458,Tadsjikistan
6726,5,458,Tajiquistão
6727,3,458,Τατζικιστάν
6728,4,458,Tacikistan
6729,1,458,Tadschikistan
6730,6,458,Tadjikistan
6731,15,458,Tadżykistan
6732,18,458,Tadsjikistan
6733,9,458,Tayikistán
6734,12,458,塔吉克斯坦
6735,17,458,Tadzjikistan
6736,14,458,Tadsjikistan
6737,10,458,タジキスタン
6738,7,458,Tajikistan
6739,16,458,Tadzikistan
6740,2,458,Tagikistan
6741,8,459,Танзания
6742,11,459,Tanzania
6743,13,459,Tanzania
6744,5,459,Tanzânia
6745,3,459,Τανζανία
6746,4,459,Tanzanya
6747,1,459,Tansania
6748,6,459,Tanzanie
6749,15,459,Tanzania
6750,18,459,Tansanía
6751,9,459,Tanzania
6752,12,459,坦桑尼亚
6753,17,459,Tanzania
6754,14,459,Tanzania
6755,10,459,タンザニア
6756,7,459,Tanzania
6757,16,459,Tansania
6758,2,459,Tanzania
6759,8,460,Таиланд
6760,11,460,Thailand
6761,13,460,Thailand
6762,5,460,Tailândia
6763,3,460,Ταϊλάνδη
6764,4,460,Tayland
6765,1,460,Thailand
6766,6,460,Thaïlande
6767,15,460,Tajlandia
6768,18,460,Taíland
6769,9,460,Tailandia
6770,12,460,泰国
6771,17,460,Thailand
6772,14,460,Thailand
6773,10,460,タイ
6774,7,460,Thailand
6775,16,460,Thaimaa
6776,2,460,Tailandia
6777,8,461,Восточный Тимор
6778,11,461,Timor-Leste
6779,13,461,Østtimor
6780,5,461,Timor-Leste
6781,3,461,Ανατολικό Τιμόρ
6782,4,461,Dogu Timor
6783,1,461,Timor-Leste
6784,6,461,Timor oriental
6785,15,461,Timor Wschodni
6786,18,461,Austur-Tímor
6787,9,461,Timor Oriental
6788,12,461,东帝汶
6789,17,461,Östtimor
6790,14,461,Timor-Leste
6791,10,461,東ティモール
6792,7,461,Timor-Leste
6793,16,461,Itä-Timor
6794,2,461,Timor Est
6795,8,462,Чехия
6796,11,462,Tsjechië
6797,13,462,Tjekkiet
6798,5,462,República Checa
6799,3,462,Τσεχία
6800,4,462,Çek Cumhuriyeti
6801,1,462,Tschechien
6802,6,462,République tchèque
6803,15,462,Czechy
6804,18,462,Tékkland
6805,9,462,República Checa
6806,12,462,捷克共和国
6807,17,462,Tjeckien
6808,14,462,Tsjekkia
6809,10,462,チェコ共和国
6810,7,462,Czech Republic
6811,16,462,Tsekin tasavalta
6812,2,462,Repubblica Ceca
6813,8,463,Того
6814,11,463,Togo
6815,13,463,Togo
6816,5,463,Togo
6817,3,463,Τόγκο
6818,4,463,Togo
6819,1,463,Togo
6820,6,463,Togo
6821,15,463,Togo
6822,18,463,Tógó
6823,9,463,Togo
6824,12,463,多哥
6825,17,463,Togo
6826,14,463,Togo
6827,10,463,トーゴ
6828,7,463,Togo
6829,16,463,Togo
6830,2,463,Togo
6831,8,464,Токелау
6832,11,464,Tokelau
6833,13,464,Tokelau
6834,5,464,Toquelau
6835,3,464,Τοκελάου
6836,4,464,Tokelau
6837,1,464,Tokelau-Inseln
6838,6,464,Tokelau
6839,15,464,Tokelau
6840,18,464,Tókelá
6841,9,464,Tokelau
6842,12,464,托克劳群岛
6843,17,464,Tokelau
6844,14,464,Tokelau
6845,10,464,トケラウ
6846,7,464,Tokelau
6847,16,464,Tokelau
6848,2,464,Tokelau
6849,8,465,Тонга
6850,11,465,Tonga
6851,13,465,Tonga
6852,5,465,Tonga
6853,3,465,Τόνγκα
6854,4,465,Tonga
6855,1,465,Tonga
6856,6,465,Tonga
6857,15,465,Tonga
6858,18,465,Tonga
6859,9,465,Tonga
6860,12,465,汤加
6861,17,465,Tonga
6862,14,465,Tonga
6863,10,465,トンガ
6864,7,465,Tonga
6865,16,465,Tonga
6866,2,465,Tonga
6867,8,466,Тринидад и Тобаго
6868,11,466,Trinidad en Tobago
6869,13,466,Trinidad og Tobago
6870,5,466,Trindade e Tobago
6871,3,466,Τρινιντάντ και Τομπάγκο
6872,4,466,Trinidad ve Tobago
6873,1,466,Trinidad und Tobago
6874,6,466,Trinité-et-Tobago
6875,15,466,Trynidad i Tobago
6876,18,466,Trínidad og Tóbagó
6877,9,466,Trinidad y Tobago
6878,12,466,特立尼达和多巴哥
6879,17,466,Trinidad och Tobago
6880,14,466,Trinidad og Tobago
6881,10,466,トリニダード・トバゴ
6882,7,466,Trinidad and Tobago
6883,16,466,Trinidad ja Tobago
6884,2,466,Trinidad e Tobago
6885,8,467,Тунис
6886,11,467,Tunesië
6887,13,467,Tunesien
6888,5,467,Tunísia
6889,3,467,Τυνησία
6890,4,467,Tunus
6891,1,467,Tunesien
6892,6,467,Tunisie
6893,15,467,Tunezja
6894,18,467,Túnis
6895,9,467,Túnez
6896,12,467,突尼斯
6897,17,467,Tunisien
6898,14,467,Tunisia
6899,10,467,チュニジア
6900,7,467,Tunisia
6901,16,467,Tunisia
6902,2,467,Tunisia
6903,8,468,Турция
6904,11,468,Turkije
6905,13,468,Tyrkiet
6906,5,468,Turquia
6907,3,468,Τουρκία
6908,4,468,Türkiye
6909,1,468,Türkei
6910,6,468,Turquie
6911,15,468,Turcja
6912,18,468,Tyrkland
6913,9,468,Turquía
6914,12,468,土耳其
6915,17,468,Turkiet
6916,14,468,Tyrkia
6917,10,468,トルコ
6918,7,468,Turkey
6919,16,468,Turkki
6920,2,468,Turchia
6921,8,469,Туркменистан
6922,11,469,Turkmenistan
6923,13,469,Turkmenistan
6924,5,469,Turquemenistão
6925,3,469,Τουρκμενιστάν
6926,4,469,Türkmenistan
6927,1,469,Turkmenistan
6928,6,469,Turkménistan
6929,15,469,Turkmenistan
6930,18,469,Túrkmenistan
6931,9,469,Turkmenistán
6932,12,469,土库曼斯坦
6933,17,469,Turkmenistan
6934,14,469,Turkmenistan
6935,10,469,トルクメニスタン
6936,7,469,Turkmenistan
6937,16,469,Turkmenistan
6938,2,469,Turkmenistan
6939,8,470,Острова Теркс и Кайкос
6940,11,470,Turks- en Caicoseilanden
6941,13,470,Turks- og Caicosøerne
6942,5,470,Ilhas Turks e Caicos
6943,3,470,Νησιά Τερκς και Κάικος
6944,4,470,Turks ve Caicos Adalari
6945,1,470,Turks- und Caicos-Inseln
6946,6,470,Îles Turques et Caïques
6947,15,470,Turks i Caicos
6948,18,470,Turks- og Caicos-eyjar
6949,9,470,Islas Turcas y Caicos
6950,12,470,特克斯和凯科斯群岛
6951,17,470,Turks- och Caicosöarna
6952,14,470,Turks- og Caicosøyene
6953,10,470,タークス・カイコス諸島
6954,7,470,Turks and Caicos Islands
6955,16,470,Turks- ja Caicossaaret
6956,2,470,Isole Turks e Caicos
6957,8,471,Тувалу
6958,11,471,Tuvalu
6959,13,471,Tuvalu
6960,5,471,Tuvalu
6961,3,471,Τουβαλού
6962,4,471,Tuvalu
6963,1,471,Tuvalu
6964,6,471,Tuvalu
6965,15,471,Tuvalu
6966,18,471,Túvalú
6967,9,471,Tuvalu
6968,12,471,图瓦卢
6969,17,471,Tuvalu
6970,14,471,Tuvalu
6971,10,471,ツバル
6972,7,471,Tuvalu
6973,16,471,Tuvalu
6974,2,471,Tuvalu
6975,8,472,Уганда
6976,11,472,Uganda; Oeganda
6977,13,472,Uganda
6978,5,472,Uganda
6979,3,472,Ουγκάντα
6980,4,472,Uganda
6981,1,472,Uganda
6982,6,472,Ouganda
6983,15,472,Uganda
6984,18,472,Úganda
6985,9,472,Uganda
6986,12,472,乌干达
6987,17,472,Uganda
6988,14,472,Uganda
6989,10,472,ウガンダ
6990,7,472,Uganda
6991,16,472,Uganda
6992,2,472,Uganda
6993,8,473,Украина
6994,11,473,Oekraïne
6995,13,473,Ukraine
6996,5,473,Ucrânia
6997,3,473,Ουκρανία
6998,4,473,Ukrayna
6999,1,473,Ukraine
7000,6,473,Ukraine
7001,15,473,Ukraina
7002,18,473,Úkraína
7003,9,473,Ucrania
7004,12,473,乌克兰
7005,17,473,Ukraina
7006,14,473,Ukraina
7007,10,473,ウクライナ
7008,7,473,Ukraine
7009,16,473,Ukraina
7010,2,473,Ucraina
7011,8,474,Объединенные Арабские Эмираты
7012,11,474,Verenigde Arabische Emiraten
7013,13,474,Forenede Arabiske Emirater
7014,5,474,Emirados Árabes Unidos
7015,3,474,Ηνωμένα Αραβικά Εμιράτα
7016,4,474,Birleşik Arap Emirlikleri
7017,1,474,Vereinigte Arabische Emirate
7018,6,474,Émirats arabes unis
7019,15,474,Zjednoczone Emiraty Arabskie
7020,18,474,Sameinuðu arabísku furstadæmin
7021,9,474,Emiratos Árabes Unidos
7022,12,474,阿拉伯联合酋长国
7023,17,474,Förenade Arabemiraten
7024,14,474,De forente arabiske emirater
7025,10,474,アラブ首長国連邦
7026,7,474,United Arab Emirates
7027,16,474,Yhdistyneet Arabiemiraatit
7028,2,474,Emirati Arabi Uniti
7029,8,475,Великобритания
7030,11,475,Verenigd Koninkrijk
7031,13,475,Storbritannien
7032,5,475,Reino Unido
7033,3,475,Ηνωμένο Βασίλειο
7034,4,475,Büyük Britanya ve Kuzey İrlanda
7035,1,475,Vereinigtes Königreich Großbritannien und Nordirland
7036,6,475,Royaume-Uni
7037,15,475,Wielka Brytania
7038,18,475,Bretland
7039,9,475,Reino Unido
7040,12,475,英国
7041,17,475,Storbritannien
7042,14,475,Storbritannia
7043,10,475,イギリス
7044,7,475,United Kingdom
7045,16,475,Iso-Britannia
7046,2,475,Regno Unito di Gran Bretagna e Irlanda del Nord
7047,8,476,Соединенные Штаты Америки
7048,11,476,Verenigde Staten
7049,13,476,USA
7050,5,476,Estados Unidos da América
7051,3,476,Ηνωμένες Πολιτείες
7052,4,476,Amerika Birlesik Devletleri
7053,1,476,USA
7054,6,476,États-Unis
7055,15,476,Stany Zjednoczone
7056,18,476,Bandaríkin
7057,9,476,Estados Unidos
7058,12,476,美国
7059,17,476,USA
7060,14,476,USA
7061,10,476,アメリカ合衆国
7062,7,476,United States
7063,16,476,Yhdysvallat
7064,2,476,Stati Uniti d'America
7065,8,477,Внешние малые острова США
7066,11,477,Amerikaanse ondergeschikte afgelegen eilanden
7067,13,477,USA's ydre småøer
7068,5,477,Ilhas Menores Distantes dos Estados Unidos
7069,3,477,Απομακρυσμένες Νησίδες των Ηνωμένων Πολιτειών
7070,4,477,Amerika Birlesik Devletleri Küçük Dis Adalari
7071,1,477,Kleinere Außeninseln der Vereinigten Staaten
7072,6,477,Îles Mineures éloignées des États-Unis
7073,15,477,Dalekie Wyspy Mniejsze Stanów Zjednoczonych
7074,18,477,Smáeyjar Bandaríkjanna
7075,9,477,Islas Ultramarinas de Estados Unidos
7076,12,477,美国本土外小岛屿
7077,17,477,Förenta staternas mindre öar i Oceanien och Västindien
7078,14,477,USAs ytre småøyer
7079,10,477,合衆国領有小離島
7080,7,477,United States Minor Outlying Islands
7081,16,477,Yhdysvaltain pienet erillissaaret
7082,2,477,Isole Minori degli Stati Uniti
7083,8,478,Уругвай
7084,11,478,Uruguay
7085,13,478,Uruguay
7086,5,478,Uruguai
7087,3,478,Ουρουγάη
7088,4,478,Uruguay
7089,1,478,Uruguay
7090,6,478,Uruguay
7091,15,478,Urugwaj
7092,18,478,Úrúgvæ
7093,9,478,Uruguay
7094,12,478,乌拉圭
7095,17,478,Uruguay
7096,14,478,Uruguay
7097,10,478,ウルグアイ
7098,7,478,Uruguay
7099,16,478,Uruguay
7100,2,478,Uruguay
7101,8,479,Узбекистан
7102,11,479,Oezbekistan
7103,13,479,Usbekistan
7104,5,479,Usbequistão
7105,3,479,Ουζμπεκιστάν
7106,4,479,Özbekistan
7107,1,479,Usbekistan
7108,6,479,Ouzbékistan
7109,15,479,Uzbekistan
7110,18,479,Úsbekistan
7111,9,479,Uzbekistán
7112,12,479,乌兹别克斯坦
7113,17,479,Uzbekistan
7114,14,479,Usbekistan
7115,10,479,ウズベキスタン
7116,7,479,Uzbekistan
7117,16,479,Uzbekistan
7118,2,479,Uzbekistan
7119,8,480,Вануату
7120,11,480,Vanuatu
7121,13,480,Vanuatu
7122,5,480,Vanuatu
7123,3,480,Βανουάτου
7124,4,480,Vanuatu
7125,1,480,Vanuatu
7126,6,480,Vanuatu
7127,15,480,Vanuatu
7128,18,480,Vanúatú
7129,9,480,Vanuatu
7130,12,480,瓦努阿图
7131,17,480,Vanuatu
7132,14,480,Vanuatu
7133,10,480,バヌアツ
7134,7,480,Vanuatu
7135,16,480,Vanuatu
7136,2,480,Vanuatu
7137,8,481,Ватикан
7138,11,481,Vaticaanstad
7139,13,481,Vatikanstaten
7140,5,481,Vaticano
7141,3,481,Βατικανό
7142,4,481,Vatikan Sehir Devleti
7143,1,481,Vatikanstadt
7144,6,481,Vatican
7145,15,481,Watykan
7146,18,481,Vatíkanið
7147,9,481,Ciudad del Vaticano
7148,12,481,梵蒂冈城
7149,17,481,Vatikanstaten
7150,14,481,Vatikanstaten
7151,10,481,バチカン市国
7152,7,481,Vatican City
7153,16,481,Vatikaanivaltio
7154,2,481,Città del Vaticano
7155,8,482,Венесуэла
7156,11,482,Venezuela
7157,13,482,Venezuela
7158,5,482,Venezuela
7159,3,482,Βενεζουέλα
7160,4,482,Venezuela
7161,1,482,Venezuela
7162,6,482,Venezuela
7163,15,482,Wenezuela
7164,18,482,Venesúela
7165,9,482,Venezuela
7166,12,482,委内瑞拉
7167,17,482,Venezuela
7168,14,482,Venezuela
7169,10,482,ベネズエラ
7170,7,482,Venezuela
7171,16,482,Venezuela
7172,2,482,Venezuela
7173,8,483,Вьетнам
7174,11,483,Vietnam
7175,13,483,Vietnam
7176,5,483,Vietname
7177,3,483,Βιετνάμ
7178,4,483,Vietnam
7179,1,483,Vietnam
7180,6,483,Viet Nam
7181,15,483,Wietnam
7182,18,483,Víetnam
7183,9,483,Vietnam
7184,12,483,越南
7185,17,483,Vietnam
7186,14,483,Vietnam
7187,10,483,ベトナム
7188,7,483,Vietnam
7189,16,483,Vietnam
7190,2,483,Vietnam
7191,8,484,Британские Виргинские острова
7192,11,484,Britse Maagdeneilanden
7193,13,484,Jomfruøerne (britiske)
7194,5,484,Ilhas Virgens Britânicas
7195,3,484,Βρετανικές Παρθένοι Νήσοι
7196,4,484,"Virgin Adalari, Ingiliz"
7197,1,484,"Jungferninseln, Britische"
7198,6,484,Îles Vierges Britanniques
7199,15,484,Brytyjskie Wyspy Dziewicze
7200,18,484,Bresku Jómfrúaeyjar
7201,9,484,Islas Vírgenes Británicas
7202,12,484,英属维尔京群岛
7203,17,484,Brittiska Jungfruöarna
7204,14,484,De britiske jomfruøyene
7205,10,484,英領バージン諸島
7206,7,484,"Virgin Islands, British"
7207,16,484,Brittiläiset Neitsytsaaret
7208,2,484,Isole Vergini Britanniche
7209,8,485,Виргинские острова (США)
7210,11,485,Amerikaanse Maagdeneilanden
7211,13,485,Jomfruøerne (amerikanske)
7212,5,485,Ilhas Virgens Americanas
7213,3,485,Αμερικανικές Παρθένοι Νήσοι
7214,4,485,"Virgin Adalari, ABD"
7215,1,485,"Jungferninseln, Amerikanische"
7216,6,485,Îles Vierges des États-Unis
7217,15,485,Wyspy Dziewicze Stanów Zjednoczonych
7218,18,485,Bandarísku Jómfrúaeyjar
7219,9,485,Islas Vírgenes Americanas
7220,12,485,美属维尔京群岛
7221,17,485,Amerikanska Jungfruöarna
7222,14,485,De amerikanske jomfruøyene
7223,10,485,アメリカ領ヴァージン諸島
7224,7,485,"Virgin Islands, U.S."
7225,16,485,Yhdysvaltain Neitsytsaaret
7226,2,485,Isole Vergini Americane
7227,8,486,Уоллис и Футуна
7228,11,486,Wallis en Futuna
7229,13,486,Wallis og Futuna
7230,5,486,Ilhas Wallis e Futuna
7231,3,486,Γουόλις και Φουτούνα
7232,4,486,Wallis ve Futuna
7233,1,486,Wallis et Futuna
7234,6,486,Wallis-et-Futuna
7235,15,486,Wallis i Futuna
7236,18,486,Wallis- og Fútúnaeyjar
7237,9,486,Wallis y Futuna
7238,12,486,瓦利斯群岛和富图纳群岛
7239,17,486,Wallis- och Futunaöarna
7240,14,486,Wallis og Futuna
7241,10,486,ウォリス・フツナ
7242,7,486,Wallis and Futuna
7243,16,486,Wallis ja Futuna
7244,2,486,Isole Wallis e Futuna
7245,8,487,Западная Сахара
7246,11,487,Westelijke Sahara
7247,13,487,Vestsahara
7248,5,487,Saara Ocidental
7249,3,487,Δυτική Σαχάρα
7250,4,487,Bati Sahra
7251,1,487,Westsahara
7252,6,487,Sahara Occidental
7253,15,487,Sahara Zachodnia
7254,18,487,Vestur-Sahara
7255,9,487,Sahara Occidental
7256,12,487,西撒哈拉
7257,17,487,Västsahara
7258,14,487,Vest-Sahara
7259,10,487,西サハラ
7260,7,487,Western Sahara
7261,16,487,Länsi-Sahara
7262,2,487,Western Sahara
7263,8,488,Йемен
7264,11,488,Jemen
7265,13,488,Yemen
7266,5,488,Iémen
7267,3,488,Υεμένη
7268,4,488,Yemen
7269,1,488,Jemen
7270,6,488,Yémen
7271,15,488,Jemen
7272,18,488,Jemen
7273,9,488,Yemen
7274,12,488,也门
7275,17,488,Jemen
7276,14,488,Jemen
7277,10,488,イエメン
7278,7,488,Yemen
7279,16,488,Jemen
7280,2,488,Yemen
7281,8,489,Замбия
7282,11,489,Zambia
7283,13,489,Zambia
7284,5,489,Zâmbia
7285,3,489,Ζάμπια
7286,4,489,Zambiya
7287,1,489,Sambia
7288,6,489,Zambie
7289,15,489,Zambia
7290,18,489,Sambía
7291,9,489,Zambia
7292,12,489,赞比亚
7293,17,489,Zambia
7294,14,489,Zambia
7295,10,489,ザンビア
7296,7,489,Zambia
7297,16,489,Sambia
7298,2,489,Zambia
7299,8,490,Зимбабве
7300,11,490,Zimbabwe
7301,13,490,Zimbabwe
7302,5,490,Zimbabué
7303,3,490,Ζιμπάμπουε
7304,4,490,Zimbabve
7305,1,490,Simbabwe
7306,6,490,Zimbabwe
7307,15,490,Zimbabwe
7308,18,490,Simbabve
7309,9,490,Zimbabue
7310,12,490,津巴布韦
7311,17,490,Zimbabwe
7312,14,490,Zimbabwe
7313,10,490,ジンバブエ
7314,7,490,Zimbabwe
7315,16,490,Zimbabwe
7316,2,490,Zimbabwe
