{
  "project_info": {
    "project_number": "898628572862",
    "firebase_url": "https://travellink-pro.firebaseio.com",
    "project_id": "travellink-pro",
    "storage_bucket": "travellink-pro.appspot.com"
  },
  "client": [
    {
      "client_info": {
        "mobilesdk_app_id": "1:898628572862:android:ac5a3ab1c9e6df0b",
        "android_client_info": {
          "package_name": "com.travellink"
        }
      },
      "oauth_client": [
        {
          "client_id": "898628572862-n33eafepf59ibhac4dq1sp1ss42cedrs.apps.googleusercontent.com",
          "client_type": 3
        },
        {
          "client_id": "898628572862-rhpknqpis4i1m6k0b5r5jnjjqc8gqodk.apps.googleusercontent.com",
          "client_type": 3
        },
        {
          "client_id": "898628572862-8d08i79tt0spgohm1e0al79p4jv1h29i.apps.googleusercontent.com",
          "client_type": 1,
          "android_info": {
            "package_name": "com.travellink",
            "certificate_hash": "5708134d0fdf14ab98f1c7d8e04cede2309ceae1"
          }
        }
      ],
      "api_key": [
        {
          "current_key": "AIzaSyBpc8KDgfr4mWxtJWSeainKoPbIzQkSuPU"
        }
      ],
      "services": {
        "analytics_service": {
          "status": 1
        },
        "appinvite_service": {
          "status": 2,
          "other_platform_oauth_client": [
            {
              "client_id": "898628572862-n33eafepf59ibhac4dq1sp1ss42cedrs.apps.googleusercontent.com",
              "client_type": 3
            }
          ]
        },
        "ads_service": {
          "status": 2
        }
      }
    }
  ],
  "configuration_version": "1"
}