{
  "cities": [
    {
      "type": "CITY",
      "geoNodeId": 9777,
      "name": "Paris",
      "iataCode": "PAR",
      "countryCode": "FR",
      "countryName": "France",
      "cityName": "Paris",
      "coordinates": {
        "latitude": 48.859887,
        "longitude": 2.344058
      },
      "locationNames": [
        "Paris"
      ],
      "relatedLocations": [
        {
          "type": "AIRPORT",
          "geoNodeId": 330,
          "name": "Charles De Gaulle",
          "iataCode": "CDG",
          "countryCode": "FR",
          "countryName": "France",
          "cityName": "Paris",
          "coordinates": {
            "latitude": 49.016667,
            "longitude": 2.55
          },
          "locationNames": [
            "Charles De Gaulle"
          ],
          "relatedLocations": null,
          "geoNodeType": "AIRPORT"
        },
        {
          "type": "AIRPORT",
          "geoNodeId": 1391,
          "name": "Orly",
          "iataCode": "ORY",
          "countryCode": "FR",
          "countryName": "France",
          "cityName": "Paris",
          "coordinates": {
            "latitude": 48.733333,
            "longitude": 2.4
          },
          "locationNames": [
            "Orly"
          ],
          "relatedLocations": null,
          "geoNodeType": "AIRPORT"
        },
        {
          "type": "AIRPORT",
          "geoNodeId": 290,
          "name": "Paris Beauvais",
          "iataCode": "BVA",
          "countryCode": "FR",
          "countryName": "France",
          "cityName": "Paris",
          "coordinates": {
            "latitude": 49.45,
            "longitude": 2.116667
          },
          "locationNames": [
            "Paris Beauvais"
          ],
          "relatedLocations": null,
          "geoNodeType": "AIRPORT"
        }
      ],
      "geoNodeType": "CITY"
    },
    {
      "type": "CITY",
      "geoNodeId": 3453,
      "name": "Parma",
      "iataCode": "PMF",
      "countryCode": "IT",
      "countryName": "Italy",
      "cityName": "Parma",
      "coordinates": {
        "latitude": 44.804394,
        "longitude": 10.328494
      },
      "locationNames": [
        "Parma"
      ],
      "relatedLocations": [
        {
          "type": "AIRPORT",
          "geoNodeId": 192,
          "name": "Orio Al Serio",
          "iataCode": "BGY",
          "countryCode": "IT",
          "countryName": "Italy",
          "cityName": "Milan",
          "coordinates": {
            "latitude": 45.666667,
            "longitude": 9.7
          },
          "locationNames": [
            "Orio Al Serio"
          ],
          "relatedLocations": null,
          "geoNodeType": "AIRPORT"
        },
        {
          "type": "AIRPORT",
          "geoNodeId": 1075,
          "name": "Linate",
          "iataCode": "LIN",
          "countryCode": "IT",
          "countryName": "Italy",
          "cityName": "Milan",
          "coordinates": {
            "latitude": 45.433333,
            "longitude": 9.283333
          },
          "locationNames": [
            "Linate"
          ],
          "relatedLocations": null,
          "geoNodeType": "AIRPORT"
        },
        {
          "type": "AIRPORT",
          "geoNodeId": 1482,
          "name": "Giuseppe Verdi",
          "iataCode": "PMF",
          "countryCode": "IT",
          "countryName": "Italy",
          "cityName": "Parma",
          "coordinates": {
            "latitude": 44.8,
            "longitude": 10.333333
          },
          "locationNames": [
            "Giuseppe Verdi"
          ],
          "relatedLocations": null,
          "geoNodeType": "AIRPORT"
        },
        {
          "type": "AIRPORT",
          "geoNodeId": 1284,
          "name": "Malpensa",
          "iataCode": "MXP",
          "countryCode": "IT",
          "countryName": "Italy",
          "cityName": "Milan",
          "coordinates": {
            "latitude": 45.616667,
            "longitude": 8.733333
          },
          "locationNames": [
            "Malpensa"
          ],
          "relatedLocations": null,
          "geoNodeType": "AIRPORT"
        }
      ],
      "geoNodeType": "CITY"
    },
    {
      "type": "CITY",
      "geoNodeId": 3040,
      "name": "Paraburdoo, WA",
      "iataCode": "PBO",
      "countryCode": "AU",
      "countryName": "Australia",
      "cityName": "Paraburdoo, WA",
      "coordinates": {
        "latitude": -23.203753,
        "longitude": 117.668429
      },
      "locationNames": [
        "Paraburdoo, WA"
      ],
      "relatedLocations": null,
      "geoNodeType": "CITY"
    },
    {
      "type": "CITY",
      "geoNodeId": 1077907,
      "name": "Parachinar",
      "iataCode": "PAJ",
      "countryCode": "PK",
      "countryName": "Pakistan",
      "cityName": "Parachinar",
      "coordinates": {
        "latitude": 33.9,
        "longitude": 70.083333
      },
      "locationNames": [
        "Parachinar"
      ],
      "relatedLocations": null,
      "geoNodeType": "CITY"
    },
    {
      "type": "CITY",
      "geoNodeId": 1079359,
      "name": "Paradise River",
      "iataCode": "YDE",
      "countryCode": "CA",
      "countryName": "Canada",
      "cityName": "Paradise River",
      "coordinates": {
        "latitude": 53.433333,
        "longitude": -57.233333
      },
      "locationNames": [
        "Paradise River"
      ],
      "relatedLocations": null,
      "geoNodeType": "CITY"
    },
    {
      "type": "CITY",
      "geoNodeId": 1064608,
      "name": "Paradise",
      "iataCode": "PYS",
      "countryCode": "US",
      "countryName": "United States",
      "cityName": "Paradise",
      "coordinates": {
        "latitude": 36.09719,
        "longitude": -115.14666
      },
      "locationNames": [
        "Paradise"
      ],
      "relatedLocations": null,
      "geoNodeType": "CITY"
    },
    {
      "type": "CITY",
      "geoNodeId": 1061750,
      "name": "Paragould,Ar",
      "iataCode": "PGR",
      "countryCode": "US",
      "countryName": "United States",
      "cityName": "Paragould,Ar",
      "coordinates": {
        "latitude": 36.03277,
        "longitude": -90.51943
      },
      "locationNames": [
        "Paragould,Ar"
      ],
      "relatedLocations": null,
      "geoNodeType": "CITY"
    },
    {
      "type": "CITY",
      "geoNodeId": 1078006,
      "name": "Parakou",
      "iataCode": "PKO",
      "countryCode": "BJ",
      "countryName": "Benin",
      "cityName": "Parakou",
      "coordinates": {
        "latitude": 9.35,
        "longitude": 2.616667
      },
      "locationNames": [
        "Parakou"
      ],
      "relatedLocations": null,
      "geoNodeType": "CITY"
    },
    {
      "type": "CITY",
      "geoNodeId": 1078030,
      "name": "Paramakotoi",
      "iataCode": "PMT",
      "countryCode": "GY",
      "countryName": "Guyana",
      "cityName": "Paramakotoi",
      "coordinates": {
        "latitude": 4.833333,
        "longitude": -59.55
      },
      "locationNames": [
        "Paramakotoi"
      ],
      "relatedLocations": null,
      "geoNodeType": "CITY"
    },
    {
      "type": "CITY",
      "geoNodeId": 3041,
      "name": "Paramaribo",
      "iataCode": "PBM",
      "countryCode": "SR",
      "countryName": "Suriname",
      "cityName": "Paramaribo",
      "coordinates": {
        "latitude": 5.849999,
        "longitude": -55.2
      },
      "locationNames": [
        "Paramaribo"
      ],
      "relatedLocations": null,
      "geoNodeType": "CITY"
    },
    {
      "type": "CITY",
      "geoNodeId": 1078059,
      "name": "Param",
      "iataCode": "PPX",
      "countryCode": "PG",
      "countryName": "Papua New Guinea",
      "cityName": "Param",
      "coordinates": {
        "latitude": -9.983333,
        "longitude": 149.583333
      },
      "locationNames": [
        "Param"
      ],
      "relatedLocations": null,
      "geoNodeType": "CITY"
    },
    {
      "type": "CITY",
      "geoNodeId": 3612,
      "name": "Parana",
      "iataCode": "PRA",
      "countryCode": "AR",
      "countryName": "Argentina",
      "cityName": "Parana",
      "coordinates": {
        "latitude": -31.739999,
        "longitude": -60.52
      },
      "locationNames": [
        "Parana"
      ],
      "relatedLocations": null,
      "geoNodeType": "CITY"
    },
    {
      "type": "CITY",
      "geoNodeId": 1073875,
      "name": "Parana",
      "iataCode": "JPR",
      "countryCode": "BR",
      "countryName": "Brazil",
      "cityName": "Parana",
      "coordinates": {
        "latitude": -10.870556,
        "longitude": -6.184667
      },
      "locationNames": [
        "Parana"
      ],
      "relatedLocations": null,
      "geoNodeType": "CITY"
    },
    {
      "type": "CITY",
      "geoNodeId": 1078036,
      "name": "Paranagua",
      "iataCode": "PNG",
      "countryCode": "BR",
      "countryName": "Brazil",
      "cityName": "Paranagua",
      "coordinates": {
        "latitude": -25.516667,
        "longitude": -48.5
      },
      "locationNames": [
        "Paranagua"
      ],
      "relatedLocations": null,
      "geoNodeType": "CITY"
    },
    {
      "type": "CITY",
      "geoNodeId": 1077916,
      "name": "Paranaiba",
      "iataCode": "PBB",
      "countryCode": "BR",
      "countryName": "Brazil",
      "cityName": "Paranaiba",
      "coordinates": {
        "latitude": -19.666667,
        "longitude": -51.183333
      },
      "locationNames": [
        "Paranaiba"
      ],
      "relatedLocations": null,
      "geoNodeType": "CITY"
    },
    {
      "type": "CITY",
      "geoNodeId": 1078115,
      "name": "Paranavai",
      "iataCode": "PVI",
      "countryCode": "BR",
      "countryName": "Brazil",
      "cityName": "Paranavai",
      "coordinates": {
        "latitude": -23.066667,
        "longitude": -52.466667
      },
      "locationNames": [
        "Paranavai"
      ],
      "relatedLocations": null,
      "geoNodeType": "CITY"
    },
    {
      "type": "CITY",
      "geoNodeId": 1059765,
      "name": "Paraparaumu",
      "iataCode": "PPQ",
      "countryCode": "NZ",
      "countryName": "New Zealand",
      "cityName": "Paraparaumu",
      "coordinates": {
        "latitude": -40.910465,
        "longitude": 175.007996
      },
      "locationNames": [
        "Paraparaumu"
      ],
      "relatedLocations": null,
      "geoNodeType": "CITY"
    },
    {
      "type": "CITY",
      "geoNodeId": 1057859,
      "name": "Parapat",
      "iataCode": "SIW",
      "countryCode": "ID",
      "countryName": "Indonesia",
      "cityName": "Parapat",
      "coordinates": {
        "latitude": 3.1244,
        "longitude": 98.8248
      },
      "locationNames": [
        "Parapat"
      ],
      "relatedLocations": null,
      "geoNodeType": "CITY"
    },
    {
      "type": "CITY",
      "geoNodeId": 1078073,
      "name": "Parasi",
      "iataCode": "PRS",
      "countryCode": "SB",
      "countryName": "Solomon Islands",
      "cityName": "Parasi",
      "coordinates": {
        "latitude": -9.716667,
        "longitude": 161.4
      },
      "locationNames": [
        "Parasi"
      ],
      "relatedLocations": null,
      "geoNodeType": "CITY"
    },
    {
      "type": "CITY",
      "geoNodeId": 1075998,
      "name": "Paratebueno",
      "iataCode": "EUO",
      "countryCode": "CO",
      "countryName": "Colombia",
      "cityName": "Paratebueno",
      "coordinates": {
        "latitude": 11.133333,
        "longitude": 123.933333
      },
      "locationNames": [
        "Paratebueno"
      ],
      "relatedLocations": null,
      "geoNodeType": "CITY"
    },
    {
      "type": "CITY",
      "geoNodeId": 1078064,
      "name": "Pardoo Station",
      "iataCode": "PRD",
      "countryCode": "AU",
      "countryName": "Australia",
      "cityName": "Pardoo Station",
      "coordinates": {
        "latitude": -20.133333,
        "longitude": 119.583333
      },
      "locationNames": [
        "Pardoo Station"
      ],
      "relatedLocations": null,
      "geoNodeType": "CITY"
    },
    {
      "type": "CITY",
      "geoNodeId": 1077957,
      "name": "Pardubice",
      "iataCode": "PED",
      "countryCode": "CZ",
      "countryName": "Czech Republic",
      "cityName": "Pardubice",
      "coordinates": {
        "latitude": 50.013333,
        "longitude": 15.738611
      },
      "locationNames": [
        "Pardubice"
      ],
      "relatedLocations": null,
      "geoNodeType": "CITY"
    },
    {
      "type": "CITY",
      "geoNodeId": 1072011,
      "name": "Parintins",
      "iataCode": "PIN",
      "countryCode": "BR",
      "countryName": "Brazil",
      "cityName": "Parintins",
      "coordinates": {
        "latitude": -2.633333,
        "longitude": -56.733333
      },
      "locationNames": [
        "Parintins"
      ],
      "relatedLocations": null,
      "geoNodeType": "CITY"
    },
    {
      "type": "CITY",
      "geoNodeId": 1020868,
      "name": "Paris",
      "iataCode": "PHT",
      "countryCode": "US",
      "countryName": "United States",
      "cityName": "Paris",
      "coordinates": {
        "latitude": 36.298714,
        "longitude": -88.310553
      },
      "locationNames": [
        "Paris"
      ],
      "relatedLocations": null,
      "geoNodeType": "CITY"
    },
    {
      "type": "CITY",
      "geoNodeId": 1078076,
      "name": "Paris",
      "iataCode": "PRX",
      "countryCode": "US",
      "countryName": "United States",
      "cityName": "Paris",
      "coordinates": {
        "latitude": 33.633333,
        "longitude": -95.45
      },
      "locationNames": [
        "Paris"
      ],
      "relatedLocations": null,
      "geoNodeType": "CITY"
    },
    {
      "type": "CITY",
      "geoNodeId": 1063708,
      "name": "Parkersburg Marietta",
      "iataCode": "PKB",
      "countryCode": "US",
      "countryName": "United States",
      "cityName": "Parkersburg Marietta",
      "coordinates": {
        "latitude": 0,
        "longitude": 0
      },
      "locationNames": [
        "Parkersburg Marietta"
      ],
      "relatedLocations": null,
      "geoNodeType": "CITY"
    },
    {
      "type": "CITY",
      "geoNodeId": 3043,
      "name": "Parkes, NSW",
      "iataCode": "PKE",
      "countryCode": "AU",
      "countryName": "Australia",
      "cityName": "Parkes, NSW",
      "coordinates": {
        "latitude": -33.130001,
        "longitude": 148.169998
      },
      "locationNames": [
        "Parkes, NSW"
      ],
      "relatedLocations": null,
      "geoNodeType": "CITY"
    },
    {
      "type": "CITY",
      "geoNodeId": 1061751,
      "name": "Park Falls,Wi",
      "iataCode": "PKF",
      "countryCode": "US",
      "countryName": "United States",
      "cityName": "Park Falls,Wi",
      "coordinates": {
        "latitude": 45.9147,
        "longitude": -90.4502
      },
      "locationNames": [
        "Park Falls,Wi"
      ],
      "relatedLocations": null,
      "geoNodeType": "CITY"
    },
    {
      "type": "CITY",
      "geoNodeId": 1061753,
      "name": "Park Rapids,Mn",
      "iataCode": "PKD",
      "countryCode": "US",
      "countryName": "United States",
      "cityName": "Park Rapids,Mn",
      "coordinates": {
        "latitude": 46.9218,
        "longitude": -95.0405
      },
      "locationNames": [
        "Park Rapids,Mn"
      ],
      "relatedLocations": null,
      "geoNodeType": "CITY"
    },
    {
      "type": "CITY",
      "geoNodeId": 1076862,
      "name": "Parks",
      "iataCode": "KPK",
      "countryCode": "US",
      "countryName": "United States",
      "cityName": "Parks",
      "coordinates": {
        "latitude": 57.416667,
        "longitude": -155.9
      },
      "locationNames": [
        "Parks"
      ],
      "relatedLocations": null,
      "geoNodeType": "CITY"
    },
    {
      "type": "CITY",
      "geoNodeId": 1077982,
      "name": "Parnaiba",
      "iataCode": "PHB",
      "countryCode": "BR",
      "countryName": "Brazil",
      "cityName": "Parnaiba",
      "coordinates": {
        "latitude": -2.9,
        "longitude": -41.766667
      },
      "locationNames": [
        "Parnaiba"
      ],
      "relatedLocations": null,
      "geoNodeType": "CITY"
    },
    {
      "type": "CITY",
      "geoNodeId": 1077950,
      "name": "Parndana",
      "iataCode": "PDN",
      "countryCode": "AU",
      "countryName": "Australia",
      "cityName": "Parndana",
      "coordinates": {
        "latitude": -35.8,
        "longitude": 137.216667
      },
      "locationNames": [
        "Parndana"
      ],
      "relatedLocations": null,
      "geoNodeType": "CITY"
    },
    {
      "type": "CITY",
      "geoNodeId": 7748,
      "name": "Parnu",
      "iataCode": "EPU",
      "countryCode": "EE",
      "countryName": "Estonia",
      "cityName": "Parnu",
      "coordinates": {
        "latitude": 58.398369,
        "longitude": 24.50078
      },
      "locationNames": [
        "Parnu"
      ],
      "relatedLocations": null,
      "geoNodeType": "CITY"
    },
    {
      "type": "CITY",
      "geoNodeId": 1077919,
      "name": "Paro",
      "iataCode": "PBH",
      "countryCode": "BT",
      "countryName": "Bhutan",
      "cityName": "Paro",
      "coordinates": {
        "latitude": 27.433333,
        "longitude": 89.416667
      },
      "locationNames": [
        "Paro"
      ],
      "relatedLocations": null,
      "geoNodeType": "CITY"
    },
    {
      "type": "CITY",
      "geoNodeId": 3044,
      "name": "Paros",
      "iataCode": "PAS",
      "countryCode": "GR",
      "countryName": "Greece",
      "cityName": "Paros",
      "coordinates": {
        "latitude": 37.080001,
        "longitude": 25.149999
      },
      "locationNames": [
        "Paros"
      ],
      "relatedLocations": null,
      "geoNodeType": "CITY"
    },
    {
      "type": "CITY",
      "geoNodeId": 1006313,
      "name": "Parry Sound",
      "iataCode": "YPD",
      "countryCode": "CA",
      "countryName": "Canada",
      "cityName": "Parry Sound",
      "coordinates": {
        "latitude": 45.343527,
        "longitude": -80.036669
      },
      "locationNames": [
        "Parry Sound"
      ],
      "relatedLocations": null,
      "geoNodeType": "CITY"
    },
    {
      "type": "CITY",
      "geoNodeId": 1077969,
      "name": "Parsabad",
      "iataCode": "PFQ",
      "countryCode": "IR",
      "countryName": "Iran",
      "cityName": "Parsabad",
      "coordinates": {
        "latitude": 39.616667,
        "longitude": 47.857778
      },
      "locationNames": [
        "Parsabad"
      ],
      "relatedLocations": null,
      "geoNodeType": "CITY"
    },
    {
      "type": "CITY",
      "geoNodeId": 1078072,
      "name": "Paruima",
      "iataCode": "PRR",
      "countryCode": "GY",
      "countryName": "Guyana",
      "cityName": "Paruima",
      "coordinates": {
        "latitude": 5.816667,
        "longitude": -61.016667
      },
      "locationNames": [
        "Paruima"
      ],
      "relatedLocations": null,
      "geoNodeType": "CITY"
    },
    {
      "type": "AIRPORT",
      "geoNodeId": 1453,
      "name": "Paradise Island",
      "iataCode": "PID",
      "countryCode": "BS",
      "countryName": "Bahamas",
      "cityName": "Nassau",
      "coordinates": {
        "latitude": 25.083333,
        "longitude": -77.3
      },
      "locationNames": [
        "Paradise Island"
      ],
      "relatedLocations": null,
      "geoNodeType": "AIRPORT"
    },
    {
      "type": "AIRPORT",
      "geoNodeId": 1084925,
      "name": "Parchim",
      "iataCode": "SZW",
      "countryCode": "DE",
      "countryName": "Germany",
      "cityName": "Schwerin",
      "coordinates": {
        "latitude": 53.433333,
        "longitude": 11.783333
      },
      "locationNames": [
        "Parchim"
      ],
      "relatedLocations": null,
      "geoNodeType": "AIRPORT"
    },
    {
      "type": "AIRPORT",
      "geoNodeId": 1085528,
      "name": "Parker Cnty",
      "iataCode": "WEA",
      "countryCode": "US",
      "countryName": "United States",
      "cityName": "Weatherford",
      "coordinates": {
        "latitude": 32.75,
        "longitude": -97.783333
      },
      "locationNames": [
        "Parker Cnty"
      ],
      "relatedLocations": null,
      "geoNodeType": "AIRPORT"
    },
    {
      "type": "AIRPORT",
      "geoNodeId": 1081885,
      "name": "Park Township",
      "iataCode": "HLM",
      "countryCode": "US",
      "countryName": "United States",
      "cityName": "Holland",
      "coordinates": {
        "latitude": 42.783333,
        "longitude": -86.116667
      },
      "locationNames": [
        "Park Township"
      ],
      "relatedLocations": null,
      "geoNodeType": "AIRPORT"
    },
    {
      "type": "AIRPORT",
      "geoNodeId": 1082877,
      "name": "Parlin Field",
      "iataCode": "NWH",
      "countryCode": "US",
      "countryName": "United States",
      "cityName": "Newport",
      "coordinates": {
        "latitude": 43.333333,
        "longitude": -72.166667
      },
      "locationNames": [
        "Parlin Field"
      ],
      "relatedLocations": null,
      "geoNodeType": "AIRPORT"
    }
  ]
}
