{
  "error": null,
  "messages": [],
  "extensions": [
    {
      "name": "MIDDLE_OFFICE_ID",
      "value": "2"
    }
  ],
  "flowErrors": null,
  "preferences": {
    "currency": "EUR",
    "locale": "es_ES",
    "mkportal": "OpodoMobileApp-OPDE",
    "webSite": "ES"
  },
  "shoppingCart": {
    "price": {
      "feeInfo": {
        "searchFee": {
          "tax": 3.76,
          "discount": 83
        },
        "paymentFee": {
          "tax": 0,
          "discount": 0
        }
      },
      "markup": 5
    },
    "itineraryShoppingItem": {
      "itinerary": {
        "legend": {
          "carriers": [
            {
              "code": "IB",
              "name": "Iberia",
              "id": 0
            }
          ],
          "locations": [
            {
              "geoNodeId": 157,
              "cityName": "Barcelona",
              "name": "El Prat",
              "type": "Airport",
              "iataCode": "BCN",
              "cityIataCode": "BCN",
              "countryCode": "ES",
              "countryName": "España",
              "timezone": "Europe/Madrid"
            },
            {
              "geoNodeId": 1147,
              "cityName": "Madrid",
              "name": "Adolfo Suárez Madrid - Barajas",
              "type": "Airport",
              "iataCode": "MAD",
              "cityIataCode": "MAD",
              "countryCode": "ES",
              "countryName": "España",
              "timezone": "Europe/Madrid"
            }
          ],
          "sectionResults": [
            {
              "section": {
                "technicalStops": [],
                "baggageAllowanceType": "NP",
                "departureDate": 1476979200056,
                "arrivalDate": 1476984300056,
                "cabinClass": "ECONOMIC_DISCOUNTED",
                "fareInfoPassengers": [
                  0
                ],
                "id": "2705",
                "from": 157,
                "departureTerminal": "1",
                "to": 1147,
                "arrivalTerminal": "4",
                "carrier": 0,
                "operatingCarrier": null,
                "vehicleModel": "321",
                "baggageAllowanceQuantity": 0,
                "duration": 85,
                "lcc": false
              },
              "id": 0
            }
          ],
          "segmentResults": [
            {
              "segment": {
                "sections": [
                  0
                ],
                "carrier": 0,
                "cabinClass": null,
                "duration": 85,
                "seats": null,
                "timesUndefined": null
              },
              "id": 0
            }
          ],
          "fareInfoPaxResults": [
            {
              "fareInfoPax": {
                "bookingClass": "F",
                "paxType": "ADULT",
                "fareBasisId": "FDSK4K",
                "resident": false,
                "fareType": "NEGOTIATED",
                "agreementsType": "ETICKET",
                "fareRules": null
              },
              "id": 0
            }
          ],
          "collectionEstimationFees": [],
          "collectionMethods": [],
          "baggageEstimationFees": [],
          "itineraries": {
            "crossFarings": [],
            "hubs": [],
            "owasrts": [],
            "hidings": [],
            "simples": [
              {
                "adultFares": {
                  "fare": 93,
                  "tax": 21.26
                },
                "childFares": null,
                "infantFares": null,
                "id": 0,
                "provider": "1A",
                "sections": [
                  0
                ],
                "price": 114.26,
                "providerPrice": 114.26,
                "providerCurrency": "EUR",
                "flightType": "REG",
                "corporateCodes": [],
                "providerItineraryId": 257586559
              }
            ],
            "crossFaringMultiDestinations": [],
            "smartHubs": []
          },
          "residentsValidation": null
        },
        "fareComponents": [],
        "segments": [
          0
        ],
        "fareDetail": {
          "adultFares": {
            "fare": 93,
            "tax": 21.26
          },
          "childFares": null,
          "infantFares": null,
          "fare": null,
          "tax": null
        },
        "itinerary": 0,
        "itinerarySegments": null
      },
      "price": 114.26,
      "baggageFee": 0,
      "lastTicketingDate": "2016-09-24T23:59:00",
      "passengersConflictDetails": [],
      "pnrs": [
        "4SZEDZ"
      ],
      "seatPreferencesDescriptorSet": null,
      "seatPreferencesSelectionSet": null
    },
    "otherProductsShoppingItems": {
      "insuranceShoppingItems": [
        {
          "insurance": {
            "conditionsUrls": [
              {
                "type": "BASIC",
                "url": "http://www.taeds.com/aonseguros/extractoPDF.asp?POLICY_NUMBER=CNXAST152&LANGUAGE=ES&BRAND=ED&COUNTRY=ES&ID_CM=1604"
              },
              {
                "type": "EXTENDED",
                "url": "http://www.taeds.com/aonseguros/condicionPDF.asp?POLICY_NUMBER=CNXAST152&LANGUAGE=ES&BRAND=ED&COUNTRY=ES&ID_CM=1604"
              }
            ],
            "policy": "CNXAST152",
            "provider": "AON",
            "title": "Cancellation and Assistance Insurance",
            "description": "{b A CANCELLATION insurance that covers ALL CAUSES.}\n We will refund the ticket in case of cancellation for justified reasons.\n Compensation for flight delays.\n Our insurance cover will apply in case of incidents with the airline.\n If you miss the flight we will put you on another flight within 48 hours.\n {b We also offer ASSISTANCE - REPATRIATION insurance.}\n We will indemnify you for late, lost or stolen luggage.\n We repatriate you to your origin in case of accident or serious illness.\n Up to 10.500€ of medical coverage abroad.\n Compensation of up to 6.000€ for liability.\n Includes legal expenses insurance.\n",
            "subtitle": "",
            "type": "CA",
            "conditionAcceptance": "By selecting, I accept the <b>Conditions</b>",
            "documentLink": "<b>Protecting yourself with eDreams Insurance</b>\n\nFor more information about the <b>Cancellation and Assistance</b> policy, please see your full <a>Policy Document</a>\n",
            "textConditions": "It’s very important to us that you read those documents so that you are clear about what the policy includes.\n\n<b>What is covered under the Cancellation and Assistance Cover.</b>\n\nThis cover provides all of the security and safeguards that are provided by our cancellation insurance, but in addition ensures that you will be compensated if:\n\n- you have an accident or serious illness. The cover also includes repatriation to your country of residence.\n- medical expenses that you might incur in your trip, up to a maximum of €10,500 per passenger.\n- your luggage arrives late at its destination.\n\n<b>What Insurance do we offer you?</b>\n\nWe want to make sure that you are protected before you go, and whilst you are away, so that you can enjoy yourself.\n\nYou can choose either Cancellation or Cancellation and Assistance Cover. Both of these products protect you against the worry of needing to cancel your trip due to a number of covered reasons. Cancellation and Assistance also includes a number of other, great benefits that are designed to help you whilst you are away, including medical assistance and baggage cover. Terms and Conditions apply.\n\n<b>Who is Covered?</b>\n\nWe want to make sure that no-one who is travelling is missing cover, so we make sure that when you add the cover to your basket, everyone who is travelling on your trip can be certain that they are covered. Please note that it applies only to residents of the European Economic Area (EEA). That means that it is not available to residents from countries outside of the EEA, such as Swiss residents.\n\n<b>Who actually provides the cover?</b>\n\nThe cover is provided by Europ Assistance, who are one of the largest insurers in the world and who specialise in covering customers against the risks associated with travel. The product is sold through us under our Group policy; however it is Europ Assistance who will help you in case of your needing to claim.\n\n<b>Claiming</b>\n\nWhen you buy a policy from us, we want to make it as easy as possible for you to claim, whilst making sure that you provide Europ Assistance with all of the information that they need in order to make sure that a claim is valid.\n\nIf you have Cancellation and Assistance Cover, and need emergency assistance abroad, we’ll provide you with a 24 hour assistance telephone number on which we can help you.\n\n If you need to claim, you are able to submit a claim via the Europ Assistance (www.earefund.com) website for your convenience, and we will also provide you with a telephone number so that you can contact someone if you need some help.\n\n<b>What should I take with me if I have Insurance?</b>\n\nWe recommend that you take your insurance Policy Wording with you. That includes details of how to call Europ Assistance if you need them, and other information about what you might need to keep if you need to claim later.\n",
            "totalPrice": "<b>Total Price of the insurance</b>\n\nThis varies according to a number of things, including the price of your ticket and the number of people travelling. Further information is available on how we calculate your price. Click <a>here</a> to see more information.\n",
            "totalPriceDetail": "The Total Price includes both an Insurance Premium for the insurance coverage provided to you by Europ Assistance Insurance Premium Tax and an Insurance Mediation Fee for the intermediation service offered to you by eDreams. These are calculated as follows:\n\nFor a ticket price up to 150 euros per person (adults and children), including all applicable airport taxes, airline fuel surcharges and other taxes levied on your ticket, but excluding charges for credit cards, then the Insurance portion of the Total Price will be as follows:\n\n- 1 euro and 98 cents which is the Premium for the Cancellation and Assistance insurance.\n- To which 6.15% of the above figure is added as Insurance Premium Tax.\n- In addition you will pay an Insurance Mediation Fee for the purchase of your insurance. This Fee is equal to the difference between the Total Price you pay for your insurance minus your Insurance Premium and Insurance Premium Tax.\n\nFor a ticket price with a value of between 150 euros and 299 euros per person (adults and children) including all applicable airport taxes, airline fuel surcharges and other taxes levied on your ticket, but excluding charges for credit cards, then the Insurance portion of the Total Price will be as follows:\n\n- 2 euros and 59 cents which is the Premium for the Cancellation and Assistance insurance.\n- To which 6.15% of the above figure is added as Insurance Premium Tax.\n\nIn addition you will pay an Insurance Mediation Fee for the purchase of your insurance. This Fee is equal to the difference between the Total Price you pay for your insurance minus your Insurance Premium and Insurance Premium tax.\n\nFor a ticket price with a value of between 300 euros and 449 euros per person (adults and children) including all applicable airport taxes, airline fuel surcharges and other taxes levied on your ticket, but excluding charges for credit cards, then the Insurance portion of the Total Price will be as follows:\n\n- 3 euros and 75 cents which is the Premium for the Cancellation and Assistance insurance.\n- To which 6.15% of the above figure is added as Insurance Premium Tax.\n\nIn addition you will pay an Insurance Mediation Fee for the purchase of your insurance. This Fee is equal to the difference between the Total Price you pay for your insurance minus your insurance premium and Insurance Premium Tax.\n\n For a ticket price with a value of between 450 euros and 599 euros per person (adults and children) including all applicable airport taxes, airline fuel surcharges and other taxes levied on your ticket, but excluding charges for credit cards, then the Insurance portion of the Total Price will be as follows:\n\n- 4 euros and 93 cents which is the Premium for the Cancellation and Assistance insurance.\n- To which 6.15% of the above figure is added as Insurance Premium Tax.\n\nIn addition you will pay an Insurance Mediation Fee for the purchase of your insurance. This Fee is equal to the difference between the Total Price you pay for your insurance minus your Insurance Premium and Insurance Premium Tax.\n\nFor a ticket price with a cost of between 600 euros and 799 euros per person (adults and children), including all applicable airport taxes, airline fuel surcharges and other taxes levied on your ticket, but excluding charges for credit cards, then the Insurance portion of the Total Price will be as follows:\n\n- 6 euros and 27 cents which is the Premium for the Cancellation and Assistance insurance.\n- To which 6.15% of the above figure is added as Insurance Premium Tax.\n\nIn addition you will pay an Insurance Mediation Fee for the purchase of your insurance. This Fee is equal to the difference between the Total Price you pay for your insurance minus your Insurance Premium and Insurance Premium Tax.\n\nFor a ticket price with a cost of between 800 euros and 999 euros per person (adults and children), including all applicable airport taxes, airline fuel surcharges and other taxes levied on your ticket, but excluding charges for credit cards, then the Insurance portion of the Total Price will be as follows:\n\n- 7 euros and 74 cents which is the Premium for the Cancellation and Assistance insurance.\n- To which 6.15% of the above figure is added as Insurance Premium Tax.\n\nIn addition you will pay an Insurance Mediation Fee for the purchase of your insurance. This Fee is equal to the difference between the Total Price you pay for your insurance minus your Insurance Premium and Insurance Premium Tax.\n\nFor a ticket price with a cost of between 1,000 euros and 1,199 euros per person (adults and children), including all applicable airport taxes, airline fuel surcharges and other taxes levied on your ticket, but excluding charges for credit cards, then the Insurance portion of the Total Price will be as follows:\n\n- 9 euros and 39 cents which is the Premium for the Cancellation and Assistance insurance\n- To which 6.15% of the above figure is added as Insurance Premium Tax.\n\nIn addition you will pay an Insurance Mediation Fee for the purchase of your insurance. This Fee is equal to the difference between the Total Price you pay for your insurance minus your Insurance Premium and Insurance Premium Tax.\n\nFor a ticket price with a cost of between 1200 euros and 1399 euros per person (adults and children), including all applicable airport taxes, airline fuel surcharges and other taxes levied on your ticket, but excluding charges for credit cards, then the Insurance portion of the Total Price will be as follows:\n\n- 10 euros and 95 cents which is the Premium for the Cancellation and Assistance Insurance.\n- To which 6.15% of the above figure is added as Insurance Premium Tax.\n\nIn addition you will pay an Insurance Mediation Fee for the purchase of your insurance. This Fee is equal to the difference between the Total Price you pay for your insurance minus your Insurance Premium and Insurance Premium Tax.\n\nFor a ticket price with a cost of between 1400 euros and 2999 euros per person (adults and children), including all applicable airport taxes, airline fuel surcharges and other taxes levied on your ticket, but excluding charges for credit cards, then the Insurance portion of the Total Price will be as follows:\n\n - 17 euros and 97 cents which is the Premium for the Cancellation and Assistance insurance.\n- To which 6.15% of the above figure is added as Insurance Premium Tax.\n\nIn addition you will pay an Insurance Mediation Fee for the purchase of your insurance. This Fee is equal to the difference between the Total Price you pay for your insurance, minus your Insurance Premium and Insurance Premium Tax.\n\nFor a ticket price with a cost of between 3000 euros and 5999 euros per person (adults and children), including all applicable airport taxes, airline fuel surcharges and other taxes levied on your ticket, but excluding charges for credit cards, then the Insurance portion of the Total Price will be as follows:\n\n- 35 euros and 91 cents which is the Premium for the Cancellation and Assistance insurance.\n- To which 6.15% of the above figure is added as Insurance Premium Tax.\n\nIn addition you will pay an Insurance Mediation Fee for the purchase of your insurance. This Fee is equal to the difference between the Total Price you pay for your insurance minus your Insurance Premium and Insurance Premium Tax.\n\nFor a ticket price with a cost of between 6,000 euros and 9,999 euros per person (adults and children), including all applicable airport taxes, airline fuel surcharges and other taxes levied on your ticket, but excluding charges for credit cards, then the Insurance portion of the Total Price will be as follows:\n\n- 63 euros and 21 cents which is the Premium for the Cancellation and Assistance insurance.\n- To which 6.15% of the above figure is added as Insurance Premium Tax\n\nIn addition you will pay an Insurance Mediation Fee for the purchase of your insurance. This fee is equal to the difference between the Total Price you pay for your insurance minus your Insurance Premium and Insurance Premium Tax."
          },
          "totalPrice": 2.1,
          "selectable": true,
          "id": "I745",
          "providerPrice": 2.1
        }
      ],
      "additionalProductShoppingItems": []
    },
    "requiredTravellerInformation": [],
    "requiredBuyerInformation": null,
    "requiredFoidInformation": [],
    "buyer": {
      "phoneNumber": {
        "countryCode": "ES",
        "number": "600000000"
      },
      "alternativePhoneNumber": null,
      "name": "Ricardo",
      "lastNames": "Arcega",
      "mail": "mariadelcarmen.pozo@odigeo.com",
      "buyerIdentificationType": "NIE",
      "identification": "Y8078941K",
      "dateOfBirth": null,
      "cpf": null,
      "address": "Calle de la calle 34",
      "cityName": "Madrid",
      "neighborhood": null,
      "stateName": "stateName",
      "zipCode": "28044",
      "country": "ES"
    },
    "travellers": [
      {
        "travellerType": "ADULT",
        "title": "MR",
        "name": "Ricardo",
        "firstLastName": "Arcega",
        "secondLastName": "SecondLastName",
        "travellerGender": "MALE",
        "dateOfBirth": 397605600000,
        "nationalityCountryCode": null,
        "countryCodeOfResidence": null,
        "identification": null,
        "identificationType": null,
        "identificationExpirationDate": null,
        "identificationIssueCountryCode": null,
        "localityCodeOfResidence": null,
        "baggageSelections": [
          {
            "baggageDescriptor": {
              "pieces": 0,
              "kilos": null
            },
            "baggageDescriptorIncludedInPrice": {
              "pieces": 0,
              "kilos": null
            },
            "baggageApplicationLevel": "SEGMENT",
            "segmentTypeIndex": "FIRST",
            "allowanceChanged": false,
            "price": 0
          }
        ],
        "middleName": "",
        "meal": "STANDARD",
        "numPassenger": 1,
        "frequentFlyerNumbers": []
      }
    ],
    "collectionOptions": [
      {
        "method": {
          "creditCardType": {
            "code": "E1",
            "name": "Visa Entropay"
          },
          "type": "CREDITCARD"
        },
        "installments": null,
        "fee": -8.76,
        "bankTransferText": null
      },
      {
        "method": {
          "creditCardType": {
            "code": "VI",
            "name": "Visa Crédito"
          },
          "type": "CREDITCARD"
        },
        "installments": null,
        "fee": 0,
        "bankTransferText": null
      },
      {
        "method": {
          "creditCardType": {
            "code": "MD",
            "name": "Master Card Débito"
          },
          "type": "CREDITCARD"
        },
        "installments": null,
        "fee": 2.28,
        "bankTransferText": null
      },
      {
        "method": {
          "creditCardType": {
            "code": "AX",
            "name": "American Express"
          },
          "type": "CREDITCARD"
        },
        "installments": null,
        "fee": 2.28,
        "bankTransferText": null
      },
      {
        "method": {
          "creditCardType": {
            "code": "CA",
            "name": "Master Card Crédito"
          },
          "type": "CREDITCARD"
        },
        "installments": null,
        "fee": 2.28,
        "bankTransferText": null
      },
      {
        "method": {
          "creditCardType": {
            "code": "VE",
            "name": "Visa Electrón"
          },
          "type": "CREDITCARD"
        },
        "installments": null,
        "fee": 2.28,
        "bankTransferText": null
      },
      {
        "method": {
          "creditCardType": {
            "code": "VD",
            "name": "Visa Débito"
          },
          "type": "CREDITCARD"
        },
        "installments": null,
        "fee": 2.28,
        "bankTransferText": null
      },
      {
        "method": {
          "creditCardType": {
            "code": "VB",
            "name": "Viabuy MasterCard Prepago"
          },
          "type": "CREDITCARD"
        },
        "installments": null,
        "fee": 2.28,
        "bankTransferText": null
      },
      {
        "method": {
          "creditCardType": {
            "code": "EY",
            "name": "Tarjeta Prepago eDreams"
          },
          "type": "CREDITCARD"
        },
        "installments": null,
        "fee": 2.28,
        "bankTransferText": null
      },
      {
        "method": {
          "creditCardType": {
            "code": "DC",
            "name": "Diners Club"
          },
          "type": "CREDITCARD"
        },
        "installments": null,
        "fee": 2.28,
        "bankTransferText": null
      }
    ],
    "fraudResultContainer": null,
    "foids": [],
    "promotionalCodes": [],
    "bookingId": 431751952,
    "totalPrice": 42.12,
    "baggageTotalFee": 0,
    "collectionTotalFee": 0,
    "promotionalCampaignGroup": null,
    "cyberSourceMerchantId": "edreams"
  },
  "sortCriteria": null,
  "pricingBreakdown": {
    "pricingBreakdownSteps": [
      {
        "step": "DEFAULT",
        "totalPrice": 42.12,
        "pricingBreakdownItems": [
          {
            "priceItemType": "ADULTS_PRICE",
            "priceItemAmount": 36.26
          },
          {
            "priceItemType": "INSURANCE_PRICE",
            "priceItemAmount": 2.1
          },
          {
            "priceItemType": "SERVICE_CHARGES",
            "priceItemAmount": 3.76
          }
        ]
      }
    ]
  },
  "residentValidationRetry": null,
  "userCommentRequired": true
}
