{
  "error": null,
  "messages": [],
  "extensions": [],
  "flowErrors": null,
  "bookingDetail": null,
  "pricingBreakdown": {
    "pricingBreakdownSteps": [
      {
        "step": "DEFAULT",
        "totalPrice": 1654.02,
        "pricingBreakdownItems": [
          {
            "priceItemType": "ADULTS_PRICE",
            "priceItemAmount": 1505.02
          },
          {
            "priceItemType": "SERVICE_CHARGES",
            "priceItemAmount": 149.00
          }
        ]
      }
    ]
  },
  "collectionOptions": [
    {
      "method": {
        "creditCardType": {
          "code": "MD",
          "name": "Mastercard kontokort"
        },
        "type": "CREDITCARD"
      },
      "installments": null,
      "fee": 0.00,
      "bankTransferText": null
    },
    {
      "method": {
        "type": "TRUSTLY"
      },
      "installments": null,
      "fee": 0.00,
      "bankTransferText": null
    },
    {
      "method": {
        "creditCardType": {
          "code": "CA",
          "name": "Mastercard kreditkort"
        },
        "type": "CREDITCARD"
      },
      "installments": null,
      "fee": 0.00,
      "bankTransferText": null
    },
    {
      "method": {
        "creditCardType": {
          "code": "VD",
          "name": "Visa kontokort"
        },
        "type": "CREDITCARD"
      },
      "installments": null,
      "fee": 0.00,
      "bankTransferText": null
    },
    {
      "method": {
        "creditCardType": {
          "code": "VE",
          "name": "Visa Electron"
        },
        "type": "CREDITCARD"
      },
      "installments": null,
      "fee": 0.00,
      "bankTransferText": null
    },
    {
      "method": {
        "creditCardType": {
          "code": "MA",
          "name": "Maestro"
        },
        "type": "CREDITCARD"
      },
      "installments": null,
      "fee": 0.00,
      "bankTransferText": null
    },
    {
      "method": {
        "creditCardType": {
          "code": "VV",
          "name": "Visa Vueling"
        },
        "type": "CREDITCARD"
      },
      "installments": null,
      "fee": 0.00,
      "bankTransferText": null
    },
    {
      "method": {
        "creditCardType": {
          "code": "VI",
          "name": "Visa kreditkort"
        },
        "type": "CREDITCARD"
      },
      "installments": null,
      "fee": 0.00,
      "bankTransferText": null
    },
    {
      "method": {
        "type": "KLARNA"
      },
      "installments": null,
      "fee": 0.00,
      "bankTransferText": null
    }
  ],
  "bankTransferResponse": null,
  "processed": false,
  "status": "USER_INTERACTION_NEEDED",
  "marketingRevenue": [],
  "userInteractionNeededResponse": {
    "redirectUrl": "https://live.adyen.com/hpp/details.shtml",
    "formSendType": "POST",
    "htmlCode": null,
    "parameters": {
      "resURL": "http://odigeo.com",
      "sessionValidity": "2017-07-06T17:35:17+02:00",
      "paymentAmount": "165402",
      "merchantSig": "QW3aSTdvAK0pHd2EYQQ8vIrOq05VNXa6bMcp8/N7lm0=",
      "merchantAccount": "ADYENOPSL_TLSEK",
      "countryCode": "SE",
      "skinCode": "NNsR4c1O",
      "shopperLocale": "sv_SE",
      "captureDelayHours": "0",
      "merchantReference": "2877815690",
      "currencyCode": "SEK",
      "brandCode": "trustly",
      "shopperStatement": "TravelLink-2877815690"
    }
  },
  "bankTransferData": null
}