{
  "error": null,
  "messages": [],
  "extensions": [
    {
      "name": "MIDDLE_OFFICE_ID",
      "value": "10"
    }
  ],
  "flowErrors": null,
  "bookingDetail": {
    "bookingBasicInfo": {
      "id": 432656245,
      "website": {
        "code": "UK",
        "brand": "ED"
      },
      "clientBookingReferenceId": "432656245",
      "creationDate": null,
      "requestDate": null,
      "lastUpdate": null
    },
    "locale": "en_GB",
    "price": {
      "amount": 74.31,
      "currency": "GBP"
    },
    "buyer": {
      "phoneNumber": {
        "countryCode": "ES",
        "number": "664546434"
      },
      "alternativePhoneNumber": null,
      "name": "TEST",
      "lastNames": "USER",
      "mail": "test@automation.com",
      "buyerIdentificationType": null,
      "identification": null,
      "cpf": null,
      "address": "fake",
      "cityName": "bla bla",
      "stateName": null,
      "zipCode": "90018",
      "country": "ES"
    },
    "travellers": [
      {
        "travellerType": "ADULT",
        "title": "MR",
        "name": "Test",
        "firstLastName": "User",
        "secondLastName": null,
        "travellerGender": null,
        "dateOfBirth": null,
        "nationalityCountryCode": null,
        "countryCodeOfResidence": null,
        "identification": null,
        "identificationType": null,
        "identificationExpirationDate": null,
        "identificationIssueCountryCode": null,
        "localityCodeOfResidence": null,
        "baggageSelections": [
          {
            "segmentIndex": 0,
            "pieces": 0,
            "kilos": 0
          }
        ],
        "middleName": "",
        "meal": "STANDARD",
        "numPassenger": 1,
        "frequentFlyerCards": []
      }
    ],
    "itineraryBookings": {
      "bookings": [
        {
          "id": 257872464,
          "bookingStatus": "REJECTED",
          "resident": false,
          "pnr": "PNR TEST",
          "segments": [
            0
          ],
          "baggageProviderPrice": 0,
          "numAdults": 1,
          "numChildren": 0,
          "numInfants": 0,
          "residentValidations": []
        }
      ],
      "legend": {
        "carriers": [
          {
            "id": 0,
            "code": "VY",
            "name": "Vueling"
          }
        ],
        "locations": [
          {
            "geoNodeId": 157,
            "cityName": "Barcelona",
            "name": "El Prat",
            "type": "Airport",
            "iataCode": "BCN",
            "cityIataCode": "BCN",
            "countryCode": "ES",
            "countryName": "Spain",
            "timezone": "Europe/Madrid"
          },
          {
            "geoNodeId": 1794,
            "cityName": "Seville",
            "name": "Sevilla",
            "type": "Airport",
            "iataCode": "SVQ",
            "cityIataCode": "SVQ",
            "countryCode": "ES",
            "countryName": "Spain",
            "timezone": "Europe/Madrid"
          }
        ]
      },
      "itinerarySegments": [
        {
          "sections": [
            {
              "section": {
                "technicalStops": [],
                "id": "2212",
                "from": 157,
                "departureDate": 1503731400311,
                "departureTerminal": "1",
                "to": 1794,
                "arrivalDate": 1503737400311,
                "arrivalTerminal": null,
                "carrier": 0,
                "cabinClass": "ECONOMIC_DISCOUNTED",
                "cabinClassCode": "\u0000",
                "fareInfoPassengers": [],
                "operatingCarrier": null,
                "aircraft": null,
                "baggageAllowanceType": "NP",
                "baggageAllowanceQuantity": 0,
                "duration": 100,
                "eventReceived": null,
                "operatingVendor": null,
                "operatingVendorCode": null,
                "operatingVendorLegNumber": null,
                "baggageClaim": null,
                "departureGate": null,
                "updatedDepartureTerminal": null,
                "destinationIataCode": null,
                "destinationAirportName": null,
                "arrivalGate": null,
                "updatedArrivalTerminal": null,
                "flightStatus": null,
                "departureTime": null,
                "departureTimeType": null,
                "departureTimeDelay": null,
                "arrivalTime": null,
                "arrivalTimeType": null,
                "arrivalTimeDelay": null
              },
              "id": 0,
              "sectionType": "ARRIVAL",
              "itineraryBookingId": 257872464
            }
          ],
          "duration": 220
        }
      ]
    },
    "insuranceBookings": {
      "bookings": []
    },
    "bookingStatus": "REJECTED",
    "collectionState": "NOT_COLLECTED",
    "sod": false,
    "travelCompanionNotifications": false,
    "enrichedBooking": false
  },
  "pricingBreakdown": null,
  "collectionOptions": [],
  "bankTransferResponse": null,
  "processed": true,
  "status": "BOOKING_CONFIRMED",
  "marketingRevenue": [
    {
      "type": "ABSOLUTE",
      "value": 36.92
    },
    {
      "type": "AVERAGE",
      "value": 68.37
    },
    {
      "type": "INDEX",
      "value": 54
    },
    {
      "type": "SEM",
      "value": 36.92
    }
  ],
  "userInteractionNeededResponse": null,
  "bankTransferData": []
}