{
  "error": null,
  "messages": [
  ],
  "extensions": [
    {
      "name": "MIDDLE_OFFICE_ID",
      "value": "10"
    }
  ],
  "flowErrors": null,
  "preferences": {
    "currency": "EUR",
    "locale": "en",
    "mkportal": "opodo-mobile",
    "webSite": "OPGB"
  },
  "shoppingCart": {
    "price": {
      "feeInfo": {
        "searchFee": {
          "tax": 17.00,
          "discount": 33.00
        },
        "paymentFee": {
          "tax": 0.00,
          "discount": 0.00
        }
      },
      "markup": 0.00
    },
    "itineraryShoppingItem": {
      "itinerary": {
        "legend": {
          "carriers": [
            {
              "code": "OB",
              "name": "Boliviana De Aviacion",
              "id": 0
            }
          ],
          "locations": [
            {
              "geoNodeId": 599,
              "cityName": "Buenos Aires",
              "name": "Pistarini",
              "type": "Airport",
              "iataCode": "EZE",
              "cityIataCode": "BUE",
              "countryCode": "AR",
              "countryName": "Argentina",
              "timezone": "America/Buenos_Aires"
            },
            {
              "geoNodeId": 2035,
              "cityName": "Santa Cruz",
              "name": "Viru Viru International",
              "type": "Airport",
              "iataCode": "VVI",
              "cityIataCode": "VVI",
              "countryCode": "BO",
              "countryName": "Bolivia",
              "timezone": "America/La_Paz"
            },
            {
              "geoNodeId": 1205,
              "cityName": "Miami",
              "name": "Miami International Airport",
              "type": "Airport",
              "iataCode": "MIA",
              "cityIataCode": "MIA",
              "countryCode": "US",
              "countryName": "United States",
              "timezone": "America/New_York"
            }
          ],
          "sectionResults": [
            {
              "section": {
                "technicalStops": [
                ],
                "baggageAllowanceType": "NP",
                "departureDate": 1505405100668,
                "arrivalDate": 1505411700668,
                "cabinClass": "ECONOMIC_DISCOUNTED",
                "fareInfoPassengers": [
                  0
                ],
                "id": "709",
                "from": 599,
                "departureTerminal": "A",
                "to": 2035,
                "arrivalTerminal": null,
                "carrier": 0,
                "operatingCarrier": null,
                "vehicleModel": "767",
                "baggageAllowanceQuantity": 2,
                "duration": 170,
                "lcc": false
              },
              "id": 0
            },
            {
              "section": {
                "technicalStops": [
                ],
                "baggageAllowanceType": "NP",
                "departureDate": 1505429100668,
                "arrivalDate": 1505454300668,
                "cabinClass": "ECONOMIC_DISCOUNTED",
                "fareInfoPassengers": [
                  0
                ],
                "id": "766",
                "from": 2035,
                "departureTerminal": null,
                "to": 1205,
                "arrivalTerminal": "F",
                "carrier": 0,
                "operatingCarrier": null,
                "vehicleModel": "767",
                "baggageAllowanceQuantity": 2,
                "duration": 420,
                "lcc": false
              },
              "id": 1
            }
          ],
          "segmentResults": [
            {
              "segment": {
                "sections": [
                  0,
                  1
                ],
                "carrier": 0,
                "cabinClass": null,
                "duration": 880,
                "seats": 9,
                "timesUndefined": null
              },
              "id": 0
            }
          ],
          "fareInfoPaxResults": [
            {
              "fareInfoPax": {
                "bookingClass": "S",
                "paxType": "ADULT",
                "fareBasisId": "SEEOB",
                "resident": false,
                "fareType": "PUBLIC",
                "agreementsType": "ETICKET",
                "fareRules": null
              },
              "id": 0
            }
          ],
          "collectionEstimationFees": [
          ],
          "collectionMethods": [
          ],
          "baggageEstimationFees": [
          ],
          "itineraries": {
            "crossFarings": [
            ],
            "hubs": [
            ],
            "owasrts": [
            ],
            "hidings": [
            ],
            "simples": [
              {
                "adultFares": {
                  "fare": 449.00,
                  "tax": 128.90
                },
                "childFares": null,
                "infantFares": null,
                "id": 0,
                "provider": "1A",
                "sections": [
                  0,
                  1
                ],
                "price": 577.90,
                "providerPrice": 577.90,
                "providerCurrency": "EUR",
                "flightType": "REG",
                "corporateCodes": [
                ],
                "providerItineraryId": 257785921
              }
            ],
            "crossFaringMultiDestinations": [
            ],
            "smartHubs": [
            ]
          },
          "residentsValidation": null
        },
        "fareComponents": [
          {
            "fareRules": [
              "AP.ADVANCE RES/TKT\n \n  RESERVATIONS ARE REQUIRED FOR ALL SECTORS.\n  WHEN RESERVATIONS ARE MADE AT LEAST 30 DAYS BEFORE\n  DEPARTURE TICKETING MUST BE COMPLETED WITHIN 7 DAYS AFTER\n  RESERVATIONS ARE MADE.\n  OR - RESERVATIONS ARE REQUIRED FOR ALL SECTORS.\n       WHEN RESERVATIONS ARE MADE AT LEAST 3 DAYS BEFORE\n       DEPARTURE TICKETING MUST BE COMPLETED WITHIN 48 HOURS\n       AFTER RESERVATIONS ARE MADE OR AT LEAST 48 HOURS\n       BEFORE DEPARTURE WHICHEVER IS EARLIER.\n  OR - RESERVATIONS ARE REQUIRED FOR ALL SECTORS.\n       TICKETING MUST BE COMPLETED WITHIN 6 HOURS AFTER\n       RESERVATIONS ARE MADE OR AT LEAST 3 HOURS BEFORE\n       DEPARTURE WHICHEVER IS EARLIER.\n",
              "PE.PENALTIES\n \n  CHANGES\n \n    ANY TIME\n      CHARGE USD 100.00 FOR NO-SHOW.\n      CHARGE USD 100.00 FOR REISSUE/REVALIDATION.\n         NOTE -\n          CHANGES ON OR BEFORE FLIGHT DEPARTURE DAY\n          DATE/FLIGHT CHANGES PERMITTED ON OR BEFORE FLIGHT\n          A CHANGE FEE OF USD 100.00 EVERY TIME THE TICKET\n          IS\n          MODIFIED.\n          DATE/FLIGHT CHANGES FOR CHILDREN THE\n          CORRESPONDING DISCOUNT WILL APPLY TO THE CHANGE\n          CHARGE OF USD 100.00\n          DATE/FLIGHT CHANGES- IF THE ORIGINAL FARE IS NOT\n          AVAILABLE OR THE CHANGE DOES NOT COMPLY WITH THE\n          ORIGINAL FARE CONDITIONS PASSENGER CAN PURCHASE\n          A SUPERIOR FARE BY PAYING THE DIFFERENCE AND THE\n          CHANGE FEE CHARGE.\n          DATE/FLIGHT CHANGES FOR TICKETS THAT HAVE BEEN\n          PARTIALLY USED- IT WILL BE CHARGED WITH THE\n          DIFFERENCE BETWEEN THE VALUE OF THE NEW TICKET AND\n          THE ORIGINAL TICKET PLUS DE CHANGE FEE CHARGE.\n \n  CANCELLATIONS\n \n    BEFORE DEPARTURE\n      TICKET IS NON-REFUNDABLE.\n         NOTE -\n          WAIVED FOR DEATH OF A PASSENGER AND PASSENGER-S\n          MMEDIATE FAMILY MEMBER /1ST DEGREE RELATIONS\n          ONLY/ OR FOR PASSENGER-S HOSPITAL ADMISSION.\n          --------------------------------------------------\n          WHEN COMBINING FARES THAT HAVE CANCELLATION FEES\n          THE HIGHEST CANCELLATION FEE OF EACH CANCELLED\n          PRICING UNIT APPLIES.\n          WITH THE FOLLOWING EXCEPTION-\n          WHEN COMBINING A REFUNDABLE FARE WITH A\n          NON-REFUNDABLE FARE\n          1- THE AMOUNT PAID ON THE REFUNDABLE FARE\n             COMPONENT IS REFUNDED LESS APPLICABLE PENALTY.\n          2- THE AMOUNT PAID ON THE NON-REFUNDABLE FARE\n             COMPONENT WILL NOT BE REFUNDED.\n \n    AFTER DEPARTURE\n      TICKET IS NON-REFUNDABLE IN CASE OF CANCEL/NO-SHOW.\n         NOTE -\n          WAIVED FOR DEATH OF A PASSENGER AND PASSENGER-S\n          MMEDIATE FAMILY MEMBER /1ST DEGREE RELATIONS\n          ONLY/ OR FOR PASSENGER-S HOSPITAL ADMISSION.\n          --------------------------------------------------\n          WHEN COMBINING FARES THAT HAVE CANCELLATION FEES\n          THE HIGHEST CANCELLATION FEE OF EACH CANCELLED\n          PRICING UNIT APPLIES.\n          WITH THE FOLLOWING EXCEPTION-\n          WHEN COMBINING A REFUNDABLE FARE WITH A\n          NON-REFUNDABLE FARE\n          1- THE AMOUNT PAID ON THE REFUNDABLE FARE\n             COMPONENT IS REFUNDED LESS APPLICABLE PENALTY.\n          2- THE AMOUNT PAID ON THE NON-REFUNDABLE FARE\n             COMPONENT WILL NOT BE REFUNDED.\n"
            ],
            "passengerType": "ADT",
            "origin": "BUE",
            "destination": "MIA"
          }
        ],
        "segments": [
          0
        ],
        "fareDetail": {
          "adultFares": {
            "fare": 449.00,
            "tax": 128.90
          },
          "childFares": null,
          "infantFares": null,
          "fare": null,
          "tax": null
        },
        "itinerary": 0,
        "itinerarySegments": null
      },
      "price": 577.90,
      "baggageFee": 0.00,
      "lastTicketingDate": null,
      "passengersConflictDetails": [
        {
          "bookingId": 432375648,
          "pnrs": [
            "PNR",
            "TEST"
          ],
          "depTime": 1505415900000,
          "depAirport": "EZE",
          "arrAirport": "MIA",
          "bookingStatus": "CONTRACT"
        }
      ],
      "pnrs": [
        "4KPPBJ"
      ],
      "seatPreferencesDescriptorSet": null,
      "seatPreferencesSelectionSet": null
    },
    "otherProductsShoppingItems": {
      "insuranceShoppingItems": [
      ],
      "additionalProductShoppingItems": [
      ]
    },
    "requiredTravellerInformation": [
    ],
    "requiredBuyerInformation": null,
    "requiredFoidInformation": [
    ],
    "buyer": {
      "phoneNumber": {
        "countryCode": "AR",
        "number": "123456789"
      },
      "alternativePhoneNumber": null,
      "name": "Test",
      "lastNames": "Sur",
      "mail": "eleazarsp@gmail.com",
      "buyerIdentificationType": null,
      "identification": "",
      "dateOfBirth": null,
      "cpf": null,
      "address": "addr",
      "cityName": "city",
      "neighborhood": null,
      "stateName": null,
      "zipCode": "1212",
      "country": "AR"
    },
    "travellers": [
      {
        "travellerType": "ADULT",
        "title": "MR",
        "name": "Test",
        "firstLastName": "Sur",
        "secondLastName": null,
        "travellerGender": "MALE",
        "dateOfBirth": 818982000000,
        "nationalityCountryCode": null,
        "countryCodeOfResidence": null,
        "identification": null,
        "identificationType": null,
        "identificationExpirationDate": null,
        "identificationIssueCountryCode": null,
        "localityCodeOfResidence": null,
        "baggageSelections": [
          {
            "baggageDescriptor": {
              "pieces": 0,
              "kilos": 0
            },
            "baggageDescriptorIncludedInPrice": {
              "pieces": 2,
              "kilos": null
            },
            "baggageApplicationLevel": "SEGMENT",
            "segmentTypeIndex": "FIRST",
            "allowanceChanged": false,
            "price": 0.00
          }
        ],
        "middleName": "",
        "meal": "STANDARD",
        "numPassenger": 1,
        "frequentFlyerNumbers": [
        ]
      }
    ],
    "collectionOptions": [
      {
        "method": {
          "creditCardType": {
            "code": "VB",
            "name": "Viabuy Prepaid MasterCard"
          },
          "type": "CREDITCARD"
        },
        "installments": null,
        "fee": 16.00,
        "bankTransferText": null
      },
      {
        "method": {
          "creditCardType": {
            "code": "VI",
            "name": "Visa Credit"
          },
          "type": "CREDITCARD"
        },
        "installments": null,
        "fee": 23.00,
        "bankTransferText": null
      },
      {
        "method": {
          "creditCardType": {
            "code": "CA",
            "name": "Master Card Credit"
          },
          "type": "CREDITCARD"
        },
        "installments": null,
        "fee": 23.00,
        "bankTransferText": null
      },
      {
        "method": {
          "creditCardType": {
            "code": "AX",
            "name": "American Express"
          },
          "type": "CREDITCARD"
        },
        "installments": null,
        "fee": 23.00,
        "bankTransferText": null
      },
      {
        "method": {
          "creditCardType": {
            "code": "MD",
            "name": "Master Card Debit"
          },
          "type": "CREDITCARD"
        },
        "installments": null,
        "fee": 23.00,
        "bankTransferText": null
      },
      {
        "method": {
          "creditCardType": {
            "code": "VD",
            "name": "Visa Debit"
          },
          "type": "CREDITCARD"
        },
        "installments": null,
        "fee": 23.00,
        "bankTransferText": null
      },
      {
        "method": {
          "creditCardType": {
            "code": "VE",
            "name": "Visa Electron"
          },
          "type": "CREDITCARD"
        },
        "installments": null,
        "fee": 23.00,
        "bankTransferText": null
      }
    ],
    "fraudResultContainer": null,
    "foids": [
    ],
    "promotionalCodes": [
    ],
    "bookingId": 432375652,
    "totalPrice": 561.90,
    "baggageTotalFee": 0.00,
    "collectionTotalFee": 0.00,
    "promotionalCampaignGroup": null,
    "cyberSourceMerchantId": "edreams"
  },
  "sortCriteria": null,
  "pricingBreakdown": {
    "pricingBreakdownSteps": [
      {
        "step": "DEFAULT",
        "totalPrice": 544.90,
        "pricingBreakdownItems": [
          {
            "priceItemType": "ADULTS_PRICE",
            "priceItemAmount": 544.90
          }
        ]
      },
      {
        "step": "PAYMENT",
        "totalPrice": 561.90,
        "pricingBreakdownItems": [
          {
            "priceItemType": "ADULTS_PRICE",
            "priceItemAmount": 544.90
          },
          {
            "priceItemType": "HANDLING_FEE",
            "priceItemAmount": 17.00
          }
        ]
      }
    ]
  },
  "residentValidationRetry": null,
  "userCommentRequired": true
}
