{
  "id": 1,
  "numAdults": 1,
  "numChildren": 0,
  "numInfants": 0,
  "directFlight": false,
  "cabinClass": null,
  "creditCardType": null,
  "tripType": "O",
  "searchSegmentList": [
    {
      "id": 1,
      "origin": "MAD",
      "departureDate": 1486080000000,
      "destination": "PAR",
      "returnDate": null,
      "segmentOrder": 0
    }
  ],
  "creationDate": 1483228800000
}
