1,1,1,Afghanistan
2,2,1,Afganistan
3,3,1,Αφγανιστάν
4,4,1,Afganistan
5,5,1,"Afganistán, Estado Islámico de"
6,6,1,Afghanistan
7,7,1,Afghanistan
8,8,1,Афганистан
9,9,1,Afganistán
10,10,1,アフガニスタン
11,11,1,Afghanistan
12,1,2,Åland Inseln
13,2,2,Isole Aland
14,3,2,Νησιά Ώλαντ
15,4,2,Aland Adaları
16,5,2,Ilhas Åland
17,6,2,Îles d'Åland
18,7,2,Åland Islands
19,8,2,Аландские острова
20,9,2,Islas Åland
21,10,2,アーランド諸島
22,11,2,Ålandeilanden
23,1,3,Albanien
24,2,3,Albania
25,3,3,Αλβανία
26,4,3,Arnavutluk
27,5,3,Albânia
28,6,3,Albanie
29,7,3,Albania
30,8,3,Албания
31,9,3,Albania
32,10,3,アルバニア
33,11,3,Albanië
34,1,4,Algerien
35,2,4,Algeria
36,3,4,Αλγερία
37,4,4,Cezayir
38,5,4,Algéria
39,6,4,Algérie
40,7,4,Algeria
41,8,4,Алжир
42,9,4,Algeria
43,10,4,アルジェリア
44,11,4,Algerije
45,1,5,Samoa Inseln
46,2,5,Samoa Americana
47,3,5,Αμερικανική Σαμόα
48,4,5,Amerikan Samoa
49,5,5,Samoa Americana
50,6,5,Samoa Américaines
51,7,5,American Samoa
52,8,5,Американское Самоа
53,9,5,Samoa Americana
54,10,5,アメリカ領サモア
55,11,5,Amerikaans-Samoa
56,1,6,Andorra
57,2,6,Andorra
58,3,6,Ανδόρα
59,4,6,Andorra
60,5,6,Andorra
61,6,6,Andorre
62,7,6,Andorra
63,8,6,Андорра
64,9,6,Andorra
65,10,6,アンドラ
66,11,6,
67,1,7,Angola
68,2,7,Angola
69,3,7,Ανγκόλα
70,4,7,Angola
71,5,7,Angola
72,6,7,Angola
73,7,7,Angola
74,8,7,Ангола
75,9,7,Angola
76,10,7,アンゴラ
77,11,7,Angola
78,1,8,Anguilla
79,2,8,Anguilla
80,3,8,Ανγκουίλα
81,4,8,Anguilla
82,5,8,Anguila
83,6,8,Anguilla
84,7,8,Anguilla
85,8,8,Ангилья
86,9,8,Anguila
87,10,8,アンギラ
88,11,8,Anguilla
89,1,9,Antarktis
90,2,9,Antartide (territorio compreso entro i 60° di latitudine sud)
91,3,9,Ανταρκτική
92,4,9,Antarktika
93,5,9,Antárctica
94,6,9,Antarctique
95,7,9,Antarctica
96,8,9,Антарктида
97,9,9,Antártida
98,10,9,南極
99,11,9,Antarctica
100,1,10,Antigua und Barbuda
101,2,10,Antigua e Barbuda
102,3,10,Αντίγκουα και Μπαρμπούντα
103,4,10,Antigua ve Barbuda
104,5,10,Antígua e Barbuda
105,6,10,Antigua-et-Barbuda
106,7,10,Antigua and Barbuda
107,8,10,Антигуа и Барбуда
108,9,10,Antigua y Barbuda
109,10,10,アンティグア・バーブーダ
110,11,10,Antigua en Barbuda
111,1,11,Argentinien
112,2,11,Argentina
113,3,11,Αργεντινή
114,4,11,Arjantin
115,5,11,Argentina
116,6,11,Argentine
117,7,11,Argentina
118,8,11,Аргентина
119,9,11,Argentina
120,10,11,アルゼンチン
121,11,11,Argentinië
122,1,12,Armenien
123,2,12,Armenia
124,3,12,Αρμενία
125,4,12,Ermenistan
126,5,12,Arménia
127,6,12,Arménie
128,7,12,Armenia
129,8,12,Армения
130,9,12,Armenia
131,10,12,アルメニア
132,11,12,Armenië
133,1,13,ABC-Inseln
134,2,13,Aruba
135,3,13,Αρούμπα
136,4,13,Aruba
137,5,13,Aruba
138,6,13,Aruba
139,7,13,Aruba
140,8,13,Аруба
141,9,13,Aruba
142,10,13,アルバ
143,11,13,Aruba
144,1,14,Australien
145,2,14,Australia
146,3,14,Αυστραλία
147,4,14,Avustralya
148,5,14,Austrália
149,6,14,Australie
150,7,14,Australia
151,8,14,Австралия
152,9,14,Australia
153,10,14,オーストラリア
154,11,14,Australië
155,1,15,Österreich
156,2,15,Austria
157,3,15,Αυστρία
158,4,15,Avusturya
159,5,15,Áustria
160,6,15,Autriche
161,7,15,Austria
162,8,15,Австрия
163,9,15,Austria
164,10,15,オーストリア
165,11,15,Oostenrijk
166,1,16,Aserbeidschan
167,2,16,Azerbaijan
168,3,16,Αζερμπαϊτζάν
169,4,16,Azerbaycan
170,5,16,Azerbaijão
171,6,16,Azerbaïdjan
172,7,16,Azerbaijan
173,8,16,Азербайджан
174,9,16,Azerbaiyán
175,10,16,アゼルバイジャン
176,11,16,Azerbeidzjan
177,1,17,Bahamas
178,2,17,Bahamas
179,3,17,Μπαχάμες
180,4,17,Bahamalar
181,5,17,Baamas
182,6,17,Bahamas
183,7,17,Bahamas
184,8,17,Багамские острова
185,9,17,Bahamas
186,10,17,バハマ
187,11,17,Bahama's
188,1,18,Bahrain
189,2,18,Bahrain
190,3,18,Μπαχρέιν
191,4,18,Bahreyn
192,5,18,Bahrain
193,6,18,Bahreïn
194,7,18,Bahrain
195,8,18,Бахрейн
196,9,18,Bahréin
197,10,18,バーレーン
198,11,18,Bahrein
199,1,19,Bangladesch
200,2,19,Bangladesh
201,3,19,Μπανγκλαντές
202,4,19,Banglades
203,5,19,Bangladesh
204,6,19,Bangladesh
205,7,19,Bangladesh
206,8,19,Бангладеш
207,9,19,Bangladesh
208,10,19,バングラデシュ
209,11,19,Bangladesh
210,1,20,Barbados
211,2,20,Barbados
212,3,20,Μπαρμπάντος
213,4,20,Barbados
214,5,20,Barbados
215,6,20,Barbade
216,7,20,Barbados
217,8,20,Барбадос
218,9,20,Barbados
219,10,20,バルバドス
220,11,20,Barbados
221,1,21,Weißrussland
222,2,21,Bielorussia
223,3,21,Λευκορωσία
224,4,21,Beyaz Rusya
225,5,21,Bielorrússia
226,6,21,Bélarus
227,7,21,Belarus
228,8,21,Беларусь
229,9,21,Bielorrusia
230,10,21,ベラルーシ
231,11,21,Belarus
232,1,22,Belgien
233,2,22,Belgio
234,3,22,Βέλγιο
235,4,22,Belçika
236,5,22,Bélgica
237,6,22,Belgique
238,7,22,Belgium
239,8,22,Бельгия
240,9,22,Bélgica
241,10,22,ベルギー
242,11,22,België
243,1,23,Belize
244,2,23,Belize
245,3,23,Μπελίζ
246,4,23,Belize
247,5,23,Belize
248,6,23,Belize
249,7,23,Belize
250,8,23,Белиз
251,9,23,Belice
252,10,23,ベリーズ
253,11,23,Belize
254,1,24,Benin
255,2,24,Benin
256,3,24,Μπενίν
257,4,24,Benin
258,5,24,Benim
259,6,24,Bénin
260,7,24,Benin
261,8,24,Бенин
262,9,24,Benín
263,10,24,ベナン
264,11,24,Benin
265,1,25,Bermuda
266,2,25,Bermuda
267,3,25,Βερμούδες
268,4,25,Bermuda
269,5,25,Bermuda
270,6,25,Bermudes
271,7,25,Bermuda
272,8,25,Бермудские острова
273,9,25,Bermudas
274,10,25,バミューダ
275,11,25,Bermuda
276,1,26,Bhutan
277,2,26,Bhutan
278,3,26,Μπουτάν
279,4,26,Bhutan
280,5,26,Butão
281,6,26,Bhoutan
282,7,26,Bhutan
283,8,26,Бутан
284,9,26,Bhutan
285,10,26,ブータン
286,11,26,Bhutan
287,1,27,Bolivien
288,2,27,Bolivia
289,3,27,Βολιβία
290,4,27,Bolivya
291,5,27,Bolívia
292,6,27,Bolivie
293,7,27,Bolivia
294,8,27,Боливия
295,9,27,Bolivia
296,10,27,ボリビア
297,11,27,Bolivia
298,1,28,Bosnien und Herzegowina
299,2,28,Bosnia Herzegovina
300,3,28,Βοσνία και Ερζεγοβίνη
301,4,28,Bosna ve Hersek
302,5,28,Bósnia-Herzegovina
303,6,28,Bosnie-Herzégovine
304,7,28,Bosnia and Herzegovina
305,8,28,Босния и Герцеговина
306,9,28,Bosnia-Herzegovina
307,10,28,ボスニア・ヘルツェゴビナ
308,11,28,Bosnië en Herzegovina
309,1,29,Botswana
310,2,29,Botswana
311,3,29,Μποτσουάνα
312,4,29,Botsvana
313,5,29,Botswana
314,6,29,Botswana
315,7,29,Botswana
316,8,29,Ботсвана
317,9,29,Botsuana
318,10,29,ボツワナ
319,11,29,Botswana
320,1,30,Bouvet Insel
321,2,30,Bouvet
322,3,30,Νησί Μπουβέ
323,4,30,Bouvet Adasi
324,5,30,Ilha Bouvet
325,6,30,Île Bouvet
326,7,30,Bouvet Island
327,8,30,Остров Буве
328,9,30,Isla Bouvet
329,10,30,ブーベ島
330,11,30,Bouveteiland
331,1,31,Brasilien
332,2,31,Brasile
333,3,31,Βραζιλία
334,4,31,Brezilya
335,5,31,Brasil
336,6,31,Brésil
337,7,31,Brazil
338,8,31,Бразилия
339,9,31,Brasil
340,10,31,ブラジル
341,11,31,Brazilië
342,1,32,Tschagos-Inseln
343,2,32,Territorio Britannico dell'Oceano Indiano (Arcipelago Chagos)
344,3,32,Βρετανικό Έδαφος Ινδικού Ωκεανού
345,4,32,Hint okyanusu Ingiliz Bölgesi
346,5,32,Arquipélago de Chagos
347,6,32,Territoire Britannique de l'Océan Indien
348,7,32,British Indian Ocean Territory
349,8,32,Британская территория в Индийском океане
350,9,32,Territorio Británico del Océano Índico
351,10,32,イギリス領インド洋地域
352,11,32,Brits Indische Oceaanterritorium
353,1,33,Brunei
354,2,33,Brunei
355,3,33,Μπρουνέι Νταρουσαλάμ
356,4,33,Brunei Sultanligi
357,5,33,Brunei
358,6,33,Brunéi
359,7,33,Brunei Darussalam
360,8,33,Бруней-Даруссалам
361,9,33,Brunéi
362,10,33,ブルネイ・ダルサラーム
363,11,33,Brunei
364,1,34,Bulgarien
365,2,34,Bulgaria
366,3,34,Βουλγαρία
367,4,34,Bulgaristan
368,5,34,Bulgária
369,6,34,Bulgarie
370,7,34,Bulgaria
371,8,34,Болгария
372,9,34,Bulgaria
373,10,34,ブルガリア
374,11,34,Bulgarije
375,1,35,Burkina Faso
376,2,35,Burkina Faso
377,3,35,Μπουρκίνα Φάσο
378,4,35,Burkina Faso
379,5,35,Burkina Faso
380,6,35,Burkina Faso
381,7,35,Burkina Faso
382,8,35,Буркина-Фасо
383,9,35,Burkina Faso
384,10,35,ブルキナファソ
385,11,35,Burkina Faso
386,1,36,Burundi
387,2,36,Burundi
388,3,36,Μπουρούντι
389,4,36,Burundi
390,5,36,Burundi
391,6,36,Burundi
392,7,36,Burundi
393,8,36,Бурунди
394,9,36,Burundi
395,10,36,ブルンジ
396,11,36,Burundi
397,1,37,Kambodscha
398,2,37,Cambogia
399,3,37,Καμπότζη
400,4,37,Kamboçya
401,5,37,Cambodja
402,6,37,Cambodge
403,7,37,Cambodia
404,8,37,Камбоджа
405,9,37,Camboya
406,10,37,カンボジア
407,11,37,Cambodja
408,1,38,Kamerun
409,2,38,Camerun
410,3,38,Καμερούν
411,4,38,Kamerun
412,5,38,Camarões
413,6,38,Cameroun
414,7,38,Cameroon
415,8,38,Камерун
416,9,38,Camerún
417,10,38,カメルーン
418,11,38,Kameroen
419,1,39,Kanada
420,2,39,Canada
421,3,39,Καναδάς
422,4,39,Kanada
423,5,39,Canadá
424,6,39,Canada
425,7,39,Canada
426,8,39,Канада
427,9,39,Canadá
428,10,39,カナダ
429,11,39,Canada
430,1,40,Kap Verde
431,2,40,Capo Verde
432,3,40,Πράσινο Ακρωτήρι
433,4,40,Yesil Burun Adalari
434,5,40,Cabo Verde
435,6,40,Cap-vert
436,7,40,Cape Verde
437,8,40,Кабо-Верде
438,9,40,Cabo Verde
439,10,40,カーボベルデ
440,11,40,Kaapverdië
441,1,41,
442,2,41,
443,3,41,
444,4,41,
445,5,41,
446,6,41,
447,7,41,Caribbean Netherlands
448,8,41,
449,9,41,
450,10,41,
451,11,41,
452,12,41,荷兰加勒比区
453,1,42,Kaiman Inseln
454,2,42,Isole Cayman
455,3,42,Νησιά Κέιμαν
456,4,42,Cayman Adalari
457,5,42,Ilhas Cayman
458,6,42,Îles Caïmanes
459,7,42,Cayman Islands
460,8,42,Каймановы острова
461,9,42,Islas Caimán
462,10,42,ケイマン諸島
463,11,42,Caymaneilanden
464,12,42,
465,1,43,Zentralafrikanische Republik
466,2,43,Repubblica Centrafricana
467,3,43,Κεντροαφρικανική Δημοκρατία
468,4,43,Orta Afrika Cumhuriyeti
469,5,43,República Centro-Africana
470,6,43,République Centrafricaine
471,7,43,Central African Republic
472,8,43,Центрально-Африканская Республика
473,9,43,República Centroafricana
474,10,43,中央アフリカ共和国
475,11,43,Centraal-Afrikaanse Republiek
476,12,43,
477,1,44,Tschad
478,2,44,Ciad
479,3,44,Τσαντ
480,4,44,Çad
481,5,44,Chade
482,6,44,Tchad
483,7,44,Chad
484,8,44,Чад
485,9,44,Chad
486,10,44,チャド
487,11,44,Tsjaad
488,12,44,
489,1,45,Chile
490,2,45,Cile
491,3,45,Χιλή
492,4,45,Sili
493,5,45,Chile
494,6,45,Chili
495,7,45,Chile
496,8,45,Чили
497,9,45,Chile
498,10,45,チリ
499,11,45,Chili
500,12,45,
501,1,46,China
502,2,46,Cina
503,3,46,Κίνα
504,4,46,Çin
505,5,46,China
506,6,46,Chine
507,7,46,China
508,8,46,Китай
509,9,46,China
510,10,46,中国
511,11,46,China
512,12,46,
513,1,47,Weihnachtsinsel
514,2,47,Christmas Island
515,3,47,Νήσος των Χριστουγέννων
516,4,47,Christmas Adasi
517,5,47,Ilhas Natal
518,6,47,Île Christmas
519,7,47,Christmas Island
520,8,47,Остров Рождества
521,9,47,Isla de Navidad
522,10,47,クリスマス島
523,11,47,Christmaseiland
524,12,47,
525,1,48,Kokosinseln
526,2,48,Isole Cocos (Keeling)
527,3,48,Νησιά Κόκος (Κήλινγκ)
528,4,48,Cocos Adalari
529,5,48,Ilhas Cocos
530,6,48,Îles Cocos
531,7,48,Cocos Islands
532,8,48,Кокосовые острова
533,9,48,Isla del Coco
534,10,48,ココス島
535,11,48,Cocoseilanden
536,12,48,
537,1,49,Kolumbien
538,2,49,Colombia
539,3,49,Κολομβία
540,4,49,Kolombiya
541,5,49,Colômbia
542,6,49,Colombie
543,7,49,Colombia
544,8,49,Колумбия
545,9,49,Colombia
546,10,49,コロンビア
547,11,49,Colombia
548,12,49,
549,1,50,Komoren
550,2,50,Comore
551,3,50,Κομόρες
552,4,50,Komorlar
553,5,50,Comores
554,6,50,Comores
555,7,50,Comoros
556,8,50,Коморские острова
557,9,50,Comoras
558,10,50,コモロ
559,11,50,Comoren
560,12,50,
561,1,51,Kongo (Brazzaville)
562,2,51,Congo
563,3,51,Κονγκό
564,4,51,Kongo
565,5,51,República do Congo
566,6,51,République du Congo
567,7,51,Congo
568,8,51,Конго
569,9,51,Congo
570,10,51,コンゴ
571,11,51,Congo
572,12,51,
573,1,52,Cook-Inseln
574,2,52,Isole Cook
575,3,52,Νησιά Κουκ
576,4,52,Cook Adalari
577,5,52,Ilhas Cook
578,6,52,Îles Cook
579,7,52,Cook Islands
580,8,52,острова Кука
581,9,52,Islas Cook
582,10,52,クック島
583,11,52,Cookeilanden
584,12,52,
585,1,53,Costa Rica
586,2,53,Costa Rica
587,3,53,Κόστα Ρίκα
588,4,53,Kosta Rika
589,5,53,Costa Rica
590,6,53,Costa Rica
591,7,53,Costa Rica
592,8,53,Коста-Рика
593,9,53,Costa Rica
594,10,53,コスタリカ
595,11,53,Costa Rica
596,12,53,
597,1,54,Elfenbeinküste
598,2,54,Costa D'Avorio
599,3,54,Ακτή Ελεφαντοστού
600,4,54,Fildisi Sahili
601,5,54,Costa do Marfim
602,6,54,Côte d'ivoire
603,7,54,Cote D'Ivoire
604,8,54,Берег Слоновой Кости
605,9,54,Costa de Marfil
606,10,54,コートジボワール
607,11,54,Ivoorkust
608,12,54,
609,1,55,Kroatien
610,2,55,Croazia
611,3,55,Κροατία
612,4,55,Hirvatistan
613,5,55,Croácia
614,6,55,Croatie
615,7,55,Croatia
616,8,55,Хорватия
617,9,55,Croacia
618,10,55,クロアチア
619,11,55,Kroatië
620,12,55,
621,1,56,Kuba
622,2,56,Cuba
623,3,56,Κούβα
624,4,56,Küba
625,5,56,Cuba
626,6,56,Cuba
627,7,56,Cuba
628,8,56,Куба
629,9,56,Cuba
630,10,56,キューバ
631,11,56,Cuba
632,12,56,
633,1,57,Zypern
634,2,57,Cipro
635,3,57,Κύπρος
636,4,57,Kibris
637,5,57,Chipre
638,6,57,Chypre
639,7,57,Cyprus
640,8,57,Кипр
641,9,57,Chipre
642,10,57,キプロス
643,11,57,Cyprus
644,12,57,
645,1,58,Tschechien
646,2,58,Repubblica Ceca
647,3,58,Τσεχία
648,4,58,Çek Cumhuriyeti
649,5,58,República Checa
650,6,58,République Tchèque
651,7,58,Czech Republic
652,8,58,Чешская республика
653,9,58,República Checa
654,10,58,チェコ共和国
655,11,58,Tsjechië
656,12,58,
657,1,59,Dänemark
658,2,59,Danimarca
659,3,59,Δανία
660,4,59,Danimarka
661,5,59,Dinamarca
662,6,59,Danemark
663,7,59,Denmark
664,8,59,Дания
665,9,59,Dinamarca
666,10,59,デンマーク
667,11,59,Denemarken
668,12,59,
669,1,60,Dschibuti
670,2,60,Gibuti
671,3,60,Τζιμπουτί
672,4,60,Cibuti
673,5,60,Djibouti
674,6,60,Djibouti
675,7,60,Djibouti
676,8,60,Джибути
677,9,60,Yibuti
678,10,60,ジブチ
679,11,60,Djibouti
680,12,60,
681,1,61,Dominica
682,2,61,Dominica
683,3,61,Δομινίκα
684,4,61,Dominika
685,5,61,Dominica
686,6,61,Dominique
687,7,61,Dominica
688,8,61,Доминика
689,9,61,Dominica
690,10,61,ドミニカ
691,11,61,Dominica
692,12,61,
693,1,62,Dominikanische Republik
694,2,62,Repubblica Dominicana
695,3,62,'Αγιος Δομίνικος
696,4,62,Dominik Cumhuriyeti
697,5,62,República Dominicana
698,6,62,République Dominicaine
699,7,62,Dominican Republic
700,8,62,Доминиканская Республика
701,9,62,República Dominicana
702,10,62,ドミニカ共和国
703,11,62,Dominicaanse Republiek
704,12,62,
705,1,63,Kongo (Kinshasa)
706,2,63,Democratic Republic of Congo
707,3,63,Λαϊκή Δημοκρατία του Κονγκό
708,4,63,Demokratik Kongo Cumhuriyeti
709,5,63,República Democrática do Congo
710,6,63,République Démocratique du Congo
711,7,63,DR Congo
712,8,63,ДР Конго
713,9,63,República Democrática del Congo
714,10,63,コンゴ民主共和国
715,11,63,Democratische Republiek Congo
716,12,63,
717,1,64,Ekuador
718,2,64,Ecuador
719,3,64,Εκουαδόρ
720,4,64,Ekvador
721,5,64,Ecuador
722,6,64,Équateur
723,7,64,Ecuador
724,8,64,Эквадор
725,9,64,Ecuador
726,10,64,エクアドル
727,11,64,Ecuador
728,12,64,
729,1,65,Ägypten
730,2,65,Egitto
731,3,65,Αίγυπτος
732,4,65,Misir
733,5,65,Egipto
734,6,65,Égypte
735,7,65,Egypt
736,8,65,Египет
737,9,65,Egipto
738,10,65,エジプト
739,11,65,Egypte
740,12,65,
741,1,66,El Salvador
742,2,66,El Salvador
743,3,66,Ελ Σαλβαδόρ
744,4,66,El Salvador
745,5,66,El Salvador
746,6,66,El Salvador
747,7,66,El Salvador
748,8,66,Сальвадор
749,9,66,El Salvador
750,10,66,エルサルバドル
751,11,66,El Salvador
752,12,66,
753,1,67,Äquatorialguinea
754,2,67,Guinea Equatoriale
755,3,67,Ισημερινή Γουινέα
756,4,67,Ekvator Ginesi
757,5,67,Guiné Equatorial
758,6,67,Guinée Équatoriale
759,7,67,Equatorial Guinea
760,8,67,Экваториальная Гвинея
761,9,67,Guinea Ecuatorial
762,10,67,赤道ギニア
763,11,67,Equatoriaal-Guinea
764,12,67,
765,1,68,Eritrea
766,2,68,Eritrea
767,3,68,Ερυθραία
768,4,68,Eritre
769,5,68,Eritreia
770,6,68,Érythrée
771,7,68,Eritrea
772,8,68,Эритрея
773,9,68,Eritrea
774,10,68,エリトリア
775,11,68,Eritrea
776,12,68,
777,1,69,Estland
778,2,69,Estonia
779,3,69,Εσθονία
780,4,69,Estonya
781,5,69,Estónia
782,6,69,Estonie
783,7,69,Estonia
784,8,69,Эстония
785,9,69,Estonia
786,10,69,エストニア
787,11,69,Estland
788,12,69,
789,1,70,Äthiopien
790,2,70,Etiopia
791,3,70,Αιθιοπία
792,4,70,Etiyopya
793,5,70,Etiópia
794,6,70,Éthiopie
795,7,70,Ethiopia
796,8,70,Эфиопия
797,9,70,Etiopia
798,10,70,エチオピア
799,11,70,Ethiopië
800,12,70,
801,1,71,Falklandinseln
802,2,71,Isole Falkland (Malvinas)
803,3,71,Νησιά Φώκλαντ
804,4,71,Falkland Adalari
805,5,71,Malvinas
806,6,71,Îles Malouines
807,7,71,Falkland Islands
808,8,71,Фолклендские острова
809,9,71,Islas Malvinas
810,10,71,フォークランド諸島
811,11,71,Falklandeilanden
812,12,71,
813,1,72,Färöer Inseln
814,2,72,Isole Faroe
815,3,72,Νήσοι Φερόες
816,4,72,Faroe Adalari
817,5,72,Ilhas Feroé
818,6,72,Îles Féroé
819,7,72,Faroe Islands
820,8,72,Фарерские острова
821,9,72,Islas Feroe
822,10,72,フェロー諸島
823,11,72,Faeröer
824,12,72,
825,1,73,Fidschi
826,2,73,Figi
827,3,73,Φίτζι
828,4,73,Fiji
829,5,73,Fiji
830,6,73,Fidji
831,7,73,Fiji
832,8,73,Фиджи
833,9,73,Fiyi
834,10,73,フィジー
835,11,73,Fiji
836,12,73,
837,1,74,Finnland
838,2,74,Finlandia
839,3,74,Φινλανδία
840,4,74,Finlandiya
841,5,74,Finlândia
842,6,74,Finlande
843,7,74,Finland
844,8,74,Финляндия
845,9,74,Finlandia
846,10,74,フィンランド
847,11,74,Finland
848,12,74,
849,1,75,Frankreich
850,2,75,Francia
851,3,75,Γαλλία
852,4,75,Fransa
853,5,75,França
854,6,75,France
855,7,75,France
856,8,75,Франция
857,9,75,Francia
858,10,75,フランス
859,11,75,Frankrijk
860,12,75,
861,1,76,Französisch-Guayana
862,2,76,Guiana Francese
863,3,76,Γαλλική Γουιάνα
864,4,76,Fransiz Guyanasi
865,5,76,Guiana Francesa
866,6,76,Guyane Française
867,7,76,French Guiana
868,8,76,Французская Гвиана
869,9,76,Guayana Francesa
870,10,76,フランス領ギアナ
871,11,76,Frans-Guyana
872,12,76,
873,1,77,Französisch-Polynesien
874,2,77,Polinesia Francese
875,3,77,Γαλλική Πολυνησία
876,4,77,Fransiz Polinezyasi
877,5,77,Polinésia Francesa
878,6,77,Polynésie Française
879,7,77,French Polynesia
880,8,77,Французская Полинезия
881,9,77,Polinesia Francesa
882,10,77,フランス領ポリネシア
883,11,77,Frans-Polynesië
884,12,77,
885,1,78,Französische Südterritorien
886,2,78,Territori Francesi Meridionali
887,3,78,Γαλλικές Νότιες Εδάφη
888,4,78,Güney Fransiz Bölgeleri
889,5,78,Terras Austrais e Antárticas Francesas
890,6,78,Terres Australes et Antarctiques Françaises
891,7,78,French Southern Territories
892,8,78,Французские Южные Территории
893,9,78,Tierras Australes y Antárticas Francesas
894,10,78,フランス領南方地域
895,11,78,Franse Zuidelijke Gebieden
896,12,78,
897,1,79,Gabun
898,2,79,Gabon
899,3,79,Γκαμπόν
900,4,79,Gabon
901,5,79,Gabão
902,6,79,Gabon
903,7,79,Gabon
904,8,79,Габон
905,9,79,Gabón
906,10,79,ガボン
907,11,79,Gabon
908,12,79,
909,1,80,Gambia
910,2,80,Gambia
911,3,80,Γκάμπια
912,4,80,Gambiya
913,5,80,Gâmbia
914,6,80,Gambie
915,7,80,Gambia
916,8,80,Гамбия
917,9,80,Gambia
918,10,80,ガンビア
919,11,80,Gambia
920,12,80,
921,1,81,Georgien
922,2,81,Georgia
923,3,81,Γεωργία
924,4,81,Gürcistan
925,5,81,Geórgia
926,6,81,Géorgie
927,7,81,Georgia
928,8,81,Грузия
929,9,81,Georgia
930,10,81,グルジア
931,11,81,Georgië
932,12,81,
933,1,82,Deutschland
934,2,82,Germania
935,3,82,Γερμανία
936,4,82,Almanya
937,5,82,Alemanha
938,6,82,Allemagne
939,7,82,Germany
940,8,82,Германия
941,9,82,Alemania
942,10,82,ドイツ
943,11,82,Duitsland
944,12,82,
945,1,83,Ghana
946,2,83,Ghana
947,3,83,Γκάνα
948,4,83,Gana
949,5,83,Gana
950,6,83,Ghana
951,7,83,Ghana
952,8,83,Гана
953,9,83,Ghana
954,10,83,ガーナ
955,11,83,Ghana
956,12,83,
957,1,84,Gibraltar
958,2,84,Gibilterra
959,3,84,Γιβραλτάρ
960,4,84,Cebelitarik
961,5,84,Gibraltar
962,6,84,Gibraltar
963,7,84,Gibraltar
964,8,84,Гибралтар
965,9,84,Gibraltar
966,10,84,ジブラルタル
967,11,84,Gibraltar
968,12,84,
969,1,85,Griechenland
970,2,85,Grecia
971,3,85,Ελλάδα
972,4,85,Yunanistan
973,5,85,Grécia
974,6,85,Grèce
975,7,85,Greece
976,8,85,Греция
977,9,85,Grecia
978,10,85,ギリシャ
979,11,85,Griekenland
980,12,85,
981,1,86,Grönland
982,2,86,Groenlandia
983,3,86,Γροιλανδία
984,4,86,Grönland
985,5,86,Gronelândia
986,6,86,Groenland
987,7,86,Greenland
988,8,86,Гренландия
989,9,86,Groenlandia
990,10,86,グリーンランド
991,11,86,Groenland
992,12,86,
993,1,87,Grenada
994,2,87,Grenada
995,3,87,Γρενάδα
996,4,87,Grenada
997,5,87,Granada
998,6,87,Grenade
999,7,87,Grenada
1000,8,87,Гренада
1001,9,87,Granada
1002,10,87,グレナダ
1003,11,87,Grenada
1004,12,87,
1005,1,88,Guadeloupe
1006,2,88,Guadalupe
1007,3,88,Γουαδελούπη
1008,4,88,Guadeloupe
1009,5,88,Guadalupe
1010,6,88,Guadeloupe
1011,7,88,Guadeloupe
1012,8,88,Гваделупа
1013,9,88,Guadalupe
1014,10,88,グアダルペ
1015,11,88,Guadeloupe
1016,12,88,
1017,1,89,Guam
1018,2,89,Guam
1019,3,89,Γκουάμ
1020,4,89,Guam
1021,5,89,Guam
1022,6,89,Guam
1023,7,89,Guam
1024,8,89,Гуам
1025,9,89,Guam
1026,10,89,グアム
1027,11,89,Guam
1028,12,89,
1029,1,90,Guatemala
1030,2,90,Guatemala
1031,3,90,Γουατεμάλα
1032,4,90,Guatemala
1033,5,90,Guatemala
1034,6,90,Guatemala
1035,7,90,Guatemala
1036,8,90,Гватемала
1037,9,90,Guatemala
1038,10,90,グアテマラ
1039,11,90,Guatemala
1040,12,90,
1041,1,91,Guinea
1042,2,91,Guinea
1043,3,91,Γουινέα
1044,4,91,Gine
1045,5,91,Guiné
1046,6,91,Guinée
1047,7,91,Guinea
1048,8,91,Гвинея
1049,9,91,Guinea
1050,10,91,ギニア
1051,11,91,Guinee
1052,12,91,
1053,1,92,Guinea-Bissau
1054,2,92,Guinea-Bissau
1055,3,92,Γουινέα-Μπισάου
1056,4,92,Gine Bissau
1057,5,92,Guiné-Bissau
1058,6,92,Guinée-bissau
1059,7,92,Guinea-Bissau
1060,8,92,Гвинея-Бисау
1061,9,92,Guinea-bissau
1062,10,92,ギニアビサウ
1063,11,92,Guinee-Bissau
1064,12,92,
1065,1,93,Guyana
1066,2,93,Guyana
1067,3,93,Γουιάνα
1068,4,93,Guyana
1069,5,93,Guiana
1070,6,93,Guyana
1071,7,93,Guyana
1072,8,93,Гайана
1073,9,93,Guyana
1074,10,93,ガイアナ
1075,11,93,Guyana
1076,12,93,
1077,1,94,Haiti
1078,2,94,Haiti
1079,3,94,Αϊτή
1080,4,94,Haiti
1081,5,94,Haiti
1082,6,94,Haïti
1083,7,94,Haiti
1084,8,94,Гаити
1085,9,94,Haiti
1086,10,94,ハイチ
1087,11,94,Haïti
1088,12,94,
1089,1,95,Heard und McDonald Inseln
1090,2,95,Isole Heard e McDonald
1091,3,95,Νήσοι Χερντ και Μακντόναλντ
1092,4,95,Heard Adasi ve McDonald Adalari
1093,5,95,Ilhas Heard e McDonald
1094,6,95,Île Heard et Îles McDonald
1095,7,95,Heard Island and McDonald Islands
1096,8,95,Острова Херд и Макдональд
1097,9,95,Islas Heard y McDonald
1098,10,95,ハード島とマクドナルド諸島
1099,11,95,Heard en McDonaldeilanden
1100,12,95,
1101,1,96,Honduras
1102,2,96,Honduras
1103,3,96,Ονδούρα
1104,4,96,Honduras
1105,5,96,Honduras
1106,6,96,Honduras
1107,7,96,Honduras
1108,8,96,Гондурас
1109,9,96,Honduras
1110,10,96,ホンジュラス
1111,11,96,Honduras
1112,12,96,
1113,1,97,Hong Kong
1114,2,97,Hong Kong
1115,3,97,Χονγκ Κονγκ
1116,4,97,Hong Kong
1117,5,97,Hong Kong
1118,6,97,Hong-kong
1119,7,97,Hong Kong
1120,8,97,Гонконг
1121,9,97,Hong Kong
1122,10,97,香港
1123,11,97,Hongkong
1124,12,97,
1125,1,98,Ungarn
1126,2,98,Ungheria
1127,3,98,Ουγγαρία
1128,4,98,Macaristan
1129,5,98,Hungria
1130,6,98,Hongrie
1131,7,98,Hungary
1132,8,98,Венгрия
1133,9,98,Hungría
1134,10,98,ハンガリー
1135,11,98,Hongarije
1136,12,98,
1137,1,99,Island
1138,2,99,Islanda
1139,3,99,Ισλανδία
1140,4,99,Izlanda
1141,5,99,Islândia
1142,6,99,Islande
1143,7,99,Iceland
1144,8,99,Исландия
1145,9,99,Islandia
1146,10,99,アイスランド
1147,11,99,IJsland
1148,12,99,
1149,1,100,Indien
1150,2,100,India
1151,3,100,Ινδία
1152,4,100,Hindistan
1153,5,100,Índia
1154,6,100,Inde
1155,7,100,India
1156,8,100,Индия
1157,9,100,India
1158,10,100,インド
1159,11,100,India
1160,12,100,
1161,1,101,Indonesien
1162,2,101,Indonesia
1163,3,101,Ινδονησία
1164,4,101,Endonezya
1165,5,101,Indonésia
1166,6,101,Indonésie
1167,7,101,Indonesia
1168,8,101,Индонезия
1169,9,101,Indonesia
1170,10,101,インドネシア
1171,11,101,Indonesië
1172,12,101,
1173,1,102,Iran
1174,2,102,Iran
1175,3,102,Ιράν
1176,4,102,Iran
1177,5,102,Irão
1178,6,102,Iran
1179,7,102,Iran
1180,8,102,Иран
1181,9,102,"Irán, República Islámica de"
1182,10,102,イラン
1183,11,102,Iran
1184,12,102,
1185,1,103,Irak
1186,2,103,Iraq
1187,3,103,Ιράκ
1188,4,103,Irak
1189,5,103,Iraque
1190,6,103,Irak
1191,7,103,Iraq
1192,8,103,Ирак
1193,9,103,Irak
1194,10,103,イラク
1195,11,103,Irak
1196,12,103,
1197,1,104,Irland
1198,2,104,Irlanda
1199,3,104,Ιρλανδία
1200,4,104,Irlanda
1201,5,104,Irlanda
1202,6,104,Irlande
1203,7,104,Ireland
1204,8,104,Ирландия
1205,9,104,Irlanda
1206,10,104,アイルランド
1207,11,104,Ierland
1208,12,104,
1209,1,105,Israel
1210,2,105,Israele
1211,3,105,Ισραήλ
1212,4,105,Israil
1213,5,105,Israel
1214,6,105,Israël
1215,7,105,Israel
1216,8,105,Израиль
1217,9,105,Israel
1218,10,105,イスラエル
1219,11,105,Israël
1220,12,105,
1221,1,106,Italien
1222,2,106,Italia
1223,3,106,Ιταλία
1224,4,106,Italya
1225,5,106,Itália
1226,6,106,Italie
1227,7,106,Italy
1228,8,106,Италия
1229,9,106,Italia
1230,10,106,イタリア
1231,11,106,Italië
1232,12,106,
1233,1,107,Jamaika
1234,2,107,Giamaica
1235,3,107,Τζαμάικα
1236,4,107,Jamaika
1237,5,107,Jamaica
1238,6,107,Jamaïque
1239,7,107,Jamaica
1240,8,107,Ямайка
1241,9,107,Jamaica
1242,10,107,ジャマイカ
1243,11,107,Jamaica
1244,12,107,
1245,1,108,Japan
1246,2,108,Giappone
1247,3,108,Ιαπωνία
1248,4,108,Japonya
1249,5,108,Japão
1250,6,108,Japon
1251,7,108,Japan
1252,8,108,Япония
1253,9,108,Japón
1254,10,108,日本
1255,11,108,Japan
1256,12,108,
1257,1,109,Jordanien
1258,2,109,Giordania
1259,3,109,Ιορδανία
1260,4,109,Ürdün
1261,5,109,Jordânia
1262,6,109,Jordanie
1263,7,109,Jordan
1264,8,109,Иордания
1265,9,109,Jordania
1266,10,109,ヨルダン
1267,11,109,Jordanië
1268,12,109,
1269,1,110,Kasachstan
1270,2,110,Kazakistan
1271,3,110,Καζακστάν
1272,4,110,Kazakistan
1273,5,110,Cazaquistão
1274,6,110,Kazakhstan
1275,7,110,Kazakhstan
1276,8,110,Казахстан
1277,9,110,Kazajstán
1278,10,110,カザフスタン
1279,11,110,Kazachstan
1280,12,110,
1281,1,111,Kenia
1282,2,111,Kenya
1283,3,111,Κένυα
1284,4,111,Kenya
1285,5,111,Quénia
1286,6,111,Kenya
1287,7,111,Kenya
1288,8,111,Кения
1289,9,111,Kenia
1290,10,111,ケニア
1291,11,111,Kenia; Kenya
1292,12,111,
1293,1,112,Kiribati
1294,2,112,Kiribati
1295,3,112,Κιριμπάτι
1296,4,112,Kiribati
1297,5,112,Kiribati
1298,6,112,Kiribati
1299,7,112,Kiribati
1300,8,112,Кирибати
1301,9,112,Kiribati
1302,10,112,キリバス
1303,11,112,Kiribati
1304,12,112,
1305,1,113,Kosovo
1306,2,113,Kosovo
1307,3,113,Κόσοβο
1308,4,113,Kosovo
1309,5,113,Kosovo
1310,6,113,Kosovo
1311,7,113,Kosovo
1312,8,113,Косово
1313,9,113,Kosovo
1314,10,113,コソボ
1315,11,113,
1316,12,113,
1317,1,114,Kuwait
1318,2,114,Kuwait
1319,3,114,Κουβέιτ
1320,4,114,Kuveyt
1321,5,114,Koweit
1322,6,114,Koweït
1323,7,114,Kuwait
1324,8,114,Кувейт
1325,9,114,Kuwait
1326,10,114,クウェート
1327,11,114,Koeweit
1328,12,114,
1329,1,115,Kirgisien
1330,2,115,Kirghizistan
1331,3,115,Κιργιστάν
1332,4,115,Kirgizistan
1333,5,115,Quirguistão
1334,6,115,Kirghizistan
1335,7,115,Kyrgyzstan
1336,8,115,Киргизия
1337,9,115,Kirguistán
1338,10,115,キルギスタン
1339,11,115,Kirgizië
1340,12,115,
1341,1,116,Laos
1342,2,116,Laos
1343,3,116,Λάος
1344,4,116,Laos
1345,5,116,Laos
1346,6,116,Laos
1347,7,116,Laos
1348,8,116,Лаос
1349,9,116,Laos
1350,10,116,ラオス
1351,11,116,Laos
1352,12,116,
1353,1,117,Lettland
1354,2,117,Lettonia
1355,3,117,Λετονία
1356,4,117,Letonya
1357,5,117,Letónia
1358,6,117,Lettonie
1359,7,117,Latvia
1360,8,117,Латвия
1361,9,117,Letonia
1362,10,117,ラトビア
1363,11,117,Letland
1364,12,117,
1365,1,118,Libanon
1366,2,118,Libano
1367,3,118,Λίβανος
1368,4,118,Lübnan
1369,5,118,Líbano
1370,6,118,Liban
1371,7,118,Lebanon
1372,8,118,Ливан
1373,9,118,Líbano
1374,10,118,レバノン
1375,11,118,Libanon
1376,12,118,
1377,1,119,Lesotho
1378,2,119,Lesotho
1379,3,119,Λεσότο
1380,4,119,Lesotho
1381,5,119,Lesoto
1382,6,119,Lesotho
1383,7,119,Lesotho
1384,8,119,Лесото
1385,9,119,Lesotho
1386,10,119,レソト
1387,11,119,Lesotho
1388,12,119,
1389,1,120,Liberia
1390,2,120,Liberia
1391,3,120,Λιβερία
1392,4,120,Liberya
1393,5,120,Libéria
1394,6,120,Libéria
1395,7,120,Liberia
1396,8,120,Либерия
1397,9,120,Liberia
1398,10,120,リベリア
1399,11,120,Liberia
1400,12,120,
1401,1,121,Libyen
1402,2,121,Libia
1403,3,121,Λιβύη
1404,4,121,Libya
1405,5,121,Líbia
1406,6,121,Libye
1407,7,121,Libya
1408,8,121,Ливия
1409,9,121,Libia
1410,10,121,リビア
1411,11,121,Libië
1412,12,121,
1413,1,122,Liechtenstein
1414,2,122,Liechtenstein
1415,3,122,Λίχτενσταϊν
1416,4,122,Liechtenstein
1417,5,122,Liechtenstein
1418,6,122,Liechtenstein
1419,7,122,Liechtenstein
1420,8,122,Лихтенштейн
1421,9,122,Liechtenstein
1422,10,122,リヒテンシュタイン
1423,11,122,
1424,12,122,
1425,1,123,Litauen
1426,2,123,Lituania
1427,3,123,Λιθουανία
1428,4,123,Litvanya
1429,5,123,Lituânia
1430,6,123,Lituanie
1431,7,123,Lithuania
1432,8,123,Литва
1433,9,123,Lituania
1434,10,123,リトアニア
1435,11,123,Litouwen
1436,12,123,
1437,1,124,Luxemburg
1438,2,124,Lussemburgo
1439,3,124,Λουξεμβούργο
1440,4,124,Lüksemburg
1441,5,124,Luxemburgo
1442,6,124,Luxembourg
1443,7,124,Luxembourg
1444,8,124,Люксембург
1445,9,124,Luxemburgo
1446,10,124,ルクセンブルク
1447,11,124,Luxemburg
1448,12,124,
1449,1,125,Macau
1450,2,125,Macao
1451,3,125,Μακάου
1452,4,125,Macao
1453,5,125,Macau
1454,6,125,Macao
1455,7,125,Macao
1456,8,125,Макао
1457,9,125,Macao
1458,10,125,マカオ
1459,11,125,Macau
1460,12,125,
1461,1,126,Mazedonien
1462,2,126,Macedonia
1463,3,126,Πρώην Γιουγκοσλαβική Δημοκρατία της Μακεδονίας
1464,4,126,Makedonya
1465,5,126,Macedónia
1466,6,126,Macédoine
1467,7,126,Macedonia
1468,8,126,Македония
1469,9,126,Macedonia
1470,10,126,マケドニア
1471,11,126,Voormalige Joegoslavische Republiek Macedonië
1472,12,126,
1473,1,127,Madagaskar
1474,2,127,Madagascar
1475,3,127,Μαδαγασκάρη
1476,4,127,Madagaskar
1477,5,127,Madagáscar
1478,6,127,Madagascar
1479,7,127,Madagascar
1480,8,127,Мадагаскар
1481,9,127,Madagascar
1482,10,127,マダガスカル
1483,11,127,Madagaskar
1484,12,127,
1485,1,128,Malawi
1486,2,128,Malawi
1487,3,128,Μαλάουι
1488,4,128,Malavi
1489,5,128,Malawi
1490,6,128,Malawi
1491,7,128,Malawi
1492,8,128,Малави
1493,9,128,Malawi
1494,10,128,マラウイ
1495,11,128,Malawi
1496,12,128,
1497,1,129,Malaysia
1498,2,129,Malesia
1499,3,129,Μαλαισία
1500,4,129,Malezya
1501,5,129,Malásia
1502,6,129,Malaisie
1503,7,129,Malaysia
1504,8,129,Малайзия
1505,9,129,Malasia
1506,10,129,マレーシア
1507,11,129,Maleisië
1508,12,129,
1509,1,130,Malediven
1510,2,130,Maldive
1511,3,130,Μαλδίβες
1512,4,130,Maldivler
1513,5,130,Maldivas
1514,6,130,Maldives
1515,7,130,Maldives
1516,8,130,Мальдивы
1517,9,130,Maldivas
1518,10,130,モルジブ
1519,11,130,Maldiven
1520,12,130,
1521,1,131,Mali
1522,2,131,Mali
1523,3,131,Μάλι
1524,4,131,Mali
1525,5,131,Mali
1526,6,131,Mali
1527,7,131,Mali
1528,8,131,Мали
1529,9,131,Mali
1530,10,131,マリ
1531,11,131,Mali
1532,12,131,
1533,1,132,Malta
1534,2,132,Malta
1535,3,132,Μάλτα
1536,4,132,Malta
1537,5,132,Malta
1538,6,132,Malte
1539,7,132,Malta
1540,8,132,Мальта
1541,9,132,Malta
1542,10,132,マルタ
1543,11,132,Malta
1544,12,132,
1545,1,133,Marshallinseln
1546,2,133,Isole Marshall
1547,3,133,Νήσοι Μάρσαλ
1548,4,133,Marshall Adalari
1549,5,133,Ilhas Marshall
1550,6,133,Îles Marshall
1551,7,133,Marshall Islands
1552,8,133,Маршалловы острова
1553,9,133,Islas Marshall
1554,10,133,マーシャル諸島
1555,11,133,Marshalleilanden
1556,12,133,
1557,1,134,Martinique
1558,2,134,Martinica
1559,3,134,Μαρτινίκα
1560,4,134,Martinique
1561,5,134,Martinica
1562,6,134,Martinique
1563,7,134,Martinique
1564,8,134,Мартиника
1565,9,134,Martinica
1566,10,134,マルティニク島
1567,11,134,Martinique
1568,12,134,
1569,1,135,Mauretanien
1570,2,135,Mauritania
1571,3,135,Μαυριτανία
1572,4,135,Moritanya
1573,5,135,Mauritânia
1574,6,135,Mauritanie
1575,7,135,Mauritania
1576,8,135,Мавритания
1577,9,135,Mauritania
1578,10,135,モーリタニア
1579,11,135,Mauritanië
1580,12,135,
1581,1,136,Mauritius
1582,2,136,Mauritius
1583,3,136,Μαυρίκιος
1584,4,136,Mauritius
1585,5,136,Maurícia
1586,6,136,Maurice
1587,7,136,Mauritius
1588,8,136,Маврикий
1589,9,136,Mauricio
1590,10,136,モーリシャス
1591,11,136,Mauritius
1592,12,136,
1593,1,137,Mayotte
1594,2,137,Mayotte
1595,3,137,Μαγιότ
1596,4,137,Mayotte
1597,5,137,Mayotte
1598,6,137,Mayotte
1599,7,137,Mayotte
1600,8,137,Майотта
1601,9,137,Mayotte
1602,10,137,マヨット
1603,11,137,Mayotte
1604,12,137,
1605,1,138,Mexiko
1606,2,138,Messico
1607,3,138,Μεξικό
1608,4,138,Meksika
1609,5,138,México
1610,6,138,Mexique
1611,7,138,Mexico
1612,8,138,Мексика
1613,9,138,México
1614,10,138,メキシコ
1615,11,138,Mexico
1616,12,138,
1617,1,139,Mikronesien
1618,2,139,Micronesia
1619,3,139,Μικρονησία
1620,4,139,Mikronezya
1621,5,139,Micronésia
1622,6,139,Micronésie
1623,7,139,Micronesia
1624,8,139,Микронезия
1625,9,139,Micronesia
1626,10,139,ミクロネシア
1627,11,139,Micronesia
1628,12,139,
1629,1,140,Moldavien
1630,2,140,Moldavia
1631,3,140,Μολδαβία
1632,4,140,Moldova
1633,5,140,Moldávia
1634,6,140,Moldavie
1635,7,140,Moldova
1636,8,140,Молдавия
1637,9,140,Moldavia
1638,10,140,モルドバ
1639,11,140,Moldavië
1640,12,140,
1641,1,141,Monaco
1642,2,141,Principato di Monaco
1643,3,141,Μονακό
1644,4,141,Monako
1645,5,141,Mónaco
1646,6,141,Monaco
1647,7,141,Monaco
1648,8,141,Монако
1649,9,141,Mónaco
1650,10,141,モナコ公国
1651,11,141,
1652,12,141,
1653,1,142,Mongolei
1654,2,142,Mongolia
1655,3,142,Μογγολία
1656,4,142,Mogolistan
1657,5,142,Mongólia
1658,6,142,Mongolie
1659,7,142,Mongolia
1660,8,142,Монголия
1661,9,142,Mongolia
1662,10,142,モンゴル
1663,11,142,Mongolië
1664,12,142,
1665,1,143,Montenegro
1666,2,143,Montenegro
1667,3,143,Μαυροβούνιο
1668,4,143,Karadag
1669,5,143,Montenegro
1670,6,143,Montinigro
1671,7,143,Montenegro
1672,8,143,Черногория
1673,9,143,Montenegro
1674,10,143,モンテネグロ
1675,11,143,Montenegro
1676,12,143,
1677,1,144,Montserrat
1678,2,144,Montserrat
1679,3,144,Μοντσεράτ
1680,4,144,Montserrat
1681,5,144,Montserrat
1682,6,144,Montserrat
1683,7,144,Montserrat
1684,8,144,Монтсеррат
1685,9,144,Montserrat
1686,10,144,モントセラト
1687,11,144,Montserrat
1688,12,144,
1689,1,145,Marokko
1690,2,145,Marocco
1691,3,145,Μαρόκο
1692,4,145,Fas
1693,5,145,Marrocos
1694,6,145,Maroc
1695,7,145,Morocco
1696,8,145,Марокко
1697,9,145,Marruecos
1698,10,145,モロッコ
1699,11,145,Marokko
1700,12,145,
1701,1,146,Mosambik
1702,2,146,Mozambico
1703,3,146,Μοζαμβίκη
1704,4,146,Mozambik
1705,5,146,Moçambique
1706,6,146,Mozambique
1707,7,146,Mozambique
1708,8,146,Мозамбик
1709,9,146,Mozambique
1710,10,146,モザンビーク
1711,11,146,Mozambique
1712,12,146,
1713,1,147,Myanmar
1714,2,147,Myanmar
1715,3,147,Μιανμάρ
1716,4,147,Myanmar
1717,5,147,Myanmar
1718,6,147,Myanmar
1719,7,147,Myanmar
1720,8,147,Мьянма
1721,9,147,Myanmar
1722,10,147,ミャンマー
1723,11,147,Myanmar
1724,12,147,
1725,1,148,Namibia
1726,2,148,Namibia
1727,3,148,Ναμίμπια
1728,4,148,Namibya
1729,5,148,Namíbia
1730,6,148,Namibie
1731,7,148,Namibia
1732,8,148,Намибия
1733,9,148,Namibia
1734,10,148,ナミビア
1735,11,148,Namibië
1736,12,148,
1737,1,149,Nauru
1738,2,149,Nauru
1739,3,149,Ναουρού
1740,4,149,Nauru
1741,5,149,Nauru
1742,6,149,Nauru
1743,7,149,Nauru
1744,8,149,Науру
1745,9,149,Nauru
1746,10,149,ナウル
1747,11,149,Nauru
1748,12,149,
1749,1,150,Nepal
1750,2,150,Nepal
1751,3,150,Νεπάλ
1752,4,150,Nepal
1753,5,150,Nepal
1754,6,150,Népal
1755,7,150,Nepal
1756,8,150,Непал
1757,9,150,Nepal
1758,10,150,ネパール
1759,11,150,Nepal
1760,12,150,
1761,1,151,Niederlande
1762,2,151,Paesi bassi
1763,3,151,Ολλανδία 
1764,4,151,Hollanda
1765,5,151,Países Baixos
1766,6,151,Pays-bas
1767,7,151,Netherlands
1768,8,151,Нидерланды
1769,9,151,Paises Bajos
1770,10,151,オランダ
1771,11,151,Nederland
1772,12,151,
1773,1,152,Niederländische Antillen
1774,2,152,Antille Olandesi
1775,3,152,Ολλανδικές Αντίλλες
1776,4,152,Hollanda Antilleri
1777,5,152,Antilhas Neerlandesas
1778,6,152,Antilles Néerlandaises
1779,7,152,Netherlands Antilles
1780,8,152,Нидерландские Антильские острова
1781,9,152,Antillas Neerlandesas
1782,10,152,オランダ領アンティル
1783,11,152,Nederlandse Antillen
1784,12,152,
1785,1,153,Neukaledonien
1786,2,153,Nuova Caledonia
1787,3,153,Νέα Καληδονία
1788,4,153,Yeni Kaledonya
1789,5,153,Nova Caledónia
1790,6,153,Nouvelle-Calédonie
1791,7,153,New Caledonia
1792,8,153,Новая Каледония
1793,9,153,Nueva Caledonia
1794,10,153,ニューカレドニア
1795,11,153,Nieuw-Caledonië
1796,12,153,
1797,1,154,Neuseeland
1798,2,154,Nuova Zelanda
1799,3,154,Νέα Ζηλανδία
1800,4,154,Yeni Zelanda
1801,5,154,Nova Zelândia
1802,6,154,Nouvelle-Zélande
1803,7,154,New Zealand
1804,8,154,Новая Зеландия
1805,9,154,Nueva Zelanda
1806,10,154,ニュージーランド
1807,11,154,Nieuw-Zeeland
1808,12,154,
1809,1,155,Nikaragua
1810,2,155,Nicaragua
1811,3,155,Νικαράγουα
1812,4,155,Nikaragua
1813,5,155,Nicarágua
1814,6,155,Nicaragua
1815,7,155,Nicaragua
1816,8,155,Никарагуа
1817,9,155,Nicaragua
1818,10,155,ニカラグア
1819,11,155,Nicaragua
1820,12,155,
1821,1,156,Niger
1822,2,156,Niger
1823,3,156,Νίγηρας
1824,4,156,Nijer
1825,5,156,Níger
1826,6,156,Niger
1827,7,156,Niger
1828,8,156,Нигер
1829,9,156,Niger
1830,10,156,ニジェール
1831,11,156,Niger
1832,12,156,
1833,1,157,Nigeria
1834,2,157,Nigeria
1835,3,157,Νιγηρία
1836,4,157,Nijerya
1837,5,157,Nigéria
1838,6,157,Nigéria
1839,7,157,Nigeria
1840,8,157,Нигерия
1841,9,157,Nigeria
1842,10,157,ナイジェリア
1843,11,157,Nigeria
1844,12,157,
1845,1,158,Niue
1846,2,158,Niue
1847,3,158,Νιούε
1848,4,158,Niue
1849,5,158,Niue
1850,6,158,Niué
1851,7,158,Niue
1852,8,158,Ниуэ
1853,9,158,Niue
1854,10,158,ニウエ
1855,11,158,Niue
1856,12,158,
1857,1,159,Norfolk Insel
1858,2,159,Isola Norfolk
1859,3,159,Νησί Νόρφολκ
1860,4,159,Norfolk Adasi
1861,5,159,Ilha Norfolk
1862,6,159,Île Norfolk
1863,7,159,Norfolk Island
1864,8,159,Остров Норфолк
1865,9,159,Isla Norfolk
1866,10,159,ノーフォーク島
1867,11,159,Norfolkeiland
1868,12,159,
1869,1,160,Marianen-Inseln
1870,2,160,Marianne Settentrionali
1871,3,160,Βόρειες Μαριάνες
1872,4,160,Kuzey Mariana Adalari
1873,5,160,Ilhas Marianas do Norte
1874,6,160,Îles Mariannes du Nord
1875,7,160,Northern Mariana Islands
1876,8,160,Северные Марианские острова
1877,9,160,Islas Marianas del Norte
1878,10,160,北マリアナ諸島
1879,11,160,Noordelijke Marianen
1880,12,160,
1881,1,161,Nord-Korea
1882,2,161,Corea del Nord
1883,3,161,Βόρεια Κορέα
1884,4,161,Kuzey Kore
1885,5,161,Coreia do Norte
1886,6,161,République Populaire Démocratique de Corée
1887,7,161,North Korea
1888,8,161,Северная Корея
1889,9,161,"Corea, República Popular Democrática de"
1890,10,161,北朝鮮
1891,11,161,Noord-Korea
1892,12,161,
1893,1,162,Norwegen
1894,2,162,Norvegia
1895,3,162,Νορβηγία
1896,4,162,Norveç
1897,5,162,Noruega
1898,6,162,Norvège
1899,7,162,Norway
1900,8,162,Норвегия
1901,9,162,Noruega
1902,10,162,ノルウェー
1903,11,162,Noorwegen
1904,12,162,
1905,1,163,Oman
1906,2,163,Oman
1907,3,163,Ομάν
1908,4,163,Umman
1909,5,163,Omã
1910,6,163,Oman
1911,7,163,Oman
1912,8,163,Оман
1913,9,163,Omán
1914,10,163,オマーン
1915,11,163,Oman
1916,12,163,
1917,1,164,Pakistan
1918,2,164,Pakistan
1919,3,164,Πακιστάν
1920,4,164,Pakistan
1921,5,164,Paquistão
1922,6,164,Pakistan
1923,7,164,Pakistan
1924,8,164,Пакистан
1925,9,164,Pakistán
1926,10,164,パキスタン
1927,11,164,Pakistan
1928,12,164,
1929,1,165,Palauinseln
1930,2,165,Palau
1931,3,165,Παλάου
1932,4,165,Palau
1933,5,165,Palau
1934,6,165,Palaos
1935,7,165,Palau
1936,8,165,Палау
1937,9,165,Palau
1938,10,165,パラオ
1939,11,165,Palau
1940,12,165,
1941,1,166,Palästina
1942,2,166,Territori Palestinesti Occupati
1943,3,166,Παλαιστινιακά Εδάφη
1944,4,166,Filistin Topraklari
1945,5,166,Palestina
1946,6,166,Palestine
1947,7,166,Palestinian Territories
1948,8,166,Палестинские территории
1949,9,166,"Palestina, Territorio Ocupado de"
1950,10,166,パレスチナ自治区
1951,11,166,Palestijnse Autoriteit
1952,12,166,
1953,1,167,Panama
1954,2,167,Panama
1955,3,167,Παναμάς
1956,4,167,Panama
1957,5,167,Panamá
1958,6,167,Panama
1959,7,167,Panama
1960,8,167,Панама
1961,9,167,Panamá
1962,10,167,パナマ
1963,11,167,Panama
1964,12,167,
1965,1,168,Papua-Neuguinea
1966,2,168,Papua Nuova Guinea
1967,3,168,Παπούα Νέα Γουινέα
1968,4,168,Papua Yeni Gine
1969,5,168,Papua-Nova Guiné
1970,6,168,Papouasie-Nouvelle-Guinée
1971,7,168,Papua New Guinea
1972,8,168,Папуа-Новая Гвинея
1973,9,168,Papua Nueva Guinea
1974,10,168,パプアニューギニア
1975,11,168,Papoea-Nieuw-Guinea
1976,12,168,
1977,1,169,Paraguay
1978,2,169,Paraguay
1979,3,169,Παραγουάη
1980,4,169,Paraguay
1981,5,169,Paraguai
1982,6,169,Paraguay
1983,7,169,Paraguay
1984,8,169,Парагвай
1985,9,169,Paraguay
1986,10,169,パラグアイ
1987,11,169,Paraguay
1988,12,169,
1989,1,170,Peru
1990,2,170,Perù
1991,3,170,Περού
1992,4,170,Peru
1993,5,170,Peru
1994,6,170,Pérou
1995,7,170,Peru
1996,8,170,Перу
1997,9,170,Perú
1998,10,170,ペルー
1999,11,170,Peru
2000,12,170,
2001,1,171,Philippinen
2002,2,171,Filippine
2003,3,171,Φιλιππίνες
2004,4,171,Filipinler
2005,5,171,Filipinas
2006,6,171,Philippines
2007,7,171,Philippines
2008,8,171,Филиппины
2009,9,171,Filipinas
2010,10,171,フィリピン
2011,11,171,Filipijnen
2012,12,171,
2013,1,172,Pitcairn Island
2014,2,172,Isola Pitcairn
2015,3,172,Νήσοι Πίτκαιρν
2016,4,172,Pitcairn
2017,5,172,Ilhas Pitcairn
2018,6,172,Pitcairn
2019,7,172,Pitcairn
2020,8,172,Питкэрн
2021,9,172,Islas Pitcairn
2022,10,172,ピトケアン諸島
2023,11,172,
2024,12,172,
2025,1,173,Polen
2026,2,173,Polonia
2027,3,173,Πολωνία
2028,4,173,Polonya
2029,5,173,Polónia
2030,6,173,Pologne
2031,7,173,Poland
2032,8,173,Польша
2033,9,173,Polonia
2034,10,173,ポーランド
2035,11,173,Polen
2036,12,173,
2037,1,174,Portugal
2038,2,174,Portogallo
2039,3,174,Πορτογαλία
2040,4,174,Portekiz
2041,5,174,Portugal
2042,6,174,Portugal
2043,7,174,Portugal
2044,8,174,Португалия
2045,9,174,Portugal
2046,10,174,ポルトガル
2047,11,174,Portugal
2048,12,174,
2049,1,175,Puerto Rico
2050,2,175,Porto Rico
2051,3,175,Πουέρτο Ρίκο
2052,4,175,Porto Riko
2053,5,175,Porto Rico
2054,6,175,Porto Rico
2055,7,175,Puerto Rico
2056,8,175,Пуэрто-Рико
2057,9,175,Puerto Rico
2058,10,175,プエルトリコ
2059,11,175,Puerto Rico; Porto Rico
2060,12,175,
2061,1,176,Katar
2062,2,176,Qatar
2063,3,176,Κατάρ
2064,4,176,Katar
2065,5,176,Qatar
2066,6,176,Qatar
2067,7,176,Qatar
2068,8,176,Катар
2069,9,176,Qatar
2070,10,176,カタール
2071,11,176,Qatar
2072,12,176,
2073,1,177,Reunion
2074,2,177,Reunion
2075,3,177,Ρεϊνιόν
2076,4,177,Birlesme
2077,5,177,Reunião
2078,6,177,Réunion
2079,7,177,Reunion
2080,8,177,Реюньон
2081,9,177,Reunión
2082,10,177,レユニオン
2083,11,177,Réunion
2084,12,177,
2085,1,178,Rumänien
2086,2,178,Romania
2087,3,178,Ρουμανία
2088,4,178,Romanya
2089,5,178,Roménia
2090,6,178,Roumanie
2091,7,178,Romania
2092,8,178,Румыния
2093,9,178,Rumania
2094,10,178,ルーマニア
2095,11,178,Roemenië
2096,12,178,
2097,1,179,Russland
2098,2,179,Russia
2099,3,179,Ρωσία
2100,4,179,Rusya
2101,5,179,Rússia
2102,6,179,Russie
2103,7,179,Russia
2104,8,179,Россия
2105,9,179,Rusia
2106,10,179,ロシア
2107,11,179,Rusland
2108,12,179,
2109,1,180,Ruanda
2110,2,180,Ruanda
2111,3,180,Ρουάντα
2112,4,180,Ruanda
2113,5,180,Ruanda
2114,6,180,Rwanda
2115,7,180,Rwanda
2116,8,180,Руанда
2117,9,180,Rwanda
2118,10,180,ルワンダ
2119,11,180,Rwanda
2120,12,180,
2121,1,181,Sankt Helena
2122,2,181,Sant Elena
2123,3,181,Αγία Ελένη
2124,4,181,Saint Helena
2125,5,181,Santa Helena
2126,6,181,Sainte-Hélène
2127,7,181,Saint Helena
2128,8,181,Остров Святой Елены
2129,9,181,Santa Elena
2130,10,181,セントヘレナ
2131,11,181,Sint-Helena
2132,12,181,
2133,1,182,St. Kitts und Nevis
2134,2,182,St. Kitts e Nevis
2135,3,182,Άγιος Χριστόφορος και Νέβις
2136,4,182,Saint Kitts ve Nevis
2137,5,182,St. Kitts e Nevis
2138,6,182,Saint-Christophe-et-Niévès
2139,7,182,Saint Kitts and Nevis
2140,8,182,Сент-Китс и Невис
2141,9,182,San Cristobal y Nevis
2142,10,182,セントキッツ・ネイビス
2143,11,182,Saint Kitts en Nevis
2144,12,182,
2145,1,183,St. Lucia
2146,2,183,Santa Lucia
2147,3,183,Αγία Λουκία
2148,4,183,Saint Lucia
2149,5,183,Santa Lúcia
2150,6,183,Sainte-Lucie
2151,7,183,Saint Lucia
2152,8,183,Сент-Люсия
2153,9,183,Santa Lucia
2154,10,183,セントルシア
2155,11,183,Saint Lucia
2156,12,183,
2157,1,184,St. Pierre and Miquelon
2158,2,184,St. Pierre e Miquelon
2159,3,184,Σαιν Πιερ και Μικελόν
2160,4,184,Saint Pierre ve Miquelon
2161,5,184,São Pedro e Miquelon
2162,6,184,Saint-Pierre-et-Miquelon
2163,7,184,Saint Pierre and Miquelon
2164,8,184,Сен-Пьер и Микелон
2165,9,184,San Pedro y Miquelón
2166,10,184,サンピエール島・ミクロン島
2167,11,184,Saint-Pierre en Miquelon
2168,12,184,
2169,1,185,Saint Vincent und die Grenadinen
2170,2,185,St. Vincent e Grenadine
2171,3,185,Σεντ Βίνσεντ και Γρεναδίνες
2172,4,185,Saint Vincent ve Grenadinler
2173,5,185,São Vicente e Granadinas
2174,6,185,Saint-Vincent-et-les Grenadines
2175,7,185,Saint Vincent and The Grenadines
2176,8,185,Сент-Винсент и Гренадины
2177,9,185,San Vicente y las Granadinas
2178,10,185,セントビンセント・グレナディーン
2179,11,185,Saint Vincent en de Grenadines
2180,12,185,
2181,1,186,Samoa
2182,2,186,Samoa
2183,3,186,Σαμόα
2184,4,186,Samoa
2185,5,186,Samoa
2186,6,186,Samoa
2187,7,186,Samoa
2188,8,186,Самоа
2189,9,186,Samoa
2190,10,186,サモア
2191,11,186,Samoa
2192,12,186,
2193,1,187,San Marino
2194,2,187,Repubblica di San Marino
2195,3,187,Άγιος Μαρίνος
2196,4,187,San Marino
2197,5,187,San Marino
2198,6,187,Saint-Marin
2199,7,187,San Marino
2200,8,187,Сан-Марино
2201,9,187,San Marino
2202,10,187,サンマリノ
2203,11,187,San Marino
2204,12,187,
2205,1,188,São Tomé und Principe
2206,2,188,Sao Tome e Principe
2207,3,188,Σάο Τομέ και Πρίνσιπε
2208,4,188,Sao Tome ve Principe
2209,5,188,São Tomé e Príncipe
2210,6,188,Sao Tomé-et-Principe
2211,7,188,Sao Tome and Principe
2212,8,188,Сан-Томе и Принсипи
2213,9,188,Santo Tomé y Príncipe
2214,10,188,サントメプリンシペ
2215,11,188,Sao Tomé en Principe
2216,12,188,
2217,1,189,Saudi-Arabien
2218,2,189,Arabia Saudita
2219,3,189,Σαουδική Αραβία
2220,4,189,Suudi Arabistan
2221,5,189,Arábia Saudita
2222,6,189,Arabie Saoudite
2223,7,189,Saudi Arabia
2224,8,189,Саудовская Аравия
2225,9,189,Arabia Saudí
2226,10,189,サウジアラビア
2227,11,189,Saudi-Arabië; Saoedi-Arabië
2228,12,189,
2229,1,190,Senegal
2230,2,190,Senegal
2231,3,190,Σενεγάλη
2232,4,190,Senegal
2233,5,190,Senegal
2234,6,190,Sénégal
2235,7,190,Senegal
2236,8,190,Сенегал
2237,9,190,Senegal
2238,10,190,セネガル
2239,11,190,Senegal
2240,12,190,
2241,1,191,Serbien
2242,2,191,Serbia
2243,3,191,Σερβία
2244,4,191,Sirbistan
2245,5,191,Sirvia
2246,6,191,Serbie
2247,7,191,Serbia
2248,8,191,Сербия
2249,9,191,Serbia
2250,10,191,セルビア
2251,11,191,Servië
2252,12,191,
2253,1,192,Seychellen
2254,2,192,Seychelles
2255,3,192,Σεϋχέλλες
2256,4,192,Seyseller
2257,5,192,Seicheles
2258,6,192,Seychelles
2259,7,192,Seychelles
2260,8,192,Сейшельские острова
2261,9,192,Seychelles
2262,10,192,セィシェル
2263,11,192,Seychellen
2264,12,192,
2265,1,193,Sierra Leone
2266,2,193,Sierra Leone
2267,3,193,Σιέρα Λεόνε
2268,4,193,Sierra Leone
2269,5,193,Serra Leoa
2270,6,193,Sierra Leone
2271,7,193,Sierra Leone
2272,8,193,Сьерра-Леоне
2273,9,193,Sierra Leona
2274,10,193,シエラレオネ
2275,11,193,Sierra Leone
2276,12,193,
2277,1,194,Singapur
2278,2,194,Singapore
2279,3,194,Σινγκαπούρη
2280,4,194,Singapur
2281,5,194,Singapura
2282,6,194,Singapour
2283,7,194,Singapore
2284,8,194,Сингапур
2285,9,194,Singapur
2286,10,194,シンガポール
2287,11,194,Singapore
2288,12,194,
2289,1,195,Slowakei
2290,2,195,Slovacchia
2291,3,195,Σλοβακία
2292,4,195,Slovakya
2293,5,195,Eslováquia
2294,6,195,Slovaquie
2295,7,195,Slovakia
2296,8,195,Словакия
2297,9,195,Eslovaquia
2298,10,195,スロバキア
2299,11,195,Slowakije; Slovakije
2300,12,195,
2301,1,196,Slowenien
2302,2,196,Slovenia
2303,3,196,Σλοβενία
2304,4,196,Slovenya
2305,5,196,Eslovénia
2306,6,196,Slovénie
2307,7,196,Slovenia
2308,8,196,Словения
2309,9,196,Eslovenia
2310,10,196,スロベニア
2311,11,196,Slovenië
2312,12,196,
2313,1,197,Salomoninseln
2314,2,197,Isole Salomone
2315,3,197,Νήσοι Σολομώντα
2316,4,197,Solomon Adalari
2317,5,197,Ilhas Salomão
2318,6,197,Îles Salomon
2319,7,197,Solomon Islands
2320,8,197,Соломоновы острова
2321,9,197,Islas Salomón
2322,10,197,ソロモン諸島
2323,11,197,Salomonseilanden
2324,12,197,
2325,1,198,Somalia
2326,2,198,Somalia
2327,3,198,Σομαλία
2328,4,198,Somali
2329,5,198,Somália
2330,6,198,Somalie
2331,7,198,Somalia
2332,8,198,Сомали
2333,9,198,Somalia
2334,10,198,ソマリア
2335,11,198,Somalië
2336,12,198,
2337,1,199,Südafrika
2338,2,199,Sudafrica
2339,3,199,Νότια Αφρική
2340,4,199,Güney Afrika
2341,5,199,África do Sul
2342,6,199,Afrique Du Sud
2343,7,199,South Africa
2344,8,199,ЮАР
2345,9,199,Sudáfrica
2346,10,199,南アフリカ
2347,11,199,Zuid-Afrika
2348,12,199,
2349,1,200,Südgeorgien und Südliche Sandwichinseln
2350,2,200,Georgia del Sud e Isole Sandwich
2351,3,200,Νήσοι Νότια Γεωργία και Νότιες Σάντουιτς
2352,4,200,Güney Georgia ve Güney Sandwich Adalari
2353,5,200,Geórgia do Sul e Sandwich do Sul
2354,6,200,Géorgie du Sud et les Îles Sandwich du Sud
2355,7,200,South Georgia and the South Sandwich Islands
2356,8,200,Южная Георгия и Южные Сандвичевы острова
2357,9,200,Islas Georgias del Sur y Sándwich del sur
2358,10,200,サウスジョージア＆サウスサンドイッチ諸島
2359,11,200,Zuid-Georgia en de Zuidelijke Sandwicheilanden
2360,12,200,
2361,1,201,Süd-Korea
2362,2,201,Corea del Sud
2363,3,201,Νότια Κορέα
2364,4,201,Güney Kore
2365,5,201,Coreia do Sul
2366,6,201,Corée du Sud
2367,7,201,South Korea
2368,8,201,Южная Корея
2369,9,201,"Corea, República de"
2370,10,201,韓国
2371,11,201,Zuid-Korea
2372,12,201,
2373,1,202,
2374,2,202,
2375,3,202,
2376,4,202,
2377,5,202,
2378,6,202,
2379,7,202,South Soudan
2380,8,202,
2381,9,202,
2382,10,202,
2383,11,202,
2384,12,202,南苏丹
2385,1,203,Spanien
2386,2,203,Spagna
2387,3,203,Ισπανία
2388,4,203,Ispanya
2389,5,203,Espanha
2390,6,203,Espagne
2391,7,203,Spain
2392,8,203,Испания
2393,9,203,España
2394,10,203,スペイン
2395,11,203,Spanje
2396,12,203,
2397,1,204,Sri Lanka
2398,2,204,Sri Lanka
2399,3,204,Σρι Λάνκα
2400,4,204,Sri Lanka
2401,5,204,Sri Lanka
2402,6,204,Sri Lanka
2403,7,204,Sri Lanka
2404,8,204,Шри Ланка
2405,9,204,Sri Lanka
2406,10,204,スリランカ
2407,11,204,Sri Lanka
2408,12,204,
2409,1,205,Sudan
2410,2,205,Sudan
2411,3,205,Σουδάν
2412,4,205,Sudan
2413,5,205,Sudão
2414,6,205,Soudan
2415,7,205,Sudan
2416,8,205,Судан
2417,9,205,Sudán
2418,10,205,スーダン
2419,11,205,Sudan; Soedan
2420,12,205,
2421,1,206,Surinam
2422,2,206,Suriname
2423,3,206,Σουρινάμ
2424,4,206,Surinam
2425,5,206,Suriname
2426,6,206,Suriname
2427,7,206,Suriname
2428,8,206,Суринам
2429,9,206,Suriname
2430,10,206,スリナム
2431,11,206,Suriname
2432,12,206,
2433,1,207,Svalbard
2434,2,207,Isole Svalbard e Jan Mayen
2435,3,207,Σβάλμπαρντ και Γιαν Μαγιέν
2436,4,207,Svalbard ve Jan Mayen
2437,5,207,Svalbard e Jan Mayen
2438,6,207,Svalbard Et Jan Mayen
2439,7,207,Svalbard and Jan Mayen
2440,8,207,Шпицберген и Ян-Майен
2441,9,207,Svalbard y Jan Mayen
2442,10,207,スヴァールバル諸島およびヤンマイエン島
2443,11,207,Svalbard en Jan Mayen
2444,12,207,
2445,1,208,Swasiland
2446,2,208,Swaziland
2447,3,208,Σουαζιλάνδη
2448,4,208,Svaziland
2449,5,208,Suazilândia
2450,6,208,Swaziland
2451,7,208,Swaziland
2452,8,208,Свазиленд
2453,9,208,Swazilandía
2454,10,208,スワジランド
2455,11,208,Swaziland
2456,12,208,
2457,1,209,Schweden
2458,2,209,Svezia
2459,3,209,Σουηδία
2460,4,209,Isveç
2461,5,209,Suécia
2462,6,209,Suède
2463,7,209,Sweden
2464,8,209,Швеция
2465,9,209,Suecia
2466,10,209,スウェーデン
2467,11,209,Zweden
2468,12,209,
2469,1,210,Schweiz
2470,2,210,Svizzera
2471,3,210,Ελβετία
2472,4,210,Isviçre
2473,5,210,Suiça
2474,6,210,Suisse
2475,7,210,Switzerland
2476,8,210,Швейцария
2477,9,210,Suiza
2478,10,210,スイス
2479,11,210,Zwitserland
2480,12,210,
2481,1,211,Syrien
2482,2,211,Siria
2483,3,211,Συρία
2484,4,211,Suriye
2485,5,211,Síria
2486,6,211,Syrie
2487,7,211,Syria
2488,8,211,Сирия
2489,9,211,Siria
2490,10,211,シリア
2491,11,211,Syrië
2492,12,211,
2493,1,212,Taiwan
2494,2,212,Taiwan
2495,3,212,Ταιβάν
2496,4,212,Tayvan
2497,5,212,Taiwan
2498,6,212,Taiwan
2499,7,212,Taiwan
2500,8,212,Тайвань
2501,9,212,Taiwan
2502,10,212,台湾
2503,11,212,Taiwan
2504,12,212,
2505,1,213,Tadschikistan
2506,2,213,Tagikistan
2507,3,213,Τατζικιστάν
2508,4,213,Tacikistan
2509,5,213,Tajiquistão
2510,6,213,Tadjikistan
2511,7,213,Tajikistan
2512,8,213,Таджикистан
2513,9,213,Tayikistán
2514,10,213,タジキスタン
2515,11,213,Tadzjikistan
2516,12,213,
2517,1,214,Tansania
2518,2,214,Tanzania
2519,3,214,Τανζανία
2520,4,214,Tanzanya
2521,5,214,Tanzânia
2522,6,214,Tanzanie
2523,7,214,Tanzania
2524,8,214,Танзания
2525,9,214,Tanzania
2526,10,214,タンザニア
2527,11,214,Tanzania
2528,12,214,
2529,1,215,Thailand
2530,2,215,Tailandia
2531,3,215,Ταϊλάνδη
2532,4,215,Tayland
2533,5,215,Tailândia
2534,6,215,Thaïlande
2535,7,215,Thailand
2536,8,215,Таиланд
2537,9,215,Tailandia
2538,10,215,タイ
2539,11,215,Thailand
2540,12,215,
2541,1,216,Timor-Leste
2542,2,216,Timor-Est
2543,3,216,Ανατολικό Τιμόρ
2544,4,216,Dogu Timor
2545,5,216,Timor-Leste
2546,6,216,Timor oriental
2547,7,216,Timor-Leste
2548,8,216,Тимор-Лешти
2549,9,216,Timor Oriental
2550,10,216,東ティモール
2551,11,216,Oost-Timor
2552,12,216,
2553,1,217,Togo
2554,2,217,Togo
2555,3,217,Τόγκο
2556,4,217,Togo
2557,5,217,Togo
2558,6,217,Togo
2559,7,217,Togo
2560,8,217,Того
2561,9,217,Togo
2562,10,217,トーゴ
2563,11,217,Togo
2564,12,217,
2565,1,218,Tokelau-Inseln
2566,2,218,Tokelau
2567,3,218,Τοκελάου
2568,4,218,Tokelau
2569,5,218,Toquelau
2570,6,218,Tokelau
2571,7,218,Tokelau
2572,8,218,Токелау
2573,9,218,Tokelau
2574,10,218,トケラウ
2575,11,218,
2576,12,218,
2577,1,219,Tonga
2578,2,219,Tonga
2579,3,219,Τόνγκα
2580,4,219,Tonga
2581,5,219,Tonga
2582,6,219,Tonga
2583,7,219,Tonga
2584,8,219,Тонга
2585,9,219,Tonga
2586,10,219,トンガ
2587,11,219,Tonga
2588,12,219,
2589,1,220,Trinidad und Tobago
2590,2,220,Trinidad e Tobago
2591,3,220,Τρινιντάντ και Τομπάγκο
2592,4,220,Trinidad ve Tobago
2593,5,220,Trindade e Tobago
2594,6,220,Trinité-et-Tobago
2595,7,220,Trinidad and Tobago
2596,8,220,Тринидад и Тобаго
2597,9,220,Trinidad y Tobago
2598,10,220,トリニダード・トバゴ
2599,11,220,Trinidad en Tobago
2600,12,220,
2601,1,221,Tunesien
2602,2,221,Tunisia
2603,3,221,Τυνησία
2604,4,221,Tunus
2605,5,221,Tunísia
2606,6,221,Tunisie
2607,7,221,Tunisia
2608,8,221,Тунис
2609,9,221,Tunez
2610,10,221,チュニジア
2611,11,221,Tunesië
2612,12,221,
2613,1,222,Türkei
2614,2,222,Turchia
2615,3,222,Τουρκία
2616,4,222,Türkiye
2617,5,222,Turquia
2618,6,222,Turquie
2619,7,222,Turkey
2620,8,222,Турция
2621,9,222,Turquia
2622,10,222,トルコ
2623,11,222,Turkije
2624,12,222,
2625,1,223,Turkmenistan
2626,2,223,Turkmenistan
2627,3,223,Τουρκμενιστάν
2628,4,223,Türkmenistan
2629,5,223,Turquemenistão
2630,6,223,Turkménistan
2631,7,223,Turkmenistan
2632,8,223,Туркменистан
2633,9,223,Turkmenistán
2634,10,223,トルクメニスタン
2635,11,223,Turkmenistan
2636,12,223,
2637,1,224,Turks- und Caicos-Inseln
2638,2,224,Isole Turks e Caicos
2639,3,224,Νησιά Τερκς και Κάικος
2640,4,224,Turks ve Caicos Adalari
2641,5,224,Ilhas Turks e Caicos
2642,6,224,Îles Turques et Caïques
2643,7,224,Turks and Caicos Islands
2644,8,224,Острова Теркс и Кайкос
2645,9,224,Islas Turcas y Caicos
2646,10,224,タークス・カイコス諸島
2647,11,224,Turks- en Caicoseilanden
2648,12,224,
2649,1,225,Tuvalu
2650,2,225,Tuvalu
2651,3,225,Τουβαλού
2652,4,225,Tuvalu
2653,5,225,Tuvalu
2654,6,225,Tuvalu
2655,7,225,Tuvalu
2656,8,225,Тувалу
2657,9,225,Tuvalu
2658,10,225,ツバル
2659,11,225,Tuvalu
2660,12,225,
2661,1,226,Uganda
2662,2,226,Uganda
2663,3,226,Ουγκάντα
2664,4,226,Uganda
2665,5,226,Uganda
2666,6,226,Ouganda
2667,7,226,Uganda
2668,8,226,Уганда
2669,9,226,Uganda
2670,10,226,ウガンダ
2671,11,226,Uganda; Oeganda
2672,12,226,
2673,1,227,Ukraine
2674,2,227,Ucraina
2675,3,227,Ουκρανία
2676,4,227,Ukrayna
2677,5,227,Ucrânia
2678,6,227,Ukraine
2679,7,227,Ukraine
2680,8,227,Украина
2681,9,227,Ucrania
2682,10,227,ウクライナ
2683,11,227,Oekraïne
2684,12,227,
2685,1,228,Vereinigte Arabische Emirate
2686,2,228,Emirati Arabi Uniti
2687,3,228,Ηνωμένα Αραβικά Εμιράτα
2688,4,228,Birlesik Arap Emirlikleri
2689,5,228,Emiratos Árabes Unidos
2690,6,228,Émirats Arabes Unis
2691,7,228,United Arab Emirates
2692,8,228,Объединенные Арабские Эмираты
2693,9,228,Emiratos Árabes Unidos
2694,10,228,アラブ首長国連邦
2695,11,228,Verenigde Arabische Emiraten
2696,12,228,
2697,1,229,Vereinigtes Königreich Großbritannien und Nordirland
2698,2,229,Regno Unito di Gran Bretagna e Irlanda del Nord
2699,3,229,Ηνωμένο Βασίλειο
2700,4,229,Büyük Britanya ve Kuzey Irlanda
2701,5,229,Reino Unido
2702,6,229,Royaume-Uni
2703,7,229,United Kingdom
2704,8,229,Великобритания
2705,9,229,Reino Unido
2706,10,229,イギリス
2707,11,229,Verenigd Koninkrijk
2708,12,229,
2709,1,230,USA
2710,2,230,Stati Uniti d'America
2711,3,230,Ηνωμένες Πολιτείες
2712,4,230,Amerika Birlesik Devletleri
2713,5,230,Estados Unidos da América
2714,6,230,États-unis
2715,7,230,United States
2716,8,230,Соединенные Штаты
2717,9,230,Estados Unidos
2718,10,230,アメリカ合衆国
2719,11,230,Verenigde Staten
2720,12,230,
2721,1,231,Kleinere Außeninseln der Vereinigten Staaten
2722,2,231,Isole Minori degli Stati Uniti
2723,3,231,Απομακρυσμένες Νησίδες των Ηνωμένων Πολιτειών
2724,4,231,Amerika Birlesik Devletleri Küçük Dis Adalari
2725,5,231,Ilhas Menores Distantes dos Estados Unidos
2726,6,231,Îles Mineures éloignées des États-Unis
2727,7,231,United States Minor Outlying Islands
2728,8,231,Внешние малые острова США
2729,9,231,Islas Ultramarinas de Estados Unidos
2730,10,231,合衆国領有小離島
2731,11,231,Amerikaanse ondergeschikte afgelegen eilanden
2732,12,231,
2733,1,232,Uruguay
2734,2,232,Uruguay
2735,3,232,Ουρουγάη
2736,4,232,Uruguay
2737,5,232,Uruguai
2738,6,232,Uruguay
2739,7,232,Uruguay
2740,8,232,Уругвай
2741,9,232,Uruguay
2742,10,232,ウルグアイ
2743,11,232,Uruguay
2744,12,232,
2745,1,233,Usbekistan
2746,2,233,Uzbekistan
2747,3,233,Ουζμπεκιστάν
2748,4,233,Özbekistan
2749,5,233,Usbequistão
2750,6,233,Ouzbékistan
2751,7,233,Uzbekistan
2752,8,233,Узбекистан
2753,9,233,Uzbekistán
2754,10,233,ウズベキスタン
2755,11,233,Oezbekistan
2756,12,233,
2757,1,234,Vanuatu
2758,2,234,Vanuatu
2759,3,234,Βανουάτου
2760,4,234,Vanuatu
2761,5,234,Vanuatu
2762,6,234,Vanuatu
2763,7,234,Vanuatu
2764,8,234,Вануату
2765,9,234,Vanuatu
2766,10,234,バヌアツ
2767,11,234,Vanuatu
2768,12,234,
2769,1,235,Vatikanstadt
2770,2,235,Stato del Vaticano
2771,3,235,Βατικανό
2772,4,235,Vatikan Sehir Devleti
2773,5,235,Vaticano
2774,6,235,Vatican
2775,7,235,Vatican City State
2776,8,235,Город-государство Ватикан
2777,9,235,Santa Sede (Ciudad del Vaticano)
2778,10,235,バチカン市国
2779,11,235,Vaticaanstad
2780,12,235,
2781,1,236,Venezuela
2782,2,236,Venezuela
2783,3,236,Βενεζουέλα
2784,4,236,Venezuela
2785,5,236,Venezuela
2786,6,236,Venezuela
2787,7,236,Venezuela
2788,8,236,Венесуэла
2789,9,236,Venezuela
2790,10,236,ベネズエラ
2791,11,236,Venezuela
2792,12,236,
2793,1,237,Vietnam
2794,2,237,Vietnam
2795,3,237,Βιετνάμ
2796,4,237,Vietnam
2797,5,237,Vietname
2798,6,237,Viet Nam
2799,7,237,Viet Nam
2800,8,237,Вьетнам
2801,9,237,Vietnam
2802,10,237,ベトナム
2803,11,237,Vietnam
2804,12,237,
2805,1,238,"Jungferninseln, Britische"
2806,2,238,Isole Vergini Britanniche
2807,3,238,Βρετανικές Παρθένοι Νήσοι
2808,4,238,"Virgin Adalari, Ingiliz"
2809,5,238,Ilhas Virgens Britânicas
2810,6,238,Îles Vierges Britanniques
2811,7,238,"Virgin Islands, British"
2812,8,238,Британские Виргинские острова
2813,9,238,Islas Vírgenes Británicas
2814,10,238,英領バージン諸島
2815,11,238,Britse Maagdeneilanden
2816,12,238,
2817,1,239,"Jungferninseln, Amerikanische"
2818,2,239,Isole Vergini Americane
2819,3,239,Αμερικανικές Παρθένοι Νήσοι
2820,4,239,"Virgin Adalari, ABD"
2821,5,239,Ilhas Virgens Americanas
2822,6,239,Îles Vierges des États-Unis
2823,7,239,"Virgin Islands, U.S."
2824,8,239,Виргинские острова (США)
2825,9,239,Islas Vírgenes Americanas
2826,10,239,アメリカ領ヴァージン諸島
2827,11,239,Amerikaanse Maagdeneilanden
2828,12,239,
2829,1,240,Wallis et Futuna
2830,2,240,Isole Wallis e Futuna
2831,3,240,Γουόλις και Φουτούνα
2832,4,240,Wallis ve Futuna
2833,5,240,Ilhas Wallis e Futuna
2834,6,240,Wallis-et-Futuna
2835,7,240,Wallis and Futuna
2836,8,240,Уоллис и Футуна
2837,9,240,Wallis y Futuna
2838,10,240,ウォリス・フツナ
2839,11,240,Wallis en Futuna
2840,12,240,
2841,1,241,Westsahara
2842,2,241,Western Sahara
2843,3,241,Δυτική Σαχάρα
2844,4,241,Bati Sahra
2845,5,241,Saara Ocidental
2846,6,241,Sahara Occidental
2847,7,241,Western Sahara
2848,8,241,Западная Сахара
2849,9,241,Sahara Occidental
2850,10,241,西サハラ
2851,11,241,Westelijke Sahara
2852,12,241,
2853,1,242,Jemen
2854,2,242,Yemen
2855,3,242,Υεμένη
2856,4,242,Yemen
2857,5,242,Iémen
2858,6,242,Yémen
2859,7,242,Yemen
2860,8,242,Йемен
2861,9,242,Yemen
2862,10,242,イエメン
2863,11,242,Jemen
2864,12,242,
2865,1,243,Sambia
2866,2,243,Zambia
2867,3,243,Ζάμπια
2868,4,243,Zambiya
2869,5,243,Zâmbia
2870,6,243,Zambie
2871,7,243,Zambia
2872,8,243,Замбия
2873,9,243,Zambia
2874,10,243,ザンビア
2875,11,243,Zambia
2876,12,243,
2877,1,244,Simbabwe
2878,2,244,Zimbabwe
2879,3,244,Ζιμπάμπουε
2880,4,244,Zimbabve
2881,5,244,Zimbabwe
2882,6,244,Zimbabwe
2883,7,244,Zimbabwe
2884,8,244,Зимбабве
2885,9,244,Zimbabwe
2886,10,244,ジンバブエ
2887,11,244,Zimbabwe
2888,12,244,
