{
  "project_info": {
    "project_number": "766446582686",
    "firebase_url": "https://go-voyages-prod.firebaseio.com",
    "project_id": "go-voyages-prod",
    "storage_bucket": "go-voyages-prod.appspot.com"
  },
  "client": [
    {
      "client_info": {
        "mobilesdk_app_id": "1:766446582686:android:e60570ef2e3bd70b",
        "android_client_info": {
          "package_name": "go.voyage"
        }
      },
      "oauth_client": [
        {
          "client_id": "766446582686-ruu4j605s59f7bojelivhs1laf612iei.apps.googleusercontent.com",
          "client_type": 1,
          "android_info": {
            "package_name": "go.voyage",
            "certificate_hash": "DE156B7324DEB65F624D0C251E1BC4835D6E05B6"
          }
        },
        {
          "client_id": "766446582686-m8047uds6dt8eqgsbq5ujldud5rc9bmo.apps.googleusercontent.com",
          "client_type": 3
        },
        {
          "client_id": "766446582686-3rdbrtbg8vtt0cihtdfuaapl9i1j5bsm.apps.googleusercontent.com",
          "client_type": 3
        }
      ],
      "api_key": [
        {
          "current_key": "AIzaSyCnWAq9Vu3VH323VHiu4DIuzfGr6o-FE5M"
        }
      ],
      "services": {
        "analytics_service": {
          "status": 1
        },
        "appinvite_service": {
          "status": 2,
          "other_platform_oauth_client": [
            {
              "client_id": "766446582686-sfer7420mr1fjttk6djss9j4l5c9l8ng.apps.googleusercontent.com",
              "client_type": 2,
              "ios_info": {
                "bundle_id": "com.govoyages.iphone.govoyages",
                "app_store_id": "388162153"
              }
            },
            {
              "client_id": "766446582686-m8047uds6dt8eqgsbq5ujldud5rc9bmo.apps.googleusercontent.com",
              "client_type": 3
            }
          ]
        },
        "ads_service": {
          "status": 2
        }
      }
    }
  ],
  "configuration_version": "1"
}