1,11007,AF,+93
2,11248,AX,
3,11008,AL,+355
4,11012,DZ,+213
5,11016,AS,+1 684
6,11020,AD,+376
7,11024,AO,+244
8,11660,AI,+1 264
9,11010,AQ,+672
10,11028,AG,+1 268
11,11032,AR,+54
12,11051,AM,+374
13,11533,AW,+297
14,11036,AU,+61
15,11040,AT,+43
16,11031,AZ,+994
17,11044,BS,+1 242
18,11048,BH,+973
19,11050,BD,+880
20,11052,BB,+1 246
21,11112,BY,+375
22,11056,BE,+32
23,11084,BZ,+501
24,11204,BJ,+229
25,11060,BM,+1 441
26,11064,BT,+975
27,11068,BO,+591
28,11070,BA,+387
29,11072,BW,+267
30,11074,BV,
31,11076,BR,+55
32,11086,IO,
33,11096,BN,+673
34,11100,BG,+359
35,11854,BF,+226
36,11108,BI,+257
37,11116,KH,+855
38,11120,CM,+237
39,11124,CA,+1
40,11132,CV,+238
41,1074175,BQ,+599
42,11136,KY,+1 345
43,11140,CF,+236
44,11148,TD,+235
45,11152,CL,+56
46,11156,CN,+86
47,11162,CX,+61
48,11166,CC,+61
49,11170,CO,+57
50,11174,KM,+269
51,11178,CG,+242
52,11184,CK,+682
53,11188,CR,+506
54,11384,CI,+225
55,11191,HR,+385
56,11192,CU,+53
57,11196,CY,+357
58,11203,CZ,+420
59,11208,DK,+45
60,11262,DJ,+253
61,11212,DM,+1 767
62,11214,DO,+1 809
63,11905,CD,+243
64,11218,EC,+593
65,11818,EG,+20
66,11222,SV,+503
67,11226,GQ,+240
68,11232,ER,+291
69,11233,EE,+372
70,11231,ET,+251
71,11238,FK,+500
72,11234,FO,+298
73,11242,FJ,+679
74,11246,FI,+358
75,11250,FR,+33
76,11254,GF,
77,11258,PF,+689
78,11260,TF,
79,11266,GA,+241
80,11270,GM,+220
81,11268,GE,+995
82,11276,DE,+49
83,11288,GH,+233
84,11292,GI,+350
85,11300,GR,+30
86,11304,GL,+299
87,11308,GD,+1 473
88,11312,GP,
89,11316,GU,+1 671
90,11320,GT,+502
91,11324,GN,+224
92,11624,GW,+245
93,11328,GY,+592
94,11332,HT,+509
95,11334,HM,
96,11340,HN,+504
97,11344,HK,+852
98,11348,HU,+36
99,11352,IS,+354
100,11356,IN,+91
101,11360,ID,+62
102,11364,IR,+98
103,11368,IQ,+964
104,11372,IE,+353
105,11376,IL,+972
106,11380,IT,+39
107,11388,JM,+1 876
108,11392,JP,+81
109,11400,JO,+962
110,11398,KZ,+7
111,11404,KE,+254
112,11296,KI,+686
113,1073775,XK,+381
114,11414,KW,+965
115,11417,KG,+996
116,11418,LA,+856
117,11428,LV,+371
118,11422,LB,+961
119,11426,LS,+266
120,11430,LR,+231
121,11434,LY,+218
122,11438,LI,+423
123,11440,LT,+370
124,11442,LU,+352
125,11446,MO,+853
126,11807,MK,+389
127,11450,MG,+261
128,11454,MW,+265
129,11458,MY,+60
130,11462,MV,+960
131,11466,ML,+223
132,11470,MT,+356
133,11584,MH,+692
134,11474,MQ,
135,11478,MR,+222
136,11480,MU,+230
137,11175,YT,+262
138,11484,MX,+52
139,11583,FM,+691
140,11498,MD,+373
141,11492,MC,+377
142,11496,MN,+976
143,11895,ME,+382
144,11500,MS,+1 664
145,11504,MA,+212
146,11508,MZ,+258
147,11104,MM,+95
148,11516,NA,+264
149,11520,NR,+674
150,11524,NP,+977
151,11528,NL,+31
152,11530,AN,+599
153,11540,NC,+687
154,11554,NZ,+64
155,11558,NI,+505
156,11562,NE,+227
157,11566,NG,+234
158,11570,NU,+683
159,11574,NF,
160,11580,MP,+1 670
161,11408,KP,+850
162,11578,NO,+47
163,11512,OM,+968
164,11586,PK,+92
165,11585,PW,+680
166,11275,PS,
167,11591,PA,+507
168,11598,PG,+675
169,11600,PY,+595
170,11604,PE,+51
171,11608,PH,+63
172,11612,PN,+870
173,11616,PL,+48
174,11620,PT,+351
175,11630,PR,+1
176,11634,QA,+974
177,11638,RE,
178,11642,RO,+40
179,11643,RU,+7
180,11646,RW,+250
181,11654,SH,+290
182,11659,KN,+1 869
183,11662,LC,+1 758
184,11666,PM,+508
185,11670,VC,+1 784
186,11882,WS,+685
187,11674,SM,+378
188,11678,ST,+239
189,11682,SA,+966
190,11686,SN,+221
191,11896,RS,+381
192,11690,SC,+248
193,11694,SL,+232
194,11702,SG,+65
195,11703,SK,+421
196,11705,SI,+386
197,11090,SB,+677
198,11706,SO,+252
199,11710,ZA,+27
200,11239,GS,
201,11410,KR,+82
202,1074174,SS,+221
203,11724,ES,+34
204,11144,LK,+94
205,11736,SD,+249
206,11740,SR,+597
207,11744,SJ,
208,11748,SZ,+268
209,11752,SE,+46
210,11756,CH,+41
211,11760,SY,+963
212,11158,TW,+886
213,11762,TJ,+992
214,11834,TZ,+255
215,11764,TH,+66
216,11903,TL,+670
217,11768,TG,+228
218,11772,TK,+690
219,11776,TO,+676
220,11780,TT,+1 868
221,11788,TN,+216
222,11792,TR,+90
223,11795,TM,+993
224,11796,TC,+1 649
225,11798,TV,+688
226,11800,UG,+256
227,11804,UA,+380
228,11784,AE,+971
229,11826,GB,+44
230,11840,US,+1
231,11581,UM,
232,11858,UY,+598
233,11860,UZ,+998
234,11548,VU,+678
235,11336,VA,+39
236,11862,VE,+58
237,11704,VN,+84
238,11092,VG,+1 284
239,11850,VI,+1 340
240,11876,WF,+681
241,11732,EH,
242,11887,YE,+967
243,11894,ZM,+260
244,11716,ZW,+263
